{
    "reviews": [ {
        "id": 3984,
        "user_id": 66430,
        "review": "Είχα παραγγείλει κάποιες ταινίες σε DVD και BLUERAY κι ένα pc game. To game δεν το είχαν τελικά αλλά με πήραν τηλέφωνο αμέσως για να μου το πουν καθώς και για να με ρωτήσουν αν τελικά θέλω να παραλάβω τα υπόλοιπα πράγματα που είχα παραγγείλει. Δέχτηκα φυσικά και την επόμενη μέρα παρέλαβα την παραγγελεία μου. Έχω μείνει απόλυτα ευχαριστημένος. ",
        "rating": 5,
        "shop_reply": null,
        "created_at": "2010-12-28T02:31:12+02:00"
    }, {
        "id": 3940,
        "user_id": 66396,
        "review": "Η τελευταία παραλαβή μου ηταν χθες το βράδι απο το κατάστημα Ζωγράφου και η ωρα που ήταν 9 το βράδι και χωρίς κανένα πρόβλημα.Η μιτρική που πήρα ASUS M4A88T-V EVO μετά κατάλαβα στο σπίτι ότι το κουτί ήταν ανοιχτό,μάλλον το είχαν τσεκάρει αν είναι όλλα μεσα ή κατι άλλο το οποίο όμως δεν έχει πρόβλημα,επειδή είδα όλλα ήταν μέσα.Είναι πρώτη φορά που γράφω εδώ στο σκρούτζ για το πολύ καλό e-shop τουλάχιστον μέχρι τώρα δεν είχα κανένα πρόβλημα με το αυτό το μαγαζί.Για'μένα το e-shop είναι μια καλή και άριστη επιλογή σε κάποια προιόντα.Για αύριο περιμένω άλλες τέσσερις συσκεύες και πιστεύω να μην έχουν κανένα πρόβλημα όπως μέχρι τώρα.",
        "rating": 5,
        "shop_reply": null,
        "created_at": "2010-12-23T00:14:31+02:00"
    }, {
        "id": 3692,
        "user_id": 64228,
        "review": "Θέλοντας να αποκτήσω την τηλεόραση SAMSUNG UE 40C6000 έκανα έρευνα αγοράς μέσω INTERNET και κατέληξα  στο κατ/μα του e-shop βασικά λόγω τιμής αλλά και λόγω ονόματος. Να σημειωθεί οτι στο κάτω μέρος της καταχώρισης, όταν έκανα την έρευνα, υπήρχε η ένδειξη οτι αναμένεται νέα παραλαβή  η 23η Οκτωβρίου, η οποία κάθε εβδομάδα ανανεώνονταν. Παρ όλα αυτά την 2.11.2010 παρήγγειλα το συγκεκριμένο προϊόν (κωδ. παραγγελίας 101025202140178128243205) με ενδεχόμενη ημερομηνία νέας παραλαβής 7.11.2010. Δυστυχώς η ημερομηνία αυτή άλλαζε κάθε εβδομάδα. Ακόμη και σήμερα εμφανίζεται ως ημερομηνία παραλαβής η 6η Δεκεμβρίου 2010. Ετσι αναγκάστηκα να ακυρώσω την παραγγελία θεωρώντας οτι το συγκεκριμένο κατάστημα μας εμπαίζει και να στραφώ στην αγορά του συγκεκριμένου προϊόντος και μάλιστα με ευνοϊκότερους όρους από άλλο ιντερνετικό κατάστημα. ",
        "rating": 1,
        "shop_reply": null,
        "created_at": "2010-11-30T20:31:21+02:00"
    }, {
        "id": 3618,
        "user_id": 27378,
        "review": "Αγόρασα εξωτερικό σκληρό (WesternDigital) και κάρτα μνήμης για λαπτοπ (kingston) στις 01/11/2010. Όπως συνήθως επιλέγω παραλαβή από κατάστημα και αντικαταβολή. Η παραγγελία έφτασε εγκαίρως (στον αναγραφόμενο στην ιστοσελίδα χρόνο) στο κατάστημα και ειδοποιήθηκα σχετικά με sms. Τα αντικείμενα ανταποκρίνονται πλήρως στις προδιαγραφές όπως αυτές αναφέρονται στην ιστοσελίδα. ",
        "rating": 4,
        "shop_reply": null,
        "created_at": "2010-11-23T00:05:43+02:00"
    }, {
        "id": 3597,
        "user_id": 6348,
        "review": "Αγορασα 2 ασύρματα ποντίκια από προσφορά που έκανε το eshop.\r\nΑψογα τα ποντίκια. Η 3ήμερη καθυστέρηση αναμενόμενη λόγω εξάντλησης τους. \r\nΛογικό γιατί η τιμή τους ήταν άπαικτη!",
        "rating": 5,
        "shop_reply": null,
        "created_at": "2010-11-21T21:32:50+02:00"
    }, {
        "id": 3576,
        "user_id": 63919,
        "review": "Επιθυμώντας να αγοράσω ένα Lenovo s10-3, και για να ειμαι ΑΠΟΛΥΤΑ σιγουρος για τις προδιαγραφές αυτού που θα αγόραζα, ζήτησα από το τμήμα πωλήσεων να μου πουν το Part Number του κατασκευαστή για το συγκεκριμένο μοντέλο που πουλάνε.\r\nΜου απάντησε ότι αυτό δεν είναι εφικτό, ζήτησα να μιλήσω σε κάποιον προϊστάμενο, μου είπε ότι δεν υπάρχει κάποιος, εστειλα παράπονο μέσω της διαδικασίας Feedback και αν και εχουν περάσει 2 ημέρες δεν έχω λάβει καμία απάντηση.\r\nΤο Part Number βρισκεται πάνω στη συσκευασία και ακόμα και αν δεν υπάρχει stock – αν και φαίνεται διαθέσιμο – μπορουν να το μάθουν ρωτώντας τον προμηθευτή τους.\r\nΒεβαίως το netbook δεν το έχω αγοράσει ακόμα.",
        "rating": 1,
        "shop_reply": null,
        "created_at": "2010-11-19T18:07:00+02:00"
    }, {
        "id": 3339,
        "user_id": 41745,
        "review": "Σε συνέχεια των προηγούμενων παραπόνων.\r\n\r\nΕίχα παραγγείλει και ένα mp3 schaub lorenz 4gb το οποίο ήρθε και δε δούλευε... αλλάχτηκε μετά από πήγαινε έλα, αλλά αυτό που ήρθε ήταν 2gb αντί 4gb... και φυσικά ξαναπήγε για άλλαγμα!!!\r\n\r\nΓενικά από ότι έχω καταλάβει δεν γίνεται έλεγχος παραδοτέων...\r\n\r\nΓια after sales service τα είπα και πριν.",
        "rating": 1,
        "shop_reply": null,
        "created_at": "2010-10-27T13:13:55+03:00"
    }, {
        "id": 3338,
        "user_id": 41745,
        "review": "Προκειται για value pack πακετο (μελανι+κεφαλη) για plotter της HP αξίας 190€ περίπου. Το συγκεκριμένο που μου ήρθε είχε ημερομηνία τελευταίας τοποθέτησης NOV 2008 δλδ 2 χρόνια πριν!!!!!!!\r\nΑρχικά μετά από συζήτηση μου προτάθηκε δωροεπιταγή 45€ (πιστωτικό) για να το κρατήσω... τους είπα ότι θα το σκεφτώ, αλλά τελικά το επέστρεψα.\r\nΑντί για πιστωτικό τιμολόγιο όπως έπρεπε να δωθεί και επιστροφή χρημάτων στην πιστωτική ή μετρητά δόθηκε απλό δελτίο ποσοτικής παραλαβής με τον όρο να εγκριθεί πρώτα η επιστροφή (!) και μετά θα γίνει επιστροφή χρημάτων. Δηλαδή να ελεγχθεί ότι έχει λήξει???\r\nΑπίστευτη ταλαιπωρία... φυσικά περιμέναμε και 2 φορές από 15λεπτά+5λεπτά στο τηλέφωνο για το τμήμα service!!!!!!\r\n",
        "rating": 1,
        "shop_reply": "Σχετικά με το παραπάνω περιστατικό θα πρέπει να αναφέρουμε ότι από λάθος το\r\nπροϊόν εστάλη στον πελάτη, καθώς δεν έπεσε στην αντίληψη των εργαζομένων\r\nστην αποθήκη η ημερομηνία προτεινόμενης τοποθέτησης.\r\nΑπό την στιγμή που ο πελάτης επέστρεψε το προϊόν στο κατάστημα από όπου το\r\nπαρέλαβε, αναφέροντας το λάθος, τον εξυπηρετήσαμε άμεσα χωρίς καμία\r\nκαθυστέρηση.\r\n",
        "created_at": "2010-10-27T13:10:50+03:00"
    }, {
        "id": 3333,
        "user_id": 43654,
        "review": "Την  Παρασκευή    22/10/2010  αγόρασα  από το κατάστημα e-shop στην Κέρκυρα μια κάρτα μνήμης για το Playstation 2. H συσκευασία έδειχνε ότι ήταν γνήσια και τόσο η συσκευασία όσο και η κάρτα μνήμης είχαν την επωνυμία της Sony. Ωστόσο όταν άνοιξα την συσκευασία παρατήρησα ότι δεν υπήρχαν μέσα οδηγίες χρήσης και οι ετικέτες που συνοδεύουν την κάρτα μνήμης αλλά επίσης διαπίστωσα ότι στην συσκευασία έγγραφε ότι είναι κατασκευασμένη στην Ιαπωνία ενώ η κάρτα μνήμης έγγραφε ότι είναι κατασκευασμένη στην Κίνα. Επίσης συγκρίνοντας την κάρτα μνήμης με μια άλλη γνήσια που είχα παρατήρησα ότι είχε διαφορά στην ποιότητα κατασκευής του πλαστικού αλλά και το ότι η γνήσια που είχα ήταν κατασκευασμένη στην Ιαπωνία ενώ η καινούργια έλεγε στην Κίνα. Έτσι λοιπόν βλέποντας ότι η κάρτα μνήμης δεν ήταν γνήσια αλλά πλαστή πηγαίνω το Σάββατο 23/10/2010 στο κατάστημα για να ζητήσω επιστροφή των χρημάτων μου αλλά οι υπάλληλοι του καταστήματος αρνούνται την επιστροφή των χρημάτων μου ή την πίστωση γιατί είχα ανοίξει την συσκευασία, ακόμη θα έπρεπε να το δει ο υπεύθυνος του καταστήματος για να δουν τι θα κάνουν και μου λένε να ξαναπεράσω την Δευτέρα. Τους αφήνω την κάρτα μνήμης και ξαναπερνάω την Δευτέρα  25/10/2010 για να δω τι έγινε και εκεί ο υπεύθυνος του καταστήματος μου λέει ότι έχει στείλει την κάρτα μνήμης στο κεντρικό κατάστημα στην Αθήνα και ότι δεν μπορεί να κρίνει αυτός  τι θα γίνει αλλά επιστροφή χρημάτων ή πίστωση δεν μπορεί να γίνει γιατί έχει ανοιχτεί η συσκευασία.\r\nΈτσι λοιπόν το κατάστημα αρνήθηκε την επιστροφή των χρημάτων μου ή την πίστωση παρ’ότι τους επέστρεψα το προϊόν την επομένη μέρα από όταν το αγόρασα  με την συσκευασία του χρησιμοποιώντας την δικαιολογία ότι έχω ανοίξει την συσκευασία.\r\nΤα συμπεράσματα πλέον δικά σας αλλά ήδη έχω κάνει καταγγελία στην Γενική Γραμματεία Καταναλωτή και περιμένω την απάντησή τους.\r\n",
        "rating": 1,
        "shop_reply": "Το προϊόν στο οποίο αναφέρεται ο πελάτης, έχει παραληφθεί από τον επίσημο\r\nαντιπρόσωπο του κατασκευαστή στην Ελλάδα, φέρει εγχάρακτα λογότυπα του\r\nκατασκευαστή και παραδίδεται στον τελικό αποδέκτη εντός σφραγισμένης\r\nσυσκευασίας. Παρόλο που η γνησιότητα του προϊόντος είναι εύκολο να\r\nαποδειχθεί, αποδεχτήκαμε το αίτημα του πελάτη για επιστροφή του προϊόντος\r\nχωρίς καμία καθυστέρηση.\r\n",
        "created_at": "2010-10-27T00:51:34+03:00"
    }, {
        "id": 3206,
        "user_id": 61641,
        "review": "Γενικά από τις συναλλαγές μου με το εν λόγω κατάστημα είμαι απόλυτα ευχαριστημένη.\r\nΓια την τελευταία παραγγελία όμως που έχω κάνει εδω και 5 μέρες (4/10/2010) δεν έχω λάβει καμία ενημέρωση, ενώ μετά απο τηλεφωνική επικοινωνία με το κατάστημα των Γιαννιτσών μου είπαν ότι θα παραλάβω σε 3 εργάσιμες μέρες.\r\nΚοιτώντας στα στοιχεία της παραγγελίας μου και στην εξέλιξή της μέσα από το site του καταστήματος παρατηρώ ότι μετά από τόσες μέρες:\r\n1. Δεν έχουν καν ελεγχθεί 2 από τα 3 προϊόντα που έχω παραγγείλει\r\n2. Το ένα από τα 3 προϊόντα είναι εξαντλημένο, ενώ το είχαν σαν προσφορά όταν καταχωρούσα την παραγγελία μου στο site. Το είχαν μάλιστα στο τελευταίο βήμα αποστολής της παραγγελίας και απλώς το πρόσθεσα στο τελικό μου ποσό.\r\nΘα ήθελα λοιπόν να εκφράσω τα παράπονά μου γι αυτή την κατάσταση και να παραλάβω ή τουλάχιστον να ενημερωθώ όσο το δυνατόν γρηγορότερα.",
        "rating": 4,
        "shop_reply": null,
        "created_at": "2010-10-09T15:55:31+03:00"
    }, {
        "id": 3154,
        "user_id": 59727,
        "review": "Καλησπέρα σας...\r\n\r\nΠριν από λίγες μέρες και συγκεκριμένα στις 25/09/2010, ορμώμενος από την προσφορά του gamebattles.gr για το προ 2011, αποφάσισα να παραγγείλω το βιντεοπαιχνίδι απο το eshop, λόγω του ότι σαν μέλος του gamebattles,μπορούσα μέσω του site σας να αγοράσω το ποδοσφαιράκι στη τιμή των 47,90 €. Παραθέτω κιόλας τη παραγγελία http://www.e-shop.gr/status.phtml?id=1009252042089471111172 με κωδικό OFFER 1050...\r\nΣήμερα λοιπόν ειδοποιήθηκα να περάσω απο το eshop συγκεκριμένα του Ρεθύμνου,για να παραλάβω το παιχνίδι. Με το που πάω στο κατάστημα,οι ευγενικότατοι μπορώ να πω υπάλληλοι, μου ανακοινώνουν πως η εταιρεία τους ενημέρωσε για το τέλος της προσφοράς. \r\nΌπως είναι φυσιολογικό,εγώ ένιωσα άσχημα και αποφάσισα να το αναφέρω,γιατί η στάση του eshop ήταν απαράδεκτη. Ήταν μεγάλη κοροιδία κ προσωπικά έχασα τσάμπα χρόνο.\r\n ",
        "rating": 1,
        "shop_reply": "Το παραπάνω περιστατικό οφείλετε σε ανθρώπινο λάθος του υπαλλήλου που\r\nεξυπηρέτησε τον πελάτη στο κατάστημα καθώς η ημερομηνία λήξης της προσφοράς\r\nδεν είχε παρέλθει. Ο πελάτης δικαιούταν την παραλαβή του προϊόντος στα 47,90\r\n€. Έχει ήδη ενημερωθεί για να παραλάβει από το κατάστημα την χρηματική\r\nδιαφορά.\r\n",
        "created_at": "2010-09-30T21:14:54+03:00"
    }, {
        "id": 3149,
        "user_id": 61115,
        "review": "Ανυποψίαστοι καταναλωτές ..προσοχή!!!!  after sale service ανύπαρκτο.Η τυχόν  χαμηλή τιμή αγοράς [ εξυπνάδα???] αντισταθμίζεται από καταγγελίες, εκνευρισμό , παντελή αδιαφορία και προκλητική συμπεριφορά στον δύστυχο καταναλωτή αν κάτι πάει στραβά με το προϊόν που αγόρασε.Εν ολίγοις, αγόρασα ένα φορητό υπολογιστή Asus Pcc 701 .Μετά από ένα μήνα τον πήγα στο Service .Έκτοτε μεσολάβησε περίπου ένας χρόνος για να βρεθεί \"ο χαμένος υπολογιστής\" [με εκνευρισμούς -καταγγελία στη Γενική Γραμματεία   Καταναλωτή ,και άλλα χαριτωμένα που αντιλαμβάνεσθε  !!].Το πιο χαριτωμένο δε της ιστορίας είναι ότι όταν πανευτυχής  παρέλαβα τον  ήδη  ξεπερασμένο υπολογιστή διαπίστωσα ότι δεν έγινε   καμία επισκευή !!!! ισχυριζόμενοι ότι δήθεν αρνήθηκα το κόστος επισκευής.Τελικά πέταξα στα σκουπίδια τον υπολογιστή.Δεν θέλω  ούτε ηθική, ούτε υλική αποζημίωσή ,ούτε ακόμα και την απάντηση από το   κατάστημα. Γράφω νηφάλια μετά από καιρό με σκοπό αποκλειστικά να ενημερώσω τους δύστυχους καταναλωτές για ένα φαινόμενο [ανύπαρκτο after sale service] που είναι συχνό στην χώρα μας",
        "rating": 1,
        "shop_reply": null,
        "created_at": "2010-09-30T01:06:33+03:00"
    }, {
        "id": 3147,
        "user_id": 61096,
        "review": "λοιπον στις 4/9 εδωσα εναν υπολογιστη για να κοιταξουν την μητρικη.O υπολογιστης δεν ειχε καει απλα ηθελα να κανω μια αναβαθμηση και αγορασα επεξεργαστη καινουριο(κωδ. παραγγελειας 10082512224385743297) και μητρικη μεταχειρισμενη(κωδ.παραγγελειας702100808222644857432211) απο τα e-shop(με εγγυηση 12μηνων η μητρικη). Μετα απο πολλα τηλεφωνα φυσικα μονο απο εμενα και οχι απο τα e-shop. Τα τηλεφωνα δεν εκαναν τιποτα καμια ενημερωση και δικαιολογια για την αργοπορια τους πηγα στα κεντρικα καταστηματα των e-shop 24/9 και ζητησα τον υπολογιστη μου μου ειπαν οτι δεν ηταν ετιμος...(αν ειναι δυνατον για μια μητρικη 20 μερες) και οτι την επομενη 8α ερχοταν στο Yποκαταστημα στο αιγαλεω. Τελικα το πηρα την επομενη μερα 25/9 σαββατο και οταν το ανοιξα ειδα ενα κουτι το οποιο ηταν αγορασμενο απο τα e-shop στο τελος του αυγουστου.ελειπε το κουμπι του restart καθως ηταν και κοπανημενο σε καποια σημεια κ.α. Και για τελος ειχαν καει και οι 2 σκληροι μου κα8ως και οι ram,εκτος οτι οι τεχνικοι δεν ανεφεραν ποτε τον δευτερο σλκηρο και την δευτερη ραμ αν ειχαν κατι(δεν ειχαν δει οτι το pc ειχε απο 2) .και τελικα δευτερα 27/9 το πηγα πισω και ακομα κανενα σημειο ζωης του pc. Αυτο το πραγμα δεν λεγεται service. σημερα 29/9 μετα απο σχεδων ενα μηνα και μετα τιν επιστροφη του pc και παλι, κανενα τηλεφωνο. ειναι απαραδεκτοι μας κοροδευουν μπροστα μας",
        "rating": 1,
        "shop_reply": null,
        "created_at": "2010-09-29T17:56:20+03:00"
    }, {
        "id": 3137,
        "user_id": 60986,
        "review": "Όποιος θέλει μπορώ να του στείλω τα email που έχω ανταλλάξει με το e-shop.Η κάρτα αγοράστηκε στις 22/12/2008. Η ιστορία ξεκίνησε πριν από 12 ημέρες. Στις 15/09/2010 παρέδωσα την κάρτα γραφικών μου Ati radeon 4870 στο κατάστημα. Στις 17/09/2010 ύστερα από δικό μου τηλέφωνο ενημερώθηκα για το ότι όντως η κάρτα είναι ελαττωματική. Με διαβεβαίωσαν ότι είναι θέμα ημερών για την αλλαγή της. \r\nΕγώ μέχρι εκείνο το σημείο δεν γνώριζα τα δικαιώματα μου γιατί δεν έψαξα. Την παρασκευή 24/09/2010 ξαναμίλησα μαζί τους και απαίτησα να μιλήσω με κάποιον υπεύθυνο. Δυστυχώς μετά από 5 τηλεφωνά, φτηνές δικαιολογίες και αναμονή τουλάχιστον 1 ώρας στο τηλ. συνολικά Κατάλαβα ότι δεν πρόκειται να έρθει ποτέ. Τέλος μετά από 2 mail (πέρασαν πάνω από 3 μέρες)δεν πήρα απάντηση ποτέ. \r\n\r\n\r\nΤο Σ/Κ που μεσολάβησε έψαξα και έμαθα ότι σύμφωνα με τον ''Νόμο 3043/2002 - Ευθύνη του πωλητή για πραγματικά Ελαττώματα και Έλλειψη συνομολογημένων Ιδιοτήτων'' και στο άρθρο 540. Είχα 3 επιλογές Αντικατάσταση/Μείωση τιμήματος/Υπαναχώρηση Σύμβασης. Αντικατάσταση με ένα ίδιο ακριβώς καινούργιο προϊόν οπού αυτομάτως ανανεώνεται η εγγύηση. Μείωση τιμήματος εάν θέλω να κρατήσω την συσκευή αλλά δεν πλήρη όλα τα προσυμφωνημένα. Υπαναχώρηση σύμβασης, οπού καταγγέλλεται η παρούσα σύμβαση. Η οποία σύμφωνα με την ελληνική νομοθεσία για κινητά μέρη είναι 2 χρόνια και για ακίνητα 5. Δηλαδή καταγγέλλεται ότι η πολύ υψηλών προδιαγραφών κάρτα γραφικών χάλασε μέσα στην σύμβαση 2 χρονών καλής λειτουργίας. Έτσι απαιτείς τα χρήματα που αρχικά είχες δώσει.\r\n\r\n\r\nΣήμερα 27/09/2010 στο 3 email που έστειλα, ξεκαθάριζα ότι εφόσον δεν λάβω απάντηση μέσα στην ημέρα θα έκανα καταγγελία στο ΙΝΚΑ, ΓΓΚ( γενική γραμματεία καταναλωτή), ΕΚΠΟΙΖΩ και μέσω δικηγόρου. Όταν λοιπόν έφτασα στα άκρα για τα δικαιώματα μου και τους ενημέρωσα μέσω τηλ. να δουν τα email τους, ήρθε η λύση.\r\nΣτο πρώτο τηλ. κατόπιν της απειλής για καταγγελία ξαφνικά χάθηκε το φόρτο εργασίας και μέσα σε ένα δευτερόλεπτο η πίστωση έγινε 156 ευρώ. Δυστυχώς για αυτούς πλέον γνώριζα ότι έχω δικαίωμα να μου επιστρέψουν και τα 216 ευρώ που είχα δώσει. Στο δεύτερο τηλ. που έκανα η πίστωση έφτασε την αρχική αξία της κάρτας. Τέλος όταν πήγα εγώ ο ίδιος στα κεντρικά και ζήτησα τον υπεύθυνο, προφανώς δεν το βρήκα. Απαίτησα όμως τα χρήματα μου και όχι πίστωση. Με τον νόμο τυπωμένο, τους ξεκαθάρισα ότι εάν φύγω με αδεία χέρια θα φέρω την αστυνομία για επίσημη καταγγελία.\r\n\r\nΤο αποτέλεσμα ήταν ότι μετά από 12 ημέρες μονό με απειλές για καταγγελίες πήρα απάντηση. Γενικά μακριά από το e-shop, τόσο μακριά που να μην το βλέπετε από χιλιόμετρα.\r\n    	",
        "rating": 1,
        "shop_reply": "Ανατρέξαμε στο σύστημά μας και διαπιστώσαμε ότι υπήρξε πράγματι μια μικρή\r\nκαθυστέρηση στην εξυπηρέτηση του συγκεκριμένου service. Η καθυστέρηση\r\nπροήλθε από το γεγονός ότι δεν υπήρχε διαθέσιμο παρόμοιο προϊόν στις\r\nαποθήκες μας. Τελικά βρέθηκε προϊόν αντίστοιχων τεχνικών χαρακτηριστικών,\r\nαλλά ο πελάτης είχε ήδη απαιτήσει διαφορετική εξυπηρέτηση την οποία και\r\nέλαβε. Θα πρέπει να αναφερθεί ότι η κάλυψη της εγγύησης έγινε εντός των\r\nχρονικών ορίων που προβλέπονται από την Ελληνική νομοθεσία, καθώς επίσης ότι\r\nσε καμία περίπτωση δεν υπήρξε παράλογη καθυστέρηση στην εξυπηρέτηση των\r\nαιτημάτων του πελάτη.",
        "created_at": "2010-09-27T21:52:49+03:00"
    }, {
        "id": 3133,
        "user_id": 60839,
        "review": "Είμαι τακτικός πελάτης του καταστήματος. Αν και οι τιμές δεν είναι και οι καλύτερες της αγοράς εντούτοις δεν υπάρχει κάποιο σημαντικό παράπονο εκτός από αυτό. Πρόκειται για ένα τρόπο εμπαιγμού για να μην πω εξαπάτησης του καταναλωτή. Και εξηγούμαι. Η Τηλεόραση TELEFUNKEN TF22-5000 22'' LCD TV βγαίνει προσφορά (υποτίθεται) στο Crazy Sundays στα 195 Ευρώ με αρχική τιμή 259 Ευρώ. Καλή προσφορά μου φάνηκε και αποφάσισα να την παραγγείλω. Μόλις κλείνει η εβδομάδα του Crazy Sundays μετά από 3-5 μέρες αν δεν κάνω λάθος, παρατηρώ ότι  η ίδια τηλεόραση TELEFUNKEN TF22-5000 22'' LCD TV **δεν έχει πλέον τιμή την αρχική**, δηλαδή 259 Ευρώ, όπως θα έπρεπε, αλλά...199 Ευρώ!!!!!! Στην ουσία ακυρώνει την προσφορά (αν θεωρηθεί προσφορά η διαφορά των 4 ευρώ!!!!!).Νομίζω ότι αυτός είναι ο εμπαιγμός σε όλο του το μεγαλείο...Μια συμπεριφορά που δεν υπάρχει από τα ανταγωνιστικά καταστήματα Πλαίσιο ή Multirama. Έχω πάρει αρκετά πράγματα από το κατάστημα χωρίς κανένα πρόβλημα αλλά το συγκεκριμένο περιστατικό δεν είναι απλά για γέλια αλλά αποτελεί κατάφωρο εμπαιγμό του καταναλωτή και προσπάθεια εξαπάτησης του...Επίσης πολλές φορές στα μέλη (που τυγχάνω να είμαι) υπάρχουν κάποιες προσφορές που έρχονται στα e-mail με κάποιον κωδικό προσφοράς. Στην προσφορά αναγράφεται η F&U FDH2471FHDPVR 24'' LCD TV ΜΕ ΕΝΣΩΜΑΤΩΜΕΝΟ DVD PLAYER + ΒΑΣΗ ΣΤΗΡΙΞΗΣ ΤΟΙΧΟΥ ως αρχική τιμή στα 339 ευρώ και με την προσφορά στα 289 Ευρώ… Στο site όμως της εταιρείας η τιμή της ΙΔΙΑΣ ΤΗΛΕΟΡΑΣΗΣ ΕΙΝΑΙ 319 Ευρώ(χωρίς προσφορά)… Είναι το γνωστό πια σε όλους κόλπο που κάνουν τα μαγαζιά ένδυσης πριν τις εκπτώσεις . Αυξάνουν τις τιμές λίγο πριν κι έτσι η έκπτωση είναι σημαντικά μικρότερη από ότι θα έπρεπε. Και φυσικά καρπώνονται το κέρδος...Κι άλλο περιστατικό κοροϊδίας… Κύριοι το να είστε καθαροί απέναντι στους καταναλωτές είναι ΥΠΟΧΡΕΩΣΗ ΣΑΣ… Μαγαζιά με τέτοια περιστατικά έχει γεμίσει ο τόπος… Πίστευα πως δεν είσαστε ένα από αυτά.",
        "rating": 1,
        "shop_reply": "Τα όσα αναφέρονται στην παραπάνω αξιολόγηση, είναι προσωπικές εκτιμήσεις - υποθέσεις του πελάτη και δεν ανταποκρίνονται πλήρως στην πραγματικότητα. Παρακάτω δίνεται ένα ιστορικό το οποίο μπορεί εύκολα να επιβεβαιωθεί από τον οποιοδήποτε θελήσει να ανατρέξει στο ιστορικό τιμών του προϊόντος.\r\n\r\nΗ αρχική τιμή της τηλεόρασης TELEFUNKEN TF22-5000 για την οποία έγινε λόγος, ήταν 255 ευρώ. Έπειτα από μικρό χρονικό διάστημα μέσω των προσφορών Crazy Sundays η τιμή έπεσε στα 195 ευρώ με αναφερόμενη ως αρχική τιμή 255 και όχι 259 ευρώ όπως αναγράφεται στην παραπάνω αξιολόγηση.\r\n\r\nΜετά το πέρας της εβδομάδας και την λήξη της προσφοράς στις 20/09/10, η τιμή επανήλθε στο επίπεδο στο οποίο βρισκόταν αρχικά. Λίγες ημέρες μετά την λήξη της προσφοράς και ενώ το προϊόν παρέμενε στα 255 ευρώ, η τιμή στην οποία προμηθευόμασταν το προϊόν έπεσε. Την μείωση αυτή φροντίσαμε να την περάσουμε άμεσα και στην τιμή λιανικής, προκειμένου οι πελάτες μας να συνεχίσουν να απολαμβάνουν τις χαμηλότερες τιμές της αγοράς.\r\n\r\nΠαρόμοιο είναι και το δεύτερο περιστατικό που αναφέρει ο πελάτης, στο οποίο γίνεται φανερό ότι η αλλαγή στην τιμή δεν έγινε βάση σχεδίου, αλλά εξαιτίας άλλων παραμέτρων, παρόμοιων με αυτούς που αναφέραμε ήδη. Οποιοσδήποτε επισκέπτεται συχνά την ηλεκτρονική σελίδα του καταστήματός μας, μπορεί εύκολα να αντιληφθεί ότι οι προσφορές που δημοσιεύονται δεν προκύπτουν από τακτικές όπως αυτή που περιγράφεται στην συγκεκριμένη αξιολόγηση. Οι προσφορές μας έχουν ως στόχο το πραγματικό όφελος του καταναλωτή μέσω της ικανοποίησης του οποίου προκύπτει κέρδος και για την εταιρεία μας.",
        "created_at": "2010-09-27T17:09:33+03:00"
    }, {
        "id": 3040,
        "user_id": 10397,
        "review": "Σε ολες τις αγορες που εχω κανει στο συγκεκριμενο καταστημα εχω μείνει απολυτα ευχαρηστημενος",
        "rating": 4,
        "shop_reply": null,
        "created_at": "2010-09-16T16:19:14+03:00"
    }, {
        "id": 3017,
        "user_id": 59905,
        "review": "Έχω κάνει πολλές αγορές από το συγκεκριμένο κατάστημα κυρίως σε προϊόντα σχετικά με Η/Υ και δεν αντιμετώπισα κανένα πρόβλημα. Συνήθως επιλέγω την παραλαβή από κατάστημα και έχω μείνει πολύ ευχαριστημένος από τους χρόνους παραλαβής, αλλά και σε κάποιες παραγγελίες που ήταν αποστολή στο σπίτι με αντικαταβολή πάντα ήταν μέσα στα χρονικά όρια που αναγράφει στη διαθεσιμότητα του προϊόντος . Σε γενικές γραμμές πολύ καλές τιμές και άμεση εξυπηρέτηση!",
        "rating": 5,
        "shop_reply": null,
        "created_at": "2010-09-13T03:21:58+03:00"
    }, {
        "id": 3013,
        "user_id": 16789,
        "review": "Καλησπέρα!\r\nΈχω χρησιμοποιήσει κατ' επανάληψη το e-shop.gr για αγορές, ως επί το πλείστον προϊόντων σχετικών με Η/Υ. Έχω παραλάβει και από τα καταστήματά τους (Ζωγράφου, Στουρνάρη, Τρίπολη), αλλά μου έχουν κάνει και παράδοση στο σπίτι. Σε καμία από τις περιπτώσεις δεν αντιμετώπισα πρόβλημα.\r\nΟι τιμές του καταστήματος είναι ανταγωνιστικές, ειδικά σε ότι έχει να κάνει με τους Η/Υ. Όχι όπως όταν πρωτο-λειτούργησε το κατάστημα βέβαια, αλλά εξακολουθούν να είναι.\r\nΕπίσης, 2 φορές που χρειάστηκε να επιστρέψω κάποιο προϊόν για service, η εξυπηρέτηση ήταν καλή και η λύση του προβλήματος σε λογικά χρονικά πλαίσια (την πρώτη φορά μου αντικατέστησαν το προϊόν και τη δεύτερη αποδείχθηκε πως δεν υπήρχε πρόβλημα).\r\nΣε γενικές γραμμές, είμαι απόλυτα ικανοποιημένος από το e-shop.gr.",
        "rating": 4,
        "shop_reply": null,
        "created_at": "2010-09-11T16:12:35+03:00"
    }, {
        "id": 2948,
        "user_id": 2575,
        "review": "Πολυ καλή εξυπηρέτηση, παρηγγειλα μια μπαταρια κινητου απο θεσσαλονικη σάββατο βράδυ και την παρέλαβα απο κέρκυρα οπου πηγαινα για διακοπες την τρίτη το πρωί. ",
        "rating": 4,
        "shop_reply": null,
        "created_at": "2010-09-03T00:20:47+03:00"
    }, {
        "id": 2888,
        "user_id": 54059,
        "review": "Όσες φορές και να έχω αγοράσει κάτι, όλα τέλεια, γρήγορες παραδόσεις, καλές τιμές και φιλικοί άνθρωποι, καταστήματα παντού! πάλι καλά που βγήκε και το e-shop και έκοψε λίγο τον αμανέ στο πλαίσιο...* ",
        "rating": 5,
        "shop_reply": null,
        "created_at": "2010-08-25T19:07:04+03:00"
    }, {
        "id": 2867,
        "user_id": 45196,
        "review": "Έχω ψωνίσει πολλές φορές από το συγκεκριμένο κατάστημα. Δεν έχει τις καλύτερες τιμές, αλλά κάνει καλές προσφορές. Έχει πολ΄πυ οργανωμένο site, οπού μπορείς να βάλεις κριτήρια για να βρεις αυτό που θέλεις, καθώς και αξιολογήσεις για να έχεις 1 άποψη από αυτούς που το έχουν αγοράσει. Είναι ταχύτατοι στην παράδοση και στο κάθε προϊον, μπορείς να δεις τη διαθεσιμότητα του ανά κατάστημα. Είχα πει όμως, ότι δε θα ξανααγοράσω κάτι, που την επισκευή του αναλαμβάνει το e-shop, διότι έχει κάκιστο service για συσκευές εντός εγγύησης. 3 φορές χρειάστηκε (Η/Υ, dvd recorder και flash usb) και με ταλαιπώρησαν απίστευτα. Ήθελα να συνθέσω pc, κι επειδή τον προηγούμενο τον είχα συνθέσει με πωλητή τους, και δε μου βγήκε καλός (συν το κακό service που ανέφερα) ήθελα να το πάρω από αλλού. Ήταν όμως το μοναδικό κατάστημα που μπορούσα να επιλέγω είδος και πατώντας λεπτομέρειες να βλέπω την περιγραφή του, ενώ σε νέα καρτέλα έβλεπα τις αξιολογήσεις.\r\nΈτσι, κατέληξα πάλι στο e-shop. Έκανα την παραγγελία 9/8 και παρέλαβα 13/8. Πολύ καλός χρόνος, αν σκεφτεί κανείς ότι κάποια είδη ήταν σε έλλειψη και είχα ζητήσει συναρμολόγηση. Συν ότι επρόκειτο για 1 νεκρή βδομάδα. Τώρα βέβαια, ας κάνουμε 1 ευχέλαιο να μη χαλάσει και μείνω 1-2 βδομάδες χωρίς pc.\r\nΘα ήθελα να κάνω 1 ακόμα σχόλιο. Σαν τρόπο πληρωμης, είχα επιλέξει την πιστωτική. Το ποσό δεσμεύτηκε αμέσως, αλλά η κάρτα χρεώθηκε στις 12/8. Όλα καλά μέχρι εδώ. Στις 14/8, διαπιστώνω ότι ένώ έχει γίνει η χρέωση, το ποσό παρέμεινε δεσμευμένο. Έστειλα e-mail στις 15/8 (αργία ως γνωστόν) και στις 16/8 νωρίς το πρωί με πήραν τηλ. από το λογιστήριο και με διαβεβαίωσαν ότι χρέωσαν το ποσό που είχε δεσμευτεί κι ότι το επιβεβαίωσαν και με την τράπεζα. Η κοπέλα που μίλησα, μου έδωσε και το όνομα της, μήπως χρειαστώ κάποια διευκρίνηση. Και πράγματι το λάθος ήταν της τράπεζας και τακτοποιήθηκε άμεσα. Το αναφέρω, γιατί σε παρόμοιες περιπτώσεις έχω γίνει μπαλάκι ανάμεσα σε τράπεζα και καταστήματα με τις 2 πλευρές να είναι αδιάλακτες, ενώ τώρα, αντιμετώπισαν υπεύθυνα το θέμα.",
        "rating": 5,
        "shop_reply": null,
        "created_at": "2010-08-20T18:51:52+03:00"
    }, {
        "id": 2782,
        "user_id": 57607,
        "review": "Σε 20 ωρες ειχα στα χερια μου το παιχνιδι pokemon soulsilver για nitendo ds που ζητησα και μενω επαρχια.Αψογοι!!!!!!!!!!!!!!!!!!!!!!",
        "rating": 5,
        "shop_reply": null,
        "created_at": "2010-08-06T12:12:23+03:00"
    }, {
        "id": 2759,
        "user_id": 58467,
        "review": "Στίς 29/07 παράγγειλα απο το ηλεκτρονικό σας κατάστημα ένα hdmi splitter manhattan με αριθμό παραγγελίας 10072923180889210183192 και παράδοση στο κατάστημα Σταυρούπολης Θεσσαλονίκης. Όντως την επόμενη μέρα (30/07) το πρωί παρέλαβα το προιόν. Την ίδια μέρα το σύνδεσα και παρατήρησα ότι είχε πρόβλημα (πράσινες γραμμές σε αναλύσεις πάνω απο 480p) και επικοινώνησα άμεσα με το κατάστημα το οποίο έχει και τμήμα service. Τούς το επέστρεψα το Σάββατο 31/07 για να με ενημερώσουνε ότι θα το δεί ο τεχνικός την Δευτέρα. Σήμερα που επισκέφθηκα το E-point για να δώ τί γίνεται, με ενημέρωσαν ότι θα πρέπει να σταλεί στην Αθήνα επειδή ο τεχνικός δεν έχει τα μέσα για να το ελέγξει.....\r\nΕννοείται πώς ζήτησα να γίνει επιστροφή του προιόντος και αγορά του ίδιου ακριβώς με το πιστωτικό άλλα δεν μπορούσαν να με εξυπηρετήσουν επειδή ήδη έχει εγγραφεί ώς προιόν για service!\r\nΔυστυχώς είμαι πολύ απογοητευμένος απο το after sales....Δηλαδή είναι τόσο δύσκολο να αντικαταστήσεις ένα προιόν των 10€ το οποίο ουσιαστικά δεν χρησιμοποιήθηκε και να το ελέγξεις αργότερα? Αφού ούτως ή άλλως και τα 2 ίδια προιόντα είναι καινούρια και σε περίπτωση που πράγματι έχει πρόβλημα, θα το επιστρέψει το e-shop στην εταιρία κατασκευής!\r\nΔέν καταλαβαίνω γιατί εγώ ως πελάτης να πρέπει να ταλαιπωρούμε, ειδικά απο την στιγμή που ο ίδιος προτίμησα την εταιρία σας ως πελάτης!\r\nΘεωρώ το E-shop ως το κατάστημα με την καλύτερη εξυπηρέτηση όσον αφορά την παραγγελιοληψία και παράδοση προιόντων άλλα με αρκετά προβλήματα στο κομμάτι του service και της εξυπηρέτησης σε περίπτωση προβλήματος.\r\nΘα ήθελα να αναφέρω δέ ότι προσπάθησα να επικοινωνήσω τηλεφωνικώς με το service στα κεντρικά 3 φορές άλλα αναγκάστικα να το κλείσω μετά απο ~15 λεπτά αναμονής την κάθε φορά!\r\nΠιστέψτε με, ούτε αναιτιολόγητα ανυπόμονος είμαι, ούτε σκέφτομαι τα 10€, απλά έχω απο την Παρασκευή που παρέλαβα το εν λόγω προιόν όλο το σύνθετο του σαλονιού μου διαλυμένο και περιμένω απο τότε, πότε θα εξυπηρετηθώ ώστε να τακτοποιήσω το σπίτι μου!",
        "rating": 2,
        "shop_reply": "Σχετικά με το παραπάνω περιστατικό, θα πρέπει να αναφερθεί ότι ο εντός τριών\r\nεργάσιμων ημερών, ο πελάτης παρέλαβε νέο προϊόν όπως είχε αιτηθεί αρχικά.\r\nΜέρος της καθυστέρησης οφείλεται στην μη διαθεσιμότητα του προϊόντος στην\r\nτοπική αποθήκη, ενώ ρόλο έπαιξε και η αδυναμία ελέγχου του προϊόντος από το\r\nτεχνικό τμήμα του καταστήματος. Τα παραπάνω είχαν ως αποτέλεσμα την αποστολή\r\nτου προϊόντος στο κεντρικό τεχνικό τμήμα στην Αθήνα προκειμένου να\r\nαντικατασταθεί με νέο. Όσο αναφορά στο αίτημα του πελάτη για επιστροφή του\r\nπροϊόντος, δεν μπορούσε να εξυπηρετηθεί άμεσα καθώς το προϊόν βρισκόταν ήδη\r\nστην διαδικασία επιστροφής του στην Αθήνα. Μπορεί εύκολα να γίνει αντιληπτό,\r\nότι το προϊόν έπρεπε πρώτα να παραληφθεί από το αντίστοιχο τμήμα στην Αθήνα\r\nκαι έπειτα θα εξυπηρετούσαμε το αίτημα επιστροφής",
        "created_at": "2010-08-02T17:18:31+03:00"
    }, {
        "id": 2678,
        "user_id": 20449,
        "review": "Για άλλη μια φορά άψογοι!Αυτή τη φορα η παραγγελία μου αφορουσε αντικείμενα μικρής σχετικά αξίας(2 games PSP+microSD 2GB) αλλα έδωσαν την απαραίτητη σημασια και προσοχή.Η παραγγελία μου σε λιγότερο από μια μέρα ήταν έτοιμη για παραλαβή.Ενα μεγάλο + η εξυπηρέτηση μέσω τηλεφώνου αλλα και η εξυπηρέτηση μέσα στο κατάστημα,που ήταν άμεσες και ευχάριστες!",
        "rating": 5,
        "shop_reply": null,
        "created_at": "2010-07-21T08:22:31+03:00"
    }, {
        "id": 2669,
        "user_id": 57938,
        "review": "Γράφω πρώτη φορά αν και έχω ψωνίσει αρκετές φορές από το εν λόγω κατάστημα.\r\n\r\nΆψογη εξυπηρέτηση...κρίμα που δεν είναι και αυτό με τις χαμηλότερες τιμές...\r\n\r\nΦαίνεται πως \"πληρώνουμε\" παραπάνω για την καλή εξυπηρέτηση.\r\nΣτην Ελλάδα...ακόμα και τα αυτονόητα χρεώνονται!!!",
        "rating": 4,
        "shop_reply": null,
        "created_at": "2010-07-19T17:33:10+03:00"
    } ],
    "meta": {
        "pagination": {
            "total_results": 161,
            "total_pages": 7,
            "page": 1,
            "per": 25
        }
    }
}
