{
    "manufacturers": [ {
        "id": 1,
        "name": "EA - Electronic Arts",
        "image_url": "http://c.scdn.gr/ds/manufacturers/1/e2e019eea82bfe6b82b47ab77f6b4497.png"
    }, {
        "id": 2,
        "name": "Sony",
        "image_url": "http://c.scdn.gr/ds/manufacturers/2/502f0698a44df30f4fd55fd9e0893369.jpg"
    }, {
        "id": 3,
        "name": "Ubisoft",
        "image_url": "http://a.scdn.gr/ds/manufacturers/3/2d7761fdd58f195d31263be60670bcb7.jpg"
    }, {
        "id": 5,
        "name": "THQ",
        "image_url": null
    }, {
        "id": 7,
        "name": "Konami",
        "image_url": "http://b.scdn.gr/ds/manufacturers/7/587dc9112839b7620a15816dff472d57.jpg"
    }, {
        "id": 8,
        "name": "Sega",
        "image_url": "http://a.scdn.gr/ds/manufacturers/8/ac593f1b9a730481714cdb8a36e34e4b.png"
    }, {
        "id": 10,
        "name": "Majesco Games",
        "image_url": null
    }, {
        "id": 11,
        "name": "Eidos",
        "image_url": null
    }, {
        "id": 12,
        "name": "Activision",
        "image_url": "http://b.scdn.gr/ds/manufacturers/12/e02d96d1dc741e04d0cfaa33ff456e1d.jpg"
    }, {
        "id": 14,
        "name": "Disney",
        "image_url": null
    }, {
        "id": 15,
        "name": "Xplosiv",
        "image_url": null
    }, {
        "id": 16,
        "name": "Midway",
        "image_url": null
    }, {
        "id": 17,
        "name": "Sierra Entertainment",
        "image_url": null
    }, {
        "id": 19,
        "name": "Nintendo",
        "image_url": "http://b.scdn.gr/ds/manufacturers/19/217316bf69e8861bde8416caad4fec01.jpg"
    }, {
        "id": 20,
        "name": "Capcom",
        "image_url": null
    }, {
        "id": 21,
        "name": "AMD",
        "image_url": "http://a.scdn.gr/ds/manufacturers/21/amd-logo.jpg"
    }, {
        "id": 22,
        "name": "Intel",
        "image_url": "http://a.scdn.gr/ds/manufacturers/22/bfce0d83304cb37d08d194f91b7ab346.jpg"
    }, {
        "id": 23,
        "name": "Acer",
        "image_url": "http://c.scdn.gr/ds/manufacturers/23/fcdbcfc837183edb26c0a94dcc985120.jpg"
    }, {
        "id": 24,
        "name": "BenQ",
        "image_url": "http://d.scdn.gr/ds/manufacturers/24/c65f8b4fd4bff33607cc078975753669.jpg"
    }, {
        "id": 25,
        "name": "Nokia",
        "image_url": "http://b.scdn.gr/ds/manufacturers/25/cabd6720df784776546f92296aa81e8d.jpg"
    }, {
        "id": 26,
        "name": "Sony Ericsson",
        "image_url": null
    }, {
        "id": 27,
        "name": "Motorola",
        "image_url": "http://a.scdn.gr/ds/manufacturers/27/20160520153836_d763c47a.jpeg"
    }, {
        "id": 28,
        "name": "Samsung",
        "image_url": "http://a.scdn.gr/ds/manufacturers/28/samsung-logo1.jpg"
    }, {
        "id": 29,
        "name": "Sagem",
        "image_url": null
    }, {
        "id": 30,
        "name": "LG",
        "image_url": "http://c.scdn.gr/ds/manufacturers/30/LGlogo.jpg"
    } ],
    "meta": {
        "pagination": {
            "total_results": 25827,
            "total_pages": 1034,
            "page": 1,
            "per": 25
        }
    }
}
