{
    "products": [ {
        "id": 13582182,
        "name": "iPhone 5S 16GB Space Grey EU",
        "sku_id": 3783654,
        "shop_id": 1967,
        "category_id": 40,
        "availability": "Άμεση παραλαβή / Παράδοση 1 έως 3 ημέρες",
        "click_url": "https://www.skroutz.gr/products/show/13582182?client_id=pQRXRvomZkCV8yE95iuKqw%3D%3D&from=api",
        "shop_uid": "513",
        "expenses": null,
        "web_uri": "https://skroutz.gr/products/show/13582182",
        "price": 294.45
    }, {
        "id": 13582183,
        "name": "iPhone 5S 16GB Silver White EU",
        "sku_id": 3783654,
        "shop_id": 1967,
        "category_id": 40,
        "availability": "Άμεση παραλαβή / Παράδοση 1 έως 3 ημέρες",
        "click_url": "https://www.skroutz.gr/products/show/13582183?client_id=pQRXRvomZkCV8yE95iuKqw%3D%3D&from=api",
        "shop_uid": "514",
        "expenses": null,
        "web_uri": "https://skroutz.gr/products/show/13582183",
        "price": 294.45
    }, {
        "id": 20978591,
        "name": "Apple iPhone 5s 4G 16GB SPACE GRAY EU",
        "sku_id": 3783654,
        "shop_id": 853,
        "category_id": 40,
        "availability": "Άμεση παραλαβή / Παράδοση 1 έως 3 ημέρες",
        "click_url": "https://www.skroutz.gr/products/show/20978591?client_id=pQRXRvomZkCV8yE95iuKqw%3D%3D&from=api",
        "shop_uid": "1226091",
        "expenses": null,
        "web_uri": "https://skroutz.gr/products/show/20978591",
        "price": 294.5
    }, {
        "id": 13657436,
        "name": "Apple iPhone 5s 16GB Space Gray EU",
        "sku_id": 3783654,
        "shop_id": 1164,
        "category_id": 40,
        "availability": "Παράδοση 1 έως 3 ημέρες",
        "click_url": "https://www.skroutz.gr/products/show/13657436?client_id=pQRXRvomZkCV8yE95iuKqw%3D%3D&from=api",
        "shop_uid": "4071",
        "expenses": null,
        "web_uri": "https://skroutz.gr/products/show/13657436",
        "price": 294.9
    }, {
        "id": 24394712,
        "name": "Apple iPhone 5S 16GB space gray - Apple - DF-732858",
        "sku_id": 3783654,
        "shop_id": 3324,
        "category_id": 40,
        "availability": "Παράδοση 1 έως 3 ημέρες",
        "click_url": "https://www.skroutz.gr/products/show/24394712?client_id=pQRXRvomZkCV8yE95iuKqw%3D%3D&from=api",
        "shop_uid": "1311",
        "expenses": null,
        "web_uri": "https://skroutz.gr/products/show/24394712",
        "price": 297
    }, {
        "id": 16966398,
        "name": "iPhone 5s Space Grey 16GB EU",
        "sku_id": 3783654,
        "shop_id": 2004,
        "category_id": 40,
        "availability": "Άμεση παραλαβή / Παράδοση 1 έως 3 ημέρες",
        "click_url": "https://www.skroutz.gr/products/show/16966398?client_id=pQRXRvomZkCV8yE95iuKqw%3D%3D&from=api",
        "shop_uid": "KZR-69GN2084",
        "expenses": null,
        "web_uri": "https://skroutz.gr/products/show/16966398",
        "price": 297.5
    }, {
        "id": 17330275,
        "name": "iPhone 5s Silver White 16GB EU",
        "sku_id": 3783654,
        "shop_id": 2004,
        "category_id": 40,
        "availability": "Άμεση παραλαβή / Παράδοση 1 έως 3 ημέρες",
        "click_url": "https://www.skroutz.gr/products/show/17330275?client_id=pQRXRvomZkCV8yE95iuKqw%3D%3D&from=api",
        "shop_uid": "KZR-RQFTU3BK",
        "expenses": null,
        "web_uri": "https://skroutz.gr/products/show/17330275",
        "price": 297.5
    }, {
        "id": 13654427,
        "name": "Apple Iphone 5S 16GB SPACE GRAY EU",
        "sku_id": 3783654,
        "shop_id": 1521,
        "category_id": 40,
        "availability": "Άμεση παραλαβή / Παράδοση 1 έως 3 ημέρες",
        "click_url": "https://www.skroutz.gr/products/show/13654427?client_id=pQRXRvomZkCV8yE95iuKqw%3D%3D&from=api",
        "shop_uid": "808",
        "expenses": null,
        "web_uri": "https://skroutz.gr/products/show/13654427",
        "price": 297.75
    }, {
        "id": 22081473,
        "name": "Smartphone Apple Iphone 5S 16GB Silver EU",
        "sku_id": 3783654,
        "shop_id": 2164,
        "category_id": 40,
        "availability": "Παράδοση 4 έως 10 ημέρες",
        "click_url": "https://www.skroutz.gr/products/show/22081473?client_id=pQRXRvomZkCV8yE95iuKqw%3D%3D&from=api",
        "shop_uid": "2120002464",
        "expenses": null,
        "web_uri": "https://skroutz.gr/products/show/22081473",
        "price": 297.8
    }, {
        "id": 23088266,
        "name": "Apple iPhone 5S (16GB) EU SPACE GRAY",
        "sku_id": 3783654,
        "shop_id": 1628,
        "category_id": 40,
        "availability": "Παράδοση 1 έως 3 ημέρες",
        "click_url": "https://www.skroutz.gr/products/show/23088266?client_id=pQRXRvomZkCV8yE95iuKqw%3D%3D&from=api",
        "shop_uid": "690",
        "expenses": null,
        "web_uri": "https://skroutz.gr/products/show/23088266",
        "price": 297.9
    }, {
        "id": 23088267,
        "name": "Apple iPhone 5S (16GB) EU SILVER",
        "sku_id": 3783654,
        "shop_id": 1628,
        "category_id": 40,
        "availability": "Παράδοση 1 έως 3 ημέρες",
        "click_url": "https://www.skroutz.gr/products/show/23088267?client_id=pQRXRvomZkCV8yE95iuKqw%3D%3D&from=api",
        "shop_uid": "691",
        "expenses": null,
        "web_uri": "https://skroutz.gr/products/show/23088267",
        "price": 297.9
    }, {
        "id": 15436082,
        "name": "Apple iPhone 5S 16GB Space Grey EU",
        "sku_id": 3783654,
        "shop_id": 1996,
        "category_id": 40,
        "availability": "Άμεση παραλαβή / Παράδοση 1 έως 3 ημέρες",
        "click_url": "https://www.skroutz.gr/products/show/15436082?client_id=pQRXRvomZkCV8yE95iuKqw%3D%3D&from=api",
        "shop_uid": "628",
        "expenses": null,
        "web_uri": "https://skroutz.gr/products/show/15436082",
        "price": 298
    }, {
        "id": 22334539,
        "name": "APPLE IPHONE 5S 16GB SPACE GRAY EU + ΠΡΟΣΤΑΤΕΥΤΙΚΟ ΟΘΟΝΗΣ ( TEMPERED GLASS )",
        "sku_id": 3783654,
        "shop_id": 3287,
        "category_id": 40,
        "availability": "Άμεση παραλαβή / Παράδοση 1 έως 3 ημέρες",
        "click_url": "https://www.skroutz.gr/products/show/22334539?client_id=pQRXRvomZkCV8yE95iuKqw%3D%3D&from=api",
        "shop_uid": "10382",
        "expenses": null,
        "web_uri": "https://skroutz.gr/products/show/22334539",
        "price": 299
    }, {
        "id": 24421125,
        "name": "Apple Iphone 5S 16GB Space Grey EU",
        "sku_id": 3783654,
        "shop_id": 3672,
        "category_id": 40,
        "availability": "Παράδοση 1 έως 3 ημέρες",
        "click_url": "https://www.skroutz.gr/products/show/24421125?client_id=pQRXRvomZkCV8yE95iuKqw%3D%3D&from=api",
        "shop_uid": "31",
        "expenses": null,
        "web_uri": "https://skroutz.gr/products/show/24421125",
        "price": 299
    }, {
        "id": 22351096,
        "name": "Smartphone Apple Iphone 5S 16GB Grey EU",
        "sku_id": 3783654,
        "shop_id": 2164,
        "category_id": 40,
        "availability": "Παράδοση 4 έως 10 ημέρες",
        "click_url": "https://www.skroutz.gr/products/show/22351096?client_id=pQRXRvomZkCV8yE95iuKqw%3D%3D&from=api",
        "shop_uid": "2120003245",
        "expenses": null,
        "web_uri": "https://skroutz.gr/products/show/22351096",
        "price": 299
    }, {
        "id": 14081131,
        "name": "Apple iPhone 5s 16GB Space Grey EU",
        "sku_id": 3783654,
        "shop_id": 941,
        "category_id": 40,
        "availability": "Παράδοση 1 έως 3 ημέρες",
        "click_url": "https://www.skroutz.gr/products/show/14081131?client_id=pQRXRvomZkCV8yE95iuKqw%3D%3D&from=api",
        "shop_uid": "0aca8b27-5884-4f30-a44c-5c0b1810c9c1",
        "expenses": null,
        "web_uri": "https://skroutz.gr/products/show/14081131",
        "price": 299.24
    }, {
        "id": 16596330,
        "name": "Apple iPhone 5S 16GB SPACE GRAY EU(ΠΛΗΡΩΜΗ ΜΕΧΡΙ 3 ΔΟΣΕΙΣ ΣΤΟ ΚΑΤΑΣΤΗΜΑ)",
        "sku_id": 3783654,
        "shop_id": 282,
        "category_id": 40,
        "availability": "Άμεση παραλαβή / Παράδοση 1 έως 3 ημέρες",
        "click_url": "https://www.skroutz.gr/products/show/16596330?client_id=pQRXRvomZkCV8yE95iuKqw%3D%3D&from=api",
        "shop_uid": "3349",
        "expenses": null,
        "web_uri": "https://skroutz.gr/products/show/16596330",
        "price": 300
    }, {
        "id": 13757540,
        "name": "Apple iPhone 5S 16GB (Ασημί) EU",
        "sku_id": 3783654,
        "shop_id": 1712,
        "category_id": 40,
        "availability": "Παράδοση 1 έως 3 ημέρες",
        "click_url": "https://www.skroutz.gr/products/show/13757540?client_id=pQRXRvomZkCV8yE95iuKqw%3D%3D&from=api",
        "shop_uid": "396052",
        "expenses": null,
        "web_uri": "https://skroutz.gr/products/show/13757540",
        "price": 301.85
    }, {
        "id": 13704407,
        "name": "Apple iPhone 5s 16GB Silver EU",
        "sku_id": 3783654,
        "shop_id": 1164,
        "category_id": 40,
        "availability": "Παράδοση 1 έως 3 ημέρες",
        "click_url": "https://www.skroutz.gr/products/show/13704407?client_id=pQRXRvomZkCV8yE95iuKqw%3D%3D&from=api",
        "shop_uid": "4077",
        "expenses": null,
        "web_uri": "https://skroutz.gr/products/show/13704407",
        "price": 301.9
    }, {
        "id": 23440669,
        "name": "Apple iPhone 5S 16GB 4G Silver EU",
        "sku_id": 3783654,
        "shop_id": 2475,
        "category_id": 40,
        "availability": "Κατόπιν παραγγελίας",
        "click_url": "https://www.skroutz.gr/products/show/23440669?client_id=pQRXRvomZkCV8yE95iuKqw%3D%3D&from=api",
        "shop_uid": "3089",
        "expenses": null,
        "web_uri": "https://skroutz.gr/products/show/23440669",
        "price": 302
    }, {
        "id": 23840730,
        "name": "Apple iPhone 5S 16GB silver - Apple - DF-732872",
        "sku_id": 3783654,
        "shop_id": 3324,
        "category_id": 40,
        "availability": "Παράδοση 4 έως 10 ημέρες",
        "click_url": "https://www.skroutz.gr/products/show/23840730?client_id=pQRXRvomZkCV8yE95iuKqw%3D%3D&from=api",
        "shop_uid": "1194",
        "expenses": null,
        "web_uri": "https://skroutz.gr/products/show/23840730",
        "price": 303
    }, {
        "id": 17692863,
        "name": "Apple iPhone 5s 4G 16GB space gray EU",
        "sku_id": 3783654,
        "shop_id": 708,
        "category_id": 40,
        "availability": "Άμεση παραλαβή / Παράδοση 1 έως 3 ημέρες",
        "click_url": "https://www.skroutz.gr/products/show/17692863?client_id=pQRXRvomZkCV8yE95iuKqw%3D%3D&from=api",
        "shop_uid": "25933",
        "expenses": null,
        "web_uri": "https://skroutz.gr/products/show/17692863",
        "price": 303
    }, {
        "id": 17800324,
        "name": "Apple iPhone 5s Space Grey 16GB EU (Πληρωμή σε εώς 10 δόσεις)",
        "sku_id": 3783654,
        "shop_id": 2458,
        "category_id": 40,
        "availability": "Άμεση παραλαβή / Παράδοση 1 έως 3 ημέρες",
        "click_url": "https://www.skroutz.gr/products/show/17800324?client_id=pQRXRvomZkCV8yE95iuKqw%3D%3D&from=api",
        "shop_uid": "3992",
        "expenses": 3.5,
        "web_uri": "https://skroutz.gr/products/show/17800324",
        "price": 304
    }, {
        "id": 21787402,
        "name": "Apple iPhone 5s 16GB Silver EU",
        "sku_id": 3783654,
        "shop_id": 3213,
        "category_id": 40,
        "availability": "Παράδοση 1 έως 3 ημέρες",
        "click_url": "https://www.skroutz.gr/products/show/21787402?client_id=pQRXRvomZkCV8yE95iuKqw%3D%3D&from=api",
        "shop_uid": "74",
        "expenses": null,
        "web_uri": "https://skroutz.gr/products/show/21787402",
        "price": 304
    }, {
        "id": 21870800,
        "name": "Apple iPhone 5s 16GB Space Gray EU",
        "sku_id": 3783654,
        "shop_id": 3213,
        "category_id": 40,
        "availability": "Παράδοση 1 έως 3 ημέρες",
        "click_url": "https://www.skroutz.gr/products/show/21870800?client_id=pQRXRvomZkCV8yE95iuKqw%3D%3D&from=api",
        "shop_uid": "146",
        "expenses": null,
        "web_uri": "https://skroutz.gr/products/show/21870800",
        "price": 304
    } ],
    "meta": {
        "pagination": {
            "total_results": 77,
            "total_pages": 4,
            "page": 1,
            "per": 25
        }
    }
}
