{"skus":[{"id":6377791,"ean":"","pn":"","name":"Σετ γάμου CANVAS SHELL - ΕΙΔΙΚΗ ΠΡΟΣΦΟΡΑ","display_name":"Σετ γάμου CANVAS SHELL - ΕΙΔΙΚΗ ΠΡΟΣΦΟΡΑ","category_id":279,"first_product_shop_info":"2138|E-Silvercorner|esilvercorner","click_url":"http://www.skroutz.gr/products/show/18685400","price_max":210.0,"price_min":210.0,"reviewscore":0.0,"shop_count":1,"plain_spec_summary":"Είδος: Δίσκοι - Καράφες - Ποτήρια","manufacturer_id":null,"future":false,"reviews_count":0,"virtual":true,"images":{"main":"https://a.scdn.gr/images/sku_main_images/006377/6377791/medium_20150730161258_set_gamou_me_stefana_eidiki_prosfora_csc505_ln.jpeg","alternatives":[]},"web_uri":"http://skroutz.gr/s/6377791/%CE%A3%CE%B5%CF%84-%CE%B3%CE%AC%CE%BC%CE%BF%CF%85-CANVAS-SHELL-%CE%95%CE%99%CE%94%CE%99%CE%9A%CE%97-%CE%A0%CE%A1%CE%9F%CE%A3%CE%A6%CE%9F%CE%A1%CE%91.html"},{"id":3767369,"ean":"","pn":"","name":"Σετ Γάμου CRYSTAL 163","display_name":"Σετ Γάμου CRYSTAL 163","category_id":279,"first_product_shop_info":"2138|E-Silvercorner|esilvercorner","click_url":"http://www.skroutz.gr/products/show/13448967","price_max":89.0,"price_min":89.0,"reviewscore":0.0,"shop_count":1,"plain_spec_summary":"Είδος: Δίσκοι - Καράφες - Ποτήρια","manufacturer_id":null,"future":false,"reviews_count":0,"virtual":true,"images":{"main":"https://b.scdn.gr/images/sku_main_images/003767/3767369/medium_20150730162010_set_gamou_crystal_set_163.jpeg","alternatives":[]},"web_uri":"http://skroutz.gr/s/3767369/%CE%A3%CE%B5%CF%84-%CE%93%CE%AC%CE%BC%CE%BF%CF%85-CRYSTAL-163.html"},{"id":8602325,"ean":"","pn":"","name":"Σετ γάμου LINEA - ΕΙΔΙΚΗ ΠΡΟΣΦΟΡΑ","display_name":"Σετ γάμου LINEA - ΕΙΔΙΚΗ ΠΡΟΣΦΟΡΑ","category_id":279,"first_product_shop_info":"2138|E-Silvercorner|esilvercorner","click_url":"http://www.skroutz.gr/products/show/23470678","price_max":210.0,"price_min":210.0,"reviewscore":0.0,"shop_count":1,"plain_spec_summary":"Είδος: Δίσκοι - Καράφες - Ποτήρια","manufacturer_id":null,"future":false,"reviews_count":0,"virtual":true,"images":{"main":"https://d.scdn.gr/images/sku_main_images/008602/8602325/medium_20160318110652_stefana_set_gamou_me_linatsa_ekroy_dantela_kai_fylla_elias_eidiki_prosfora.jpeg","alternatives":[]},"web_uri":"http://skroutz.gr/s/8602325/%CE%A3%CE%B5%CF%84-%CE%B3%CE%AC%CE%BC%CE%BF%CF%85-LINEA-%CE%95%CE%99%CE%94%CE%99%CE%9A%CE%97-%CE%A0%CE%A1%CE%9F%CE%A3%CE%A6%CE%9F%CE%A1%CE%91.html"},{"id":4830510,"ean":"","pn":"","name":"Σετ Γάμου 4 τμχ Καράφα, Ποτήρι Κρασιού \u0026 2 ποτήρια Σαμπάνιας (05) Σχ. Καρδιά","display_name":"Σετ Γάμου 4 τμχ Καράφα, Ποτήρι Κρασιού \u0026 2 ποτήρια Σαμπάνιας (05) Σχ. Καρδιά","category_id":279,"first_product_shop_info":"1173|PapadatosHome|papadatoshome","click_url":"http://www.skroutz.gr/products/show/15452532","price_max":49.0,"price_min":49.0,"reviewscore":0.0,"shop_count":1,"plain_spec_summary":"Είδος: Δίσκοι - Καράφες - Ποτήρια","manufacturer_id":null,"future":false,"reviews_count":0,"virtual":true,"images":{"main":"https://a.scdn.gr/images/sku_main_images/004830/4830510/medium_20160920153056_set_gamou_4_tmch_karafa_potiri_krasioy_2_potiria_sampanias_05_sch_kardia.jpeg","alternatives":[]},"web_uri":"http://skroutz.gr/s/4830510/%CE%A3%CE%B5%CF%84-%CE%93%CE%AC%CE%BC%CE%BF%CF%85-4-%CF%84%CE%BC%CF%87-%CE%9A%CE%B1%CF%81%CE%AC%CF%86%CE%B1-%CE%A0%CE%BF%CF%84%CE%AE%CF%81%CE%B9-%CE%9A%CF%81%CE%B1%CF%83%CE%B9%CE%BF%CF%8D-2-%CF%80%CE%BF%CF%84%CE%AE%CF%81%CE%B9%CE%B1-%CE%A3%CE%B1%CE%BC%CF%80%CE%AC%CE%BD%CE%B9%CE%B1%CF%82-05-%CE%A3%CF%87-%CE%9A%CE%B1%CF%81%CE%B4%CE%B9%CE%AC.html"},{"id":7890396,"ean":"","pn":"","name":"Λαμπάδα γάμου με λινάτσα και δαντέλα","display_name":"Λαμπάδα γάμου με λινάτσα και δαντέλα","category_id":279,"first_product_shop_info":"2138|E-Silvercorner|esilvercorner","click_url":"http://www.skroutz.gr/products/show/21821566","price_max":65.0,"price_min":65.0,"reviewscore":0.0,"shop_count":1,"plain_spec_summary":"Είδος: Λαμπάδες","manufacturer_id":null,"future":false,"reviews_count":0,"virtual":true,"images":{"main":"https://a.scdn.gr/images/sku_main_images/007890/7890396/medium_20151117133256_lampada_gamou_me_linatsa_kai_dantela.jpeg","alternatives":[]},"web_uri":"http://skroutz.gr/s/7890396/%CE%9B%CE%B1%CE%BC%CF%80%CE%AC%CE%B4%CE%B1-%CE%B3%CE%AC%CE%BC%CE%BF%CF%85-%CE%BC%CE%B5-%CE%BB%CE%B9%CE%BD%CE%AC%CF%84%CF%83%CE%B1-%CE%BA%CE%B1%CE%B9-%CE%B4%CE%B1%CE%BD%CF%84%CE%AD%CE%BB%CE%B1.html"},{"id":3767363,"ean":"","pn":"","name":"Σετ Γάμου ΑΡΜΟΝΙΑ 5 ΤΜΧ","display_name":"Σετ Γάμου ΑΡΜΟΝΙΑ 5 ΤΜΧ","category_id":279,"first_product_shop_info":"2138|E-Silvercorner|esilvercorner","click_url":"http://www.skroutz.gr/products/show/13448961","price_max":105.0,"price_min":105.0,"reviewscore":0.0,"shop_count":1,"plain_spec_summary":"Είδος: Δίσκοι - Καράφες - Ποτήρια","manufacturer_id":null,"future":false,"reviews_count":0,"virtual":true,"images":{"main":"https://c.scdn.gr/images/sku_main_images/003767/3767363/medium_20150730161948_set_gamou_crystal_set_167.jpeg","alternatives":[]},"web_uri":"http://skroutz.gr/s/3767363/%CE%A3%CE%B5%CF%84-%CE%93%CE%AC%CE%BC%CE%BF%CF%85-%CE%91%CE%A1%CE%9C%CE%9F%CE%9D%CE%99%CE%91-5-%CE%A4%CE%9C%CE%A7.html"},{"id":8844582,"ean":"","pn":"","name":"FMS ΝΥΦΙΚΟ ΣΕΤ ΝΥΧΤΙΚΟ - ΡΟΜΠΑ - Λευκό","display_name":"FMS ΝΥΦΙΚΟ ΣΕΤ ΝΥΧΤΙΚΟ - ΡΟΜΠΑ - Λευκό","category_id":279,"first_product_shop_info":"3119|FmsStores|fmsstores","click_url":"http://www.skroutz.gr/products/show/23885308","price_max":71.91,"price_min":71.91,"reviewscore":0.0,"shop_count":1,"plain_spec_summary":"Είδος: Αξεσουάρ Νύφης","manufacturer_id":null,"future":false,"reviews_count":0,"virtual":true,"images":{"main":"https://c.scdn.gr/images/sku_main_images/008844/8844582/medium_20160418151030_fms_women_nyfiko_set_babydoll_rompa_saten_leyko.jpeg","alternatives":[]},"web_uri":"http://skroutz.gr/s/8844582/FMS-%CE%9D%CE%A5%CE%A6%CE%99%CE%9A%CE%9F-%CE%A3%CE%95%CE%A4-%CE%9D%CE%A5%CE%A7%CE%A4%CE%99%CE%9A%CE%9F-%CE%A1%CE%9F%CE%9C%CE%A0%CE%91-%CE%9B%CE%B5%CF%85%CE%BA%CF%8C.html"},{"id":6377777,"ean":"","pn":"","name":"Ποτήρι κρασιού για Γάμο BOHEMIAN AZALEA","display_name":"Ποτήρι κρασιού για Γάμο BOHEMIAN AZALEA","category_id":279,"first_product_shop_info":"2138|E-Silvercorner|esilvercorner","click_url":"http://www.skroutz.gr/products/show/18679300","price_max":20.0,"price_min":20.0,"reviewscore":0.0,"shop_count":1,"plain_spec_summary":"Είδος: Δίσκοι - Καράφες - Ποτήρια","manufacturer_id":null,"future":false,"reviews_count":0,"virtual":true,"images":{"main":"https://d.scdn.gr/images/sku_main_images/006377/6377777/medium_20150730161304_potiri_krasioy_gia_gamo_128_me_dantela.jpeg","alternatives":[]},"web_uri":"http://skroutz.gr/s/6377777/%CE%A0%CE%BF%CF%84%CE%AE%CF%81%CE%B9-%CE%BA%CF%81%CE%B1%CF%83%CE%B9%CE%BF%CF%8D-%CE%B3%CE%B9%CE%B1-%CE%93%CE%AC%CE%BC%CE%BF-BOHEMIAN-AZALEA.html"},{"id":9367342,"ean":"","pn":"","name":"λαμπάδες γάμου 15 φ στολισμένες (2) τεμ","display_name":"λαμπάδες γάμου 15 φ στολισμένες (2) τεμ","category_id":279,"first_product_shop_info":"3384|i-Mpomponieres|impomponieres","click_url":"http://www.skroutz.gr/products/show/24728972","price_max":150.0,"price_min":150.0,"reviewscore":0.0,"shop_count":1,"plain_spec_summary":"Είδος: Λαμπάδες","manufacturer_id":null,"future":false,"reviews_count":0,"virtual":true,"images":{"main":"https://c.scdn.gr/images/sku_main_images/009367/9367342/medium_20160705103053_lampades_gamou_15_f_stolismenes_2_tem.jpeg","alternatives":[]},"web_uri":"http://skroutz.gr/s/9367342/%CE%BB%CE%B1%CE%BC%CF%80%CE%AC%CE%B4%CE%B5%CF%82-%CE%B3%CE%AC%CE%BC%CE%BF%CF%85-15-%CF%86-%CF%83%CF%84%CE%BF%CE%BB%CE%B9%CF%83%CE%BC%CE%AD%CE%BD%CE%B5%CF%82-2-%CF%84%CE%B5%CE%BC.html"},{"id":8938663,"ean":"","pn":"","name":"Διακοσμητικό γαμήλιας τούρτας με νύφη και γαμπρό, Cb H2500218 - Cb - 00009020","display_name":"Διακοσμητικό γαμήλιας τούρτας με νύφη και γαμπρό, Cb H2500218 - Cb - 00009020","category_id":279,"first_product_shop_info":"2673|Hellas-tech|hellastech","click_url":"http://www.skroutz.gr/products/show/24050290","price_max":5.95,"price_min":5.95,"reviewscore":0.0,"shop_count":1,"plain_spec_summary":"Είδος: Διακόσμηση Γάμου","manufacturer_id":null,"future":false,"reviews_count":0,"virtual":true,"images":{"main":"https://b.scdn.gr/images/sku_main_images/008938/8938663/medium_20160429122313_diakosmitiko_gamilias_toyrtas_me_nyfi_kai_gampro_cb_h2500218_cb_00009020.jpeg","alternatives":[]},"web_uri":"http://skroutz.gr/s/8938663/%CE%94%CE%B9%CE%B1%CE%BA%CE%BF%CF%83%CE%BC%CE%B7%CF%84%CE%B9%CE%BA%CF%8C-%CE%B3%CE%B1%CE%BC%CE%AE%CE%BB%CE%B9%CE%B1%CF%82-%CF%84%CE%BF%CF%8D%CF%81%CF%84%CE%B1%CF%82-%CE%BC%CE%B5-%CE%BD%CF%8D%CF%86%CE%B7-%CE%BA%CE%B1%CE%B9-%CE%B3%CE%B1%CE%BC%CF%80%CF%81%CF%8C-Cb-H2500218-Cb-00009020.html"},{"id":3522934,"ean":"","pn":"","name":"Σετ γάμου CAPOLAVORO G03 (στρας)","display_name":"Σετ γάμου CAPOLAVORO G03 (στρας)","category_id":279,"first_product_shop_info":"1800|Prasopouloshomeart|prasopouloshomeart","click_url":"http://www.skroutz.gr/products/show/12934145","price_max":62.5,"price_min":62.5,"reviewscore":0.0,"shop_count":1,"plain_spec_summary":"Είδος: Δίσκοι - Καράφες - Ποτήρια","manufacturer_id":null,"future":false,"reviews_count":0,"virtual":true,"images":{"main":"https://c.scdn.gr/images/sku_main_images/003522/3522934/medium_20160315112622_set_gamou_capolavoro_g03_stras.jpeg","alternatives":[]},"web_uri":"http://skroutz.gr/s/3522934/%CE%A3%CE%B5%CF%84-%CE%B3%CE%AC%CE%BC%CE%BF%CF%85-CAPOLAVORO-G03-%CF%83%CF%84%CF%81%CE%B1%CF%82.html"},{"id":7892136,"ean":"","pn":"","name":"Λαμπάδα γάμου με τούλι \"σάπιο μήλο\"","display_name":"Λαμπάδα γάμου με τούλι \"σάπιο μήλο\"","category_id":279,"first_product_shop_info":"2138|E-Silvercorner|esilvercorner","click_url":"http://www.skroutz.gr/products/show/21824806","price_max":55.0,"price_min":55.0,"reviewscore":0.0,"shop_count":1,"plain_spec_summary":"Είδος: Λαμπάδες","manufacturer_id":null,"future":false,"reviews_count":0,"virtual":true,"images":{"main":"https://d.scdn.gr/images/sku_main_images/007892/7892136/medium_20151117151738_lampada_gamou_me_toyli_sapio_milo.jpeg","alternatives":[]},"web_uri":"http://skroutz.gr/s/7892136/%CE%9B%CE%B1%CE%BC%CF%80%CE%AC%CE%B4%CE%B1-%CE%B3%CE%AC%CE%BC%CE%BF%CF%85-%CE%BC%CE%B5-%CF%84%CE%BF%CF%8D%CE%BB%CE%B9-%CF%83%CE%AC%CF%80%CE%B9%CE%BF-%CE%BC%CE%AE%CE%BB%CE%BF.html"},{"id":8200646,"ean":"","pn":"","name":"Οικονομικά πουγκιά ρυζιού Wedding Gallery","display_name":"Οικονομικά πουγκιά ρυζιού Wedding Gallery","category_id":279,"first_product_shop_info":"3115|Eidi-gamou-vaptisis|eidigamouvaptisis","click_url":"http://www.skroutz.gr/products/show/22279871","price_max":0.17,"price_min":0.17,"reviewscore":0.0,"shop_count":1,"plain_spec_summary":"Είδος: Διακόσμηση Γάμου","manufacturer_id":null,"future":false,"reviews_count":0,"virtual":true,"images":{"main":"https://b.scdn.gr/images/sku_main_images/008200/8200646/medium_20160120105604_oikonomika_pougkia_ryzioy_wedding_gallery.jpeg","alternatives":[]},"web_uri":"http://skroutz.gr/s/8200646/%CE%9F%CE%B9%CE%BA%CE%BF%CE%BD%CE%BF%CE%BC%CE%B9%CE%BA%CE%AC-%CF%80%CE%BF%CF%85%CE%B3%CE%BA%CE%B9%CE%AC-%CF%81%CF%85%CE%B6%CE%B9%CE%BF%CF%8D-Wedding-Gallery.html"},{"id":5817503,"ean":"","pn":"","name":"Μικρά μπουκαλάκια για γάμο και βάπτιση 50 ml *","display_name":"Μικρά μπουκαλάκια για γάμο και βάπτιση 50 ml *","category_id":279,"first_product_shop_info":"2760|Vaza|vaza","click_url":"http://www.skroutz.gr/products/show/17360055","price_max":0.24,"price_min":0.24,"reviewscore":0.0,"shop_count":1,"plain_spec_summary":"Είδος: Διακόσμηση Γάμου","manufacturer_id":null,"future":false,"reviews_count":0,"virtual":true,"images":{"main":"https://d.scdn.gr/images/sku_main_images/005817/5817503/medium_20151030020043_mikra_mpoukalakia_gia_gamo_kai_vaptisi_50_ml.jpeg","alternatives":[]},"web_uri":"http://skroutz.gr/s/5817503/%CE%9C%CE%B9%CE%BA%CF%81%CE%AC-%CE%BC%CF%80%CE%BF%CF%85%CE%BA%CE%B1%CE%BB%CE%AC%CE%BA%CE%B9%CE%B1-%CE%B3%CE%B9%CE%B1-%CE%B3%CE%AC%CE%BC%CE%BF-%CE%BA%CE%B1%CE%B9-%CE%B2%CE%AC%CF%80%CF%84%CE%B9%CF%83%CE%B7-50-ml.html"},{"id":6377800,"ean":"","pn":"","name":"Σετ γάμου SET HONEYMOON","display_name":"Σετ γάμου SET HONEYMOON","category_id":279,"first_product_shop_info":"2138|E-Silvercorner|esilvercorner","click_url":"http://www.skroutz.gr/products/show/18685405","price_max":148.0,"price_min":148.0,"reviewscore":0.0,"shop_count":1,"plain_spec_summary":"Είδος: Δίσκοι - Καράφες - Ποτήρια","manufacturer_id":null,"future":false,"reviews_count":0,"virtual":true,"images":{"main":"https://b.scdn.gr/images/sku_main_images/006377/6377800/medium_20150730161311_diskos_xylinos_diskos_me_linatsa_kai_kochyliacsc505_ln.jpeg","alternatives":[]},"web_uri":"http://skroutz.gr/s/6377800/%CE%A3%CE%B5%CF%84-%CE%B3%CE%AC%CE%BC%CE%BF%CF%85-SET-HONEYMOON.html"},{"id":8062507,"ean":"","pn":"","name":"Λαμπάδα-φωτιστικό με στολισμό","display_name":"Λαμπάδα-φωτιστικό με στολισμό","category_id":279,"first_product_shop_info":"2138|E-Silvercorner|esilvercorner","click_url":"http://www.skroutz.gr/products/show/21967371","price_max":110.0,"price_min":110.0,"reviewscore":0.0,"shop_count":1,"plain_spec_summary":"Είδος: Διακόσμηση Γάμου","manufacturer_id":null,"future":false,"reviews_count":0,"virtual":true,"images":{"main":"https://d.scdn.gr/images/sku_main_images/008062/8062507/medium_20151216165823_lampada_fotistiko_me_stolismo.jpeg","alternatives":[]},"web_uri":"http://skroutz.gr/s/8062507/%CE%9B%CE%B1%CE%BC%CF%80%CE%AC%CE%B4%CE%B1-%CF%86%CF%89%CF%84%CE%B9%CF%83%CF%84%CE%B9%CE%BA%CF%8C-%CE%BC%CE%B5-%CF%83%CF%84%CE%BF%CE%BB%CE%B9%CF%83%CE%BC%CF%8C.html"},{"id":8593123,"ean":"","pn":"","name":"Σετ γάμου VINTAGE","display_name":"Σετ γάμου VINTAGE","category_id":279,"first_product_shop_info":"2138|E-Silvercorner|esilvercorner","click_url":"http://www.skroutz.gr/products/show/23455233","price_max":105.0,"price_min":105.0,"reviewscore":0.0,"shop_count":1,"plain_spec_summary":"Είδος: Δίσκοι - Καράφες - Ποτήρια","manufacturer_id":null,"future":false,"reviews_count":0,"virtual":true,"images":{"main":"https://c.scdn.gr/images/sku_main_images/008593/8593123/medium_20160317114107_set_gamou_vintage_me_linatsa_kai_dantela.jpeg","alternatives":[]},"web_uri":"http://skroutz.gr/s/8593123/%CE%A3%CE%B5%CF%84-%CE%B3%CE%AC%CE%BC%CE%BF%CF%85-VINTAGE.html"},{"id":4539907,"ean":"","pn":"","name":"Capolavoro Σετ γάμου Βραχιόλι Γ012","display_name":"Capolavoro Σετ γάμου Βραχιόλι Γ012","category_id":279,"first_product_shop_info":"2011|Eidi-spitiou|eidispitiou","click_url":"http://www.skroutz.gr/products/show/14794395","price_max":59.0,"price_min":59.0,"reviewscore":0.0,"shop_count":1,"plain_spec_summary":"Είδος: Δίσκοι - Καράφες - Ποτήρια","manufacturer_id":null,"future":false,"reviews_count":0,"virtual":true,"images":{"main":"https://a.scdn.gr/images/sku_main_images/004539/4539907/medium_20160802163353_capolavoro_set_gamou_vrachioli_g012.jpeg","alternatives":[]},"web_uri":"http://skroutz.gr/s/4539907/Capolavoro-%CE%A3%CE%B5%CF%84-%CE%B3%CE%AC%CE%BC%CE%BF%CF%85-%CE%92%CF%81%CE%B1%CF%87%CE%B9%CF%8C%CE%BB%CE%B9-%CE%93012.html"},{"id":6731555,"ean":"","pn":"","name":"ΠΙΝΑΚΙΔΑ ΑΥΤΟΚΙΝΗΤΟΥ ΓΑΜΟΥ ΜΕ ΘΕΜΑ ΒΕΡΕΣ","display_name":"ΠΙΝΑΚΙΔΑ ΑΥΤΟΚΙΝΗΤΟΥ ΓΑΜΟΥ ΜΕ ΘΕΜΑ ΒΕΡΕΣ","category_id":279,"first_product_shop_info":"3036|Balloon|balloon","click_url":"http://www.skroutz.gr/products/show/19510934","price_max":10.59,"price_min":10.59,"reviewscore":0.0,"shop_count":1,"plain_spec_summary":"Είδος: Διακόσμηση Γάμου","manufacturer_id":null,"future":false,"reviews_count":0,"virtual":true,"images":{"main":"https://d.scdn.gr/images/sku_main_images/006731/6731555/medium_20150512171210_pinakida_aytokinitou_veres.jpeg","alternatives":[]},"web_uri":"http://skroutz.gr/s/6731555/%CE%A0%CE%99%CE%9D%CE%91%CE%9A%CE%99%CE%94%CE%91-%CE%91%CE%A5%CE%A4%CE%9F%CE%9A%CE%99%CE%9D%CE%97%CE%A4%CE%9F%CE%A5-%CE%93%CE%91%CE%9C%CE%9F%CE%A5-%CE%9C%CE%95-%CE%98%CE%95%CE%9C%CE%91-%CE%92%CE%95%CE%A1%CE%95%CE%A3.html"},{"id":7890398,"ean":"","pn":"","name":"Λαμπάδα γάμου με κορδόνι και μονόγραμμα με στρας","display_name":"Λαμπάδα γάμου με κορδόνι και μονόγραμμα με στρας","category_id":279,"first_product_shop_info":"2138|E-Silvercorner|esilvercorner","click_url":"http://www.skroutz.gr/products/show/21821568","price_max":59.0,"price_min":59.0,"reviewscore":0.0,"shop_count":1,"plain_spec_summary":"Είδος: Λαμπάδες","manufacturer_id":null,"future":false,"reviews_count":0,"virtual":true,"images":{"main":"https://d.scdn.gr/images/sku_main_images/007890/7890398/medium_20151117133259_lampada_gamou_me_kordoni_kai_monogramma_me_stras.jpeg","alternatives":[]},"web_uri":"http://skroutz.gr/s/7890398/%CE%9B%CE%B1%CE%BC%CF%80%CE%AC%CE%B4%CE%B1-%CE%B3%CE%AC%CE%BC%CE%BF%CF%85-%CE%BC%CE%B5-%CE%BA%CE%BF%CF%81%CE%B4%CF%8C%CE%BD%CE%B9-%CE%BA%CE%B1%CE%B9-%CE%BC%CE%BF%CE%BD%CF%8C%CE%B3%CF%81%CE%B1%CE%BC%CE%BC%CE%B1-%CE%BC%CE%B5-%CF%83%CF%84%CF%81%CE%B1%CF%82.html"},{"id":6669694,"ean":"","pn":"","name":"Σετ Γάμου 4 τμχ, καράφα,ποτήρι,δίσκος με Swarovski (H-154153)","display_name":"Σετ Γάμου 4 τμχ, καράφα,ποτήρι,δίσκος με Swarovski (H-154153)","category_id":279,"first_product_shop_info":"1173|PapadatosHome|papadatoshome","click_url":"http://www.skroutz.gr/products/show/19259104","price_max":99.0,"price_min":99.0,"reviewscore":0.0,"shop_count":1,"plain_spec_summary":"Είδος: Δίσκοι - Καράφες - Ποτήρια","manufacturer_id":null,"future":false,"reviews_count":0,"virtual":true,"images":{"main":"https://c.scdn.gr/images/sku_main_images/006669/6669694/medium_20160920153058_set_gamou_4_tmch_karafa_potiri_diskos_me_swarovski_h_154153.jpeg","alternatives":[]},"web_uri":"http://skroutz.gr/s/6669694/%CE%A3%CE%B5%CF%84-%CE%93%CE%AC%CE%BC%CE%BF%CF%85-4-%CF%84%CE%BC%CF%87-%CE%BA%CE%B1%CF%81%CE%AC%CF%86%CE%B1-%CF%80%CE%BF%CF%84%CE%AE%CF%81%CE%B9-%CE%B4%CE%AF%CF%83%CE%BA%CE%BF%CF%82-%CE%BC%CE%B5-Swarovski-H-154153.html"},{"id":8907674,"ean":"","pn":"","name":"FMS WOMEN ΝΥΦΙΚΟ ΣΕΤ ΝΥΧΤΙΚΟ - ΡΟΜΠΑ - Τύπος","display_name":"FMS WOMEN ΝΥΦΙΚΟ ΣΕΤ ΝΥΧΤΙΚΟ - ΡΟΜΠΑ - Τύπος","category_id":279,"first_product_shop_info":"3119|FmsStores|fmsstores","click_url":"http://www.skroutz.gr/products/show/23978552","price_max":88.0,"price_min":88.0,"reviewscore":0.0,"shop_count":1,"plain_spec_summary":"Είδος: Αξεσουάρ Νύφης","manufacturer_id":null,"future":false,"reviews_count":0,"virtual":true,"images":{"main":"https://b.scdn.gr/images/sku_main_images/008907/8907674/medium_20160426121355_fms_women_nyfiko_set_nychtiko_rompa_typos.jpeg","alternatives":[]},"web_uri":"http://skroutz.gr/s/8907674/FMS-WOMEN-%CE%9D%CE%A5%CE%A6%CE%99%CE%9A%CE%9F-%CE%A3%CE%95%CE%A4-%CE%9D%CE%A5%CE%A7%CE%A4%CE%99%CE%9A%CE%9F-%CE%A1%CE%9F%CE%9C%CE%A0%CE%91-%CE%A4%CF%8D%CF%80%CE%BF%CF%82.html"},{"id":8311977,"ean":"","pn":"","name":"Πουγκιά οργαντίνας οικονομικά Wedding Gallery","display_name":"Πουγκιά οργαντίνας οικονομικά Wedding Gallery","category_id":279,"first_product_shop_info":"3115|Eidi-gamou-vaptisis|eidigamouvaptisis","click_url":"http://www.skroutz.gr/products/show/22660997","price_max":0.15,"price_min":0.15,"reviewscore":0.0,"shop_count":1,"plain_spec_summary":"Είδος: Διακόσμηση Γάμου","manufacturer_id":null,"future":false,"reviews_count":0,"virtual":true,"images":{"main":"https://c.scdn.gr/images/sku_main_images/008311/8311977/medium_20160208121159_pougkia_organtinas_oikonomika_wedding_gallery.jpeg","alternatives":[]},"web_uri":"http://skroutz.gr/s/8311977/%CE%A0%CE%BF%CF%85%CE%B3%CE%BA%CE%B9%CE%AC-%CE%BF%CF%81%CE%B3%CE%B1%CE%BD%CF%84%CE%AF%CE%BD%CE%B1%CF%82-%CE%BF%CE%B9%CE%BA%CE%BF%CE%BD%CE%BF%CE%BC%CE%B9%CE%BA%CE%AC-Wedding-Gallery.html"},{"id":8577247,"ean":"","pn":"","name":"Σετ Γάμου ΡΟΖ ΧΡΥΣΟ","display_name":"Σετ Γάμου ΡΟΖ ΧΡΥΣΟ","category_id":279,"first_product_shop_info":"2138|E-Silvercorner|esilvercorner","click_url":"http://www.skroutz.gr/products/show/23428371","price_max":199.0,"price_min":199.0,"reviewscore":0.0,"shop_count":1,"plain_spec_summary":"Είδος: Δίσκοι - Καράφες - Ποτήρια","manufacturer_id":null,"future":false,"reviews_count":0,"virtual":true,"images":{"main":"https://a.scdn.gr/images/sku_main_images/008577/8577247/medium_20160316101532_set_gamou_me_roz_chryso.jpeg","alternatives":[]},"web_uri":"http://skroutz.gr/s/8577247/%CE%A3%CE%B5%CF%84-%CE%93%CE%AC%CE%BC%CE%BF%CF%85-%CE%A1%CE%9F%CE%96-%CE%A7%CE%A1%CE%A5%CE%A3%CE%9F.html"},{"id":6491530,"ean":"","pn":"","name":"Ποτήρι Κρασιού για Δίσκο Γάμου Κρυστάλλινο Aurea RcR(Made in Italy)","display_name":"Ποτήρι Κρασιού για Δίσκο Γάμου Κρυστάλλινο Aurea RcR(Made in Italy)","category_id":279,"first_product_shop_info":"1173|PapadatosHome|papadatoshome","click_url":"http://www.skroutz.gr/products/show/18781818","price_max":5.9,"price_min":5.9,"reviewscore":0.0,"shop_count":1,"plain_spec_summary":"Είδος: Δίσκοι - Καράφες - Ποτήρια","manufacturer_id":null,"future":false,"reviews_count":0,"virtual":true,"images":{"main":"https://c.scdn.gr/images/sku_main_images/006491/6491530/medium_20150701095751_potiri_krasioy_gia_disko_gamou_krystallino_aurea_rcr_made_in_italy.jpeg","alternatives":[]},"web_uri":"http://skroutz.gr/s/6491530/%CE%A0%CE%BF%CF%84%CE%AE%CF%81%CE%B9-%CE%9A%CF%81%CE%B1%CF%83%CE%B9%CE%BF%CF%8D-%CE%B3%CE%B9%CE%B1-%CE%94%CE%AF%CF%83%CE%BA%CE%BF-%CE%93%CE%AC%CE%BC%CE%BF%CF%85-%CE%9A%CF%81%CF%85%CF%83%CF%84%CE%AC%CE%BB%CE%BB%CE%B9%CE%BD%CE%BF-Aurea-RcR-Made-in-Italy.html"}],"meta":{"ordered_by":"popularity","available_filters":{"filters":{"342834":727,"531601":386,"342832":49,"342828":29,"657185":493,"657186":299,"657187":245,"657188":166},"manufacturers":{"254":88,"7564":1,"10179":1}},"pagination":{"total_results":1191,"total_pages":48,"page":1,"per":25}}}