{"skus":[{"id":7904356,"ean":"","pn":"1016D-3AALGR1 1016D-3AALDE1","name":"OneTouch 1016D","display_name":"Alcatel OneTouch 1016D","category_id":40,"first_product_shop_info":null,"click_url":null,"price_max":28.0,"price_min":14.63,"reviewscore":2.0,"shop_count":15,"plain_spec_summary":"Feature Phone,  SIM: Dual, Οθόνη: 1.8\", 160 x 128 pixels,  RAM: 4 MB,    Δίκτυο: 2G,   Λειτουργικό: Κατασκευαστή, Μπαταρία: 400 mAh","manufacturer_id":417,"future":false,"reviews_count":1,"virtual":false,"images":{"main":"https://a.scdn.gr/images/sku_main_images/007904/7904356/medium_20151119135310_alcatel_onetouch_1016d.jpeg","alternatives":["https://a.scdn.gr/images/sku_images/014876/14876270/20151119135313_4523f4ea.jpeg","https://d.scdn.gr/images/sku_images/014876/14876271/20151119135313_c7b8c845.jpeg","https://d.scdn.gr/images/sku_images/014876/14876272/20151119135316_cdbde627.jpeg"]},"web_uri":"http://skroutz.gr/s/7904356/Alcatel-OneTouch-1016D.html"},{"id":6999182,"ean":"","pn":"LFB24300A1-02","name":"Life B2","display_name":"Kazam Life B2","category_id":40,"first_product_shop_info":null,"click_url":null,"price_max":19.9,"price_min":16.43,"reviewscore":2.0,"shop_count":6,"plain_spec_summary":"Feature Phone,  SIM: Dual, Οθόνη: 1.8\", 128x160 pixels,      Δίκτυο: 2G, Κάμερα: 0.3 MP,  Λειτουργικό: Κατασκευαστή, Μπαταρία: 800 mAh","manufacturer_id":17914,"future":false,"reviews_count":1,"virtual":false,"images":{"main":"https://a.scdn.gr/images/sku_main_images/006999/6999182/medium_20150615111529_kazam_life_b2.jpeg","alternatives":["https://b.scdn.gr/images/sku_images/014815/14815446/20150615111529_a104c0d3.jpeg","https://d.scdn.gr/images/sku_images/014815/14815445/20150615111528_fb4b12f6.jpeg"]},"web_uri":"http://skroutz.gr/s/6999182/Kazam-Life-B2.html"},{"id":6535417,"ean":"5907377863427","pn":"MS1701","name":"MS1701","display_name":"Manta MS1701","category_id":40,"first_product_shop_info":null,"click_url":null,"price_max":25.0,"price_min":16.8,"reviewscore":1.0,"shop_count":9,"plain_spec_summary":"Feature Phone,  SIM: Dual, Οθόνη: 1.77\", 160 x 128 pixels,  Πυρήνες CPU: 1,     Δίκτυο: 2G,   Λειτουργικό: Κατασκευαστή, Μπαταρία: 400 mAh","manufacturer_id":3285,"future":false,"reviews_count":1,"virtual":false,"images":{"main":"https://b.scdn.gr/images/sku_main_images/006535/6535417/medium_20150409101904_manta_ms1701.jpeg","alternatives":["https://b.scdn.gr/images/sku_images/014796/14796241/20150409101904_ca68be5d.jpeg","https://d.scdn.gr/images/sku_images/014796/14796242/20150409101906_31e8517e.jpeg"]},"web_uri":"http://skroutz.gr/s/6535417/Manta-MS1701.html"},{"id":7335955,"ean":"","pn":"","name":"105 Dual","display_name":"Nokia 105 Dual","category_id":40,"first_product_shop_info":null,"click_url":null,"price_max":28.0,"price_min":19.5,"reviewscore":4.75,"shop_count":20,"plain_spec_summary":"Feature Phone,  SIM: Dual, Οθόνη: 1.4\", 128 x 128 pixels,  Πυρήνες CPU: 1, RAM: 4 MB,    Δίκτυο: 2G,   Λειτουργικό: Κατασκευαστή, Μπαταρία: 800 mAh","manufacturer_id":25,"future":false,"reviews_count":4,"virtual":false,"images":{"main":"https://b.scdn.gr/images/sku_main_images/007335/7335955/medium_20150825091703_nokia_105_dual.jpeg","alternatives":["https://a.scdn.gr/images/sku_images/014840/14840031/20150825091704_14de83a3.jpeg","https://d.scdn.gr/images/sku_images/014840/14840033/20150825091705_312d7ef6.jpeg","https://c.scdn.gr/images/sku_images/014840/14840032/20150825091705_022945d7.jpeg","https://b.scdn.gr/images/sku_images/014840/14840034/20150825091706_dc6d814d.jpeg","https://a.scdn.gr/images/sku_images/014840/14840035/20150825091706_cd44d91a.jpeg","https://d.scdn.gr/images/sku_images/014840/14840036/20150825091707_6202fef7.jpeg"]},"web_uri":"http://skroutz.gr/s/7335955/Nokia-105-Dual.html"},{"id":8720879,"ean":"","pn":"10.52G","name":"OneTouch 1052G","display_name":"Alcatel OneTouch 1052G","category_id":40,"first_product_shop_info":"3840|Vodafone eShop|vodafoneeshop","click_url":null,"price_max":19.9,"price_min":19.9,"reviewscore":0.0,"shop_count":1,"plain_spec_summary":"Feature Phone,  SIM: Single, Οθόνη: 1.8\", 160 x 128 pixels,  Πυρήνες CPU: 1, RAM: 32 MB,    Δίκτυο: 2G, Κάμερα: 0.3 MP,  Λειτουργικό: Κατασκευαστή, Μπαταρία: 400 mAh","manufacturer_id":417,"future":false,"reviews_count":0,"virtual":false,"images":{"main":"https://c.scdn.gr/images/sku_main_images/008720/8720879/medium_20160404122625_alcatel_onetouch_1052g.jpeg","alternatives":["https://a.scdn.gr/images/sku_images/014934/14934803/20160404122627_63b58e76.jpeg","https://c.scdn.gr/images/sku_images/014934/14934804/20160404122630_94eec6dd.jpeg","https://b.scdn.gr/images/sku_images/014934/14934805/20160404122631_ce2aeeee.jpeg","https://a.scdn.gr/images/sku_images/014934/14934806/20160404122634_2b70aad2.jpeg","https://d.scdn.gr/images/sku_images/014934/14934807/20160404122637_495c6256.jpeg","https://b.scdn.gr/images/sku_images/014934/14934809/20160404122641_3e92f996.jpeg","https://d.scdn.gr/images/sku_images/014934/14934808/20160404122640_14ca1a89.jpeg"]},"web_uri":"http://skroutz.gr/s/8720879/Alcatel-OneTouch-1052G.html"},{"id":5535970,"ean":"","pn":"","name":"130 Dual","display_name":"Nokia 130 Dual","category_id":40,"first_product_shop_info":null,"click_url":null,"price_max":42.16,"price_min":20.45,"reviewscore":4.2,"shop_count":23,"plain_spec_summary":"Feature Phone,  SIM: Dual, Οθόνη: 1.8\", 160 x 128 pixels,  Πυρήνες CPU: 1,     Δίκτυο: 2G,   Λειτουργικό: Κατασκευαστή, Μπαταρία: 1020 mAh","manufacturer_id":25,"future":false,"reviews_count":15,"virtual":false,"images":{"main":"https://b.scdn.gr/images/sku_main_images/005535/5535970/medium_2218534.jpg","alternatives":["https://d.scdn.gr/images/sku_images/013778/13778539/2218526.jpg","https://a.scdn.gr/images/sku_images/013778/13778540/2218518.jpg","https://d.scdn.gr/images/sku_images/013778/13778541/2218534_2.JPG","https://d.scdn.gr/images/sku_images/013778/13778543/2218518_1.JPG","https://d.scdn.gr/images/sku_images/013778/13778545/2218526_1.JPG"]},"web_uri":"http://skroutz.gr/s/5535970/Nokia-130-Dual.html"},{"id":3656048,"ean":"","pn":"","name":"105","display_name":"Nokia 105","category_id":40,"first_product_shop_info":"1153|Mobilephones|mobilephones","click_url":null,"price_max":21.08,"price_min":21.08,"reviewscore":3.2,"shop_count":1,"plain_spec_summary":"Feature Phone,  SIM: Single, Οθόνη: 1.45\", 128 x 128 pixels,  Πυρήνες CPU: 1,     Δίκτυο: 2G,   Λειτουργικό: Κατασκευαστή, Μπαταρία: 800 mAh","manufacturer_id":25,"future":false,"reviews_count":5,"virtual":false,"images":{"main":"https://b.scdn.gr/images/sku_main_images/003656/3656048/medium_20151022174256_nokia_105.jpeg","alternatives":["https://c.scdn.gr/images/sku_images/011053/11053155/nokia-105-301.jpg","https://c.scdn.gr/images/sku_images/011053/11053156/nokia105_0.jpg","https://b.scdn.gr/images/sku_images/011053/11053154/20151022174258_e1872d3e.jpeg"]},"web_uri":"http://skroutz.gr/s/3656048/Nokia-105.html"},{"id":7957675,"ean":"","pn":"OT-1052D 1052D-3AALGR1 1052D-3BALGR1","name":"OneTouch 1052D","display_name":"Alcatel OneTouch 1052D","category_id":40,"first_product_shop_info":null,"click_url":null,"price_max":25.23,"price_min":21.85,"reviewscore":0.0,"shop_count":10,"plain_spec_summary":"Feature Phone,  SIM: Dual, Οθόνη: 1.8\", 160 x 128 pixels,  Πυρήνες CPU: 1, RAM: 32 MB,    Δίκτυο: 2G, Κάμερα: 0.3 MP,  Λειτουργικό: Κατασκευαστή, Μπαταρία: 400 mAh","manufacturer_id":417,"future":false,"reviews_count":0,"virtual":false,"images":{"main":"https://a.scdn.gr/images/sku_main_images/007957/7957675/medium_20151127144705_alcatel_onetouch_1052.jpeg","alternatives":["https://b.scdn.gr/images/sku_images/014879/14879849/20151127144705_ba08445c.jpeg","https://d.scdn.gr/images/sku_images/014879/14879851/20151127144708_405948cf.jpeg","https://a.scdn.gr/images/sku_images/014879/14879850/20151127144708_c9076530.jpeg","https://c.scdn.gr/images/sku_images/014879/14879852/20151127144709_9d9b2848.jpeg"]},"web_uri":"http://skroutz.gr/s/7957675/Alcatel-OneTouch-1052D.html"},{"id":2119391,"ean":"","pn":"GT-E1200i","name":"E1200","display_name":"Samsung E1200","category_id":40,"first_product_shop_info":null,"click_url":null,"price_max":26.0,"price_min":22.0,"reviewscore":4.40541,"shop_count":6,"plain_spec_summary":"Feature Phone,  SIM: Single, Οθόνη: 1.52\", 128 x 128 pixels,  Πυρήνες CPU: 1,   Μνήμη Αποθήκευσης: 100 MB,  Δίκτυο: 2G,   Λειτουργικό: Κατασκευαστή, Μπαταρία: 800 mAh","manufacturer_id":28,"future":false,"reviews_count":37,"virtual":false,"images":{"main":"https://d.scdn.gr/images/sku_main_images/002119/2119391/medium_gr_GT-E1200ZWMVGR_301_Front","alternatives":["https://a.scdn.gr/images/sku_images/012918/12918567/gr_GT-E1200ZWMVGR_309_Dynamic","https://b.scdn.gr/images/sku_images/012918/12918568/gr_GT-E1200ZWMVGR_304_Left","https://c.scdn.gr/images/sku_images/012918/12918569/gr_GT-E1200ZWMVGR_302_Back","https://d.scdn.gr/images/sku_images/012918/12918571/gr_GT-E1200ZWMVGR_321_Front","https://c.scdn.gr/images/sku_images/012918/12918572/gr_GT-E1200ZWMVGR_329_Dynamic","https://a.scdn.gr/images/sku_images/012918/12918573/gr_GT-E1200ZWMVGR_323_Right","https://c.scdn.gr/images/sku_images/012918/12918574/gr_GT-E1200ZWMVGR_322_Back"]},"web_uri":"http://skroutz.gr/s/2119391/Samsung-E1200.html"},{"id":9092823,"ean":"","pn":"GT-E1200R","name":"E1200R","display_name":"Samsung E1200R","category_id":40,"first_product_shop_info":"3766|Fotocom|fotocom","click_url":null,"price_max":22.9,"price_min":22.9,"reviewscore":0.0,"shop_count":1,"plain_spec_summary":"Feature Phone,  SIM: Single, Οθόνη: 1.52\", 128 x 128 pixels,  CPU: 208 MHz, Πυρήνες CPU: 1, RAM: 4 MB,    Δίκτυο: 2G,   Λειτουργικό: Κατασκευαστή, Μπαταρία: 800 mAh","manufacturer_id":28,"future":false,"reviews_count":0,"virtual":false,"images":{"main":"https://a.scdn.gr/images/sku_main_images/009092/9092823/medium_20160524153553_samsung_e1200r.jpeg","alternatives":["https://c.scdn.gr/images/sku_images/014958/14958880/20160524153552_b4c84517.jpeg","https://a.scdn.gr/images/sku_images/014958/14958881/20160524153558_d6eb49cc.jpeg","https://b.scdn.gr/images/sku_images/014958/14958882/20160524153601_4cc22806.jpeg","https://c.scdn.gr/images/sku_images/014958/14958883/20160524153601_aec554bc.jpeg","https://a.scdn.gr/images/sku_images/014958/14958884/20160524153601_2e401c56.jpeg","https://b.scdn.gr/images/sku_images/014958/14958885/20160524153602_eadb0d2a.jpeg","https://a.scdn.gr/images/sku_images/014958/14958886/20160524153603_f42e177f.jpeg","https://d.scdn.gr/images/sku_images/014958/14958887/20160524153604_833612f1.jpeg","https://c.scdn.gr/images/sku_images/014958/14958888/20160524153609_1723b39d.jpeg","https://c.scdn.gr/images/sku_images/014958/14958889/20160524153609_473fbefc.jpeg"]},"web_uri":"http://skroutz.gr/s/9092823/Samsung-E1200R.html"},{"id":4443560,"ean":"","pn":"","name":"107 Dual","display_name":"Nokia 107 Dual","category_id":40,"first_product_shop_info":"1521|Kaizer Shop|kaizershop","click_url":null,"price_max":23.0,"price_min":23.0,"reviewscore":5.0,"shop_count":1,"plain_spec_summary":"Feature Phone,  SIM: Dual, Οθόνη: 1.8\", 160 x 128 pixels,  Πυρήνες CPU: 1,     Δίκτυο: 2G,   Λειτουργικό: Κατασκευαστή, Μπαταρία: 1020 mAh","manufacturer_id":25,"future":false,"reviews_count":2,"virtual":false,"images":{"main":"https://c.scdn.gr/images/sku_main_images/004443/4443560/medium_20150219113103_nokia_107_dual_sim.jpeg","alternatives":["https://c.scdn.gr/images/sku_images/012189/12189576/Nokia-107-Dual-SIM_3.jpg"]},"web_uri":"http://skroutz.gr/s/4443560/Nokia-107-Dual.html"},{"id":4706899,"ean":"","pn":"OT-1010X","name":"OneTouch 1010","display_name":"Alcatel OneTouch 1010","category_id":40,"first_product_shop_info":"2999|Afasia|afasia","click_url":null,"price_max":24.5,"price_min":24.5,"reviewscore":4.0,"shop_count":1,"plain_spec_summary":"Feature Phone,  SIM: Single, Οθόνη: 1.45\", 128 x 128 pixels,  CPU: 260 MHz, Πυρήνες CPU: 1, RAM: 4 MB,    Δίκτυο: 2G,   Λειτουργικό: Κατασκευαστή, Μπαταρία: 400 mAh","manufacturer_id":417,"future":false,"reviews_count":2,"virtual":false,"images":{"main":"https://d.scdn.gr/images/sku_main_images/004706/4706899/medium_20160301111839_alcatel_onetouch_1010.jpeg","alternatives":["https://a.scdn.gr/images/sku_images/014921/14921291/20160301111925_ad947121.jpeg","https://c.scdn.gr/images/sku_images/014921/14921292/20160301111928_c2debb7f.jpeg","https://b.scdn.gr/images/sku_images/014921/14921293/20160301111931_97f504a6.jpeg","https://b.scdn.gr/images/sku_images/014921/14921294/20160301111936_d4a5d3bc.jpeg"]},"web_uri":"http://skroutz.gr/s/4706899/Alcatel-OneTouch-1010.html"},{"id":5898447,"ean":"","pn":"","name":"130","display_name":"Nokia 130","category_id":40,"first_product_shop_info":"1153|Mobilephones|mobilephones","click_url":null,"price_max":24.8,"price_min":24.8,"reviewscore":5.0,"shop_count":1,"plain_spec_summary":"Feature Phone,  SIM: Single, Οθόνη: 1.8\", 160 x 128 pixels,  Πυρήνες CPU: 1,     Δίκτυο: 2G,   Λειτουργικό: Κατασκευαστή, Μπαταρία: 1020 mAh","manufacturer_id":25,"future":false,"reviews_count":4,"virtual":false,"images":{"main":"https://c.scdn.gr/images/sku_main_images/005898/5898447/medium_20141218110318_2218534.jpg","alternatives":["https://a.scdn.gr/images/sku_images/014384/14384932/20141218110319_2218526.jpg","https://b.scdn.gr/images/sku_images/014384/14384933/20141218110320_2218518.jpg","https://c.scdn.gr/images/sku_images/014384/14384934/20141218110323_2218534_2.JPG","https://b.scdn.gr/images/sku_images/014384/14384935/20141218110325_2218518_1.JPG","https://c.scdn.gr/images/sku_images/014384/14384936/20141218110326_2218526_1.JPG"]},"web_uri":"http://skroutz.gr/s/5898447/Nokia-130.html"},{"id":4389023,"ean":"","pn":"","name":"108","display_name":"Nokia 108","category_id":40,"first_product_shop_info":null,"click_url":null,"price_max":30.0,"price_min":25.48,"reviewscore":3.5,"shop_count":12,"plain_spec_summary":"Feature Phone,  SIM: Single, Οθόνη: 1.8\", 160 x 128 pixels,  Πυρήνες CPU: 1,     Δίκτυο: 2G, Κάμερα: 0.3 MP,  Λειτουργικό: Κατασκευαστή, Μπαταρία: 950 mAh","manufacturer_id":25,"future":false,"reviews_count":4,"virtual":false,"images":{"main":"https://b.scdn.gr/images/sku_main_images/004389/4389023/medium_20150525094618_nokia_108.jpeg","alternatives":["https://d.scdn.gr/images/sku_images/012103/12103416/Nokia_108_DUAL_SIM_Front-and-Back.jpg","https://a.scdn.gr/images/sku_images/012103/12103417/nokia-108-dual-sim-india.jpg","https://a.scdn.gr/images/sku_images/014809/14809883/20150525094729_518a27f3.jpeg","https://d.scdn.gr/images/sku_images/014809/14809884/20150525094750_af4cea46.jpeg","https://d.scdn.gr/images/sku_images/014809/14809885/20150525094752_5246aefb.jpeg"]},"web_uri":"http://skroutz.gr/s/4389023/Nokia-108.html"},{"id":5804541,"ean":"","pn":"1035D-2AALGR1 1035D-2BALGR1 1035D-2CALGR1","name":"OneTouch 1035D","display_name":"Alcatel OneTouch 1035D","category_id":40,"first_product_shop_info":null,"click_url":null,"price_max":40.0,"price_min":25.7,"reviewscore":4.5,"shop_count":20,"plain_spec_summary":"Feature Phone,  SIM: Dual, Οθόνη: 1.8\", 160 x 128 pixels,  Πυρήνες CPU: 1, RAM: 24 MB,    Δίκτυο: 2G,   Λειτουργικό: Κατασκευαστή, Μπαταρία: 400 mAh","manufacturer_id":417,"future":false,"reviews_count":2,"virtual":false,"images":{"main":"https://a.scdn.gr/images/sku_main_images/005804/5804541/medium_20141128130414_0009451-22_L.jpg","alternatives":["https://c.scdn.gr/images/sku_images/014269/14269967/20141128130418_01_alcatel_one_touch_1035d.jpg","https://d.scdn.gr/images/sku_images/014269/14269973/20141128130420_0009449-22_L.jpg","https://b.scdn.gr/images/sku_images/014269/14269976/20141128130423_02_alcatel_one_touch_1035d.jpg","https://c.scdn.gr/images/sku_images/014269/14269980/20141128130425_0009449_L.jpg"]},"web_uri":"http://skroutz.gr/s/5804541/Alcatel-OneTouch-1035D.html"},{"id":3982592,"ean":"","pn":"","name":"108 Dual","display_name":"Nokia 108 Dual","category_id":40,"first_product_shop_info":null,"click_url":null,"price_max":40.25,"price_min":25.89,"reviewscore":3.625,"shop_count":28,"plain_spec_summary":"Feature Phone,  SIM: Dual, Οθόνη: 1.8\", 160 x 128 pixels,  Πυρήνες CPU: 1,     Δίκτυο: 2G, Κάμερα: 0.3 MP,  Λειτουργικό: Κατασκευαστή, Μπαταρία: 950 mAh","manufacturer_id":25,"future":false,"reviews_count":8,"virtual":false,"images":{"main":"https://b.scdn.gr/images/sku_main_images/003982/3982592/medium_nokia-108-white-.jpg","alternatives":["https://a.scdn.gr/images/sku_images/012918/12918576/NOKIA108.jpg","https://d.scdn.gr/images/sku_images/012918/12918580/nokia-108-dual-sim-india.jpg","https://d.scdn.gr/images/sku_images/012918/12918581/Nokia-108-Dual-Sim-white-1000-0800674.jpg","https://b.scdn.gr/images/sku_images/012918/12918585/101355.jpg","https://b.scdn.gr/images/sku_images/012918/12918586/600.jpg"]},"web_uri":"http://skroutz.gr/s/3982592/Nokia-108-Dual.html"},{"id":8436609,"ean":"","pn":"EB-90FGD18KB EB-90FGD18KR","name":"GD18","display_name":"Panasonic GD18","category_id":40,"first_product_shop_info":null,"click_url":null,"price_max":39.9,"price_min":28.2,"reviewscore":0.0,"shop_count":12,"plain_spec_summary":"Feature Phone,  SIM: Dual, Οθόνη: 1.77\", 160 x 128 pixels,  Πυρήνες CPU: 1, RAM: 32 MB,    Δίκτυο: 2G, Κάμερα: 0.3 MP,  Λειτουργικό: Κατασκευαστή, Μπαταρία: 900 mAh","manufacturer_id":39,"future":false,"reviews_count":0,"virtual":false,"images":{"main":"https://d.scdn.gr/images/sku_main_images/008436/8436609/medium_20160226114129_panasonic_gd18.jpeg","alternatives":["https://b.scdn.gr/images/sku_images/014919/14919568/20160226114132_b369095e.jpeg","https://b.scdn.gr/images/sku_images/014919/14919569/20160226113817_891af5fc.jpeg"]},"web_uri":"http://skroutz.gr/s/8436609/Panasonic-GD18.html"},{"id":6192457,"ean":"","pn":"","name":"215 Dual","display_name":"Nokia 215 Dual","category_id":40,"first_product_shop_info":null,"click_url":null,"price_max":60.51,"price_min":28.98,"reviewscore":3.14286,"shop_count":22,"plain_spec_summary":"Feature Phone,  SIM: Dual, Οθόνη: 2.4\", 320 x 240 pixels,  Πυρήνες CPU: 1, RAM: 8 MB,    Δίκτυο: 2G, Κάμερα: 0.3 MP,  Λειτουργικό: Κατασκευαστή, Μπαταρία: 1100 mAh","manufacturer_id":25,"future":false,"reviews_count":14,"virtual":false,"images":{"main":"https://b.scdn.gr/images/sku_main_images/006192/6192457/medium_20150217102347_nokia_215_dual_sim.jpeg","alternatives":["https://d.scdn.gr/images/sku_images/014778/14778160/20150217102301_99044634.jpeg","https://b.scdn.gr/images/sku_images/014778/14778161/20150217102306_cb1c12d3.jpeg","https://b.scdn.gr/images/sku_images/014778/14778167/20150217102344_32f34368.jpeg","https://d.scdn.gr/images/sku_images/014778/14778164/20150217102318_d6c53e48.png","https://c.scdn.gr/images/sku_images/014778/14778165/20150217102335_869ac2fe.png","https://c.scdn.gr/images/sku_images/014778/14778163/20150217102314_78a17c00.jpeg","https://a.scdn.gr/images/sku_images/014778/14778166/20150217102340_25fd6ec1.png"]},"web_uri":"http://skroutz.gr/s/6192457/Nokia-215-Dual.html"},{"id":9633962,"ean":"701197284746","pn":"flamefox-simple1","name":"Simple1","display_name":"FlameFox Simple1","category_id":40,"first_product_shop_info":null,"click_url":null,"price_max":30.0,"price_min":29.9,"reviewscore":0.0,"shop_count":4,"plain_spec_summary":"Feature Phone,  SIM: Dual, Οθόνη: 1.77\", 160 x 128 pixels,  RAM: 32 MB,  Μνήμη Αποθήκευσης: 32 MB,  Δίκτυο: 2G, Κάμερα: 0.3 MP,  Λειτουργικό: Κατασκευαστή, Μπαταρία: 1800 mAh","manufacturer_id":29864,"future":false,"reviews_count":0,"virtual":false,"images":{"main":"https://b.scdn.gr/images/sku_main_images/009633/9633962/medium_20160818175702_flamefox_simple1.jpeg","alternatives":["https://d.scdn.gr/images/sku_images/015822/15822541/20160818175702_d56b49a9.jpeg","https://d.scdn.gr/images/sku_images/015822/15822539/20160818175701_12b1788e.jpeg","https://d.scdn.gr/images/sku_images/015822/15822540/20160818175701_b1b7efe1.jpeg","https://a.scdn.gr/images/sku_images/015822/15822542/20160818175703_f8651e96.jpeg","https://b.scdn.gr/images/sku_images/015822/15822543/20160818175704_098e21b5.jpeg"]},"web_uri":"http://skroutz.gr/s/9633962/FlameFox-Simple1.html"},{"id":7294598,"ean":"5907377864363","pn":"MS2402W MS2402B","name":"MS2402","display_name":"Manta MS2402","category_id":40,"first_product_shop_info":"923|EasyTechnology|easytechnology","click_url":null,"price_max":32.0,"price_min":32.0,"reviewscore":0.0,"shop_count":1,"plain_spec_summary":"Feature Phone,  SIM: Dual, Οθόνη: 2.4\", 320 x 240 pixels,      Δίκτυο: 2G,   Λειτουργικό: Κατασκευαστή, Μπαταρία: 500 mAh","manufacturer_id":3285,"future":false,"reviews_count":0,"virtual":false,"images":{"main":"https://d.scdn.gr/images/sku_main_images/007294/7294598/medium_20150811094538_manta_ms2402.jpeg","alternatives":["https://c.scdn.gr/images/sku_images/014835/14835725/20150811094537_eaf8207b.jpeg"]},"web_uri":"http://skroutz.gr/s/7294598/Manta-MS2402.html"},{"id":7655259,"ean":"","pn":"","name":"222 Dual","display_name":"Nokia 222 Dual","category_id":40,"first_product_shop_info":null,"click_url":null,"price_max":60.0,"price_min":32.9,"reviewscore":2.66667,"shop_count":25,"plain_spec_summary":"Feature Phone,  SIM: Dual, Οθόνη: 2.4\", 320 x 240 pixels,  Πυρήνες CPU: 1, RAM: 16 MB,    Δίκτυο: 2G, Κάμερα: 2 MP,  Λειτουργικό: Κατασκευαστή, Μπαταρία: 1100 mAh","manufacturer_id":25,"future":false,"reviews_count":3,"virtual":false,"images":{"main":"https://c.scdn.gr/images/sku_main_images/007655/7655259/medium_20151014101314_nokia_222_dual.jpeg","alternatives":["https://b.scdn.gr/images/sku_images/014862/14862071/20151014101315_22c6f0f6.jpeg","https://a.scdn.gr/images/sku_images/014862/14862072/20151014101320_9648f7d1.jpeg","https://c.scdn.gr/images/sku_images/014862/14862073/20151014101321_480d488b.jpeg","https://c.scdn.gr/images/sku_images/014862/14862074/20151014101326_57256bcb.jpeg","https://d.scdn.gr/images/sku_images/014862/14862075/20151014101328_d0689d3e.jpeg","https://c.scdn.gr/images/sku_images/014862/14862076/20151014101332_11e31dde.jpeg"]},"web_uri":"http://skroutz.gr/s/7655259/Nokia-222-Dual.html"},{"id":7988857,"ean":"","pn":"1035X","name":"OneTouch 1035X","display_name":"Alcatel OneTouch 1035X","category_id":40,"first_product_shop_info":null,"click_url":null,"price_max":40.0,"price_min":34.72,"reviewscore":0.0,"shop_count":2,"plain_spec_summary":"Feature Phone,  SIM: Single, Οθόνη: 1.8\", 160 x 128 pixels,  Πυρήνες CPU: 1, RAM: 24 MB,    Δίκτυο: 2G,   Λειτουργικό: Κατασκευαστή, Μπαταρία: 400 mAh","manufacturer_id":417,"future":false,"reviews_count":0,"virtual":false,"images":{"main":"https://d.scdn.gr/images/sku_main_images/007988/7988857/medium_20151203161349_alcatel_onetouch_1035x.jpeg","alternatives":["https://c.scdn.gr/images/sku_images/014882/14882826/20151203161350_d359682d.jpeg","https://c.scdn.gr/images/sku_images/014882/14882825/20151203161348_eba3b57f.jpeg","https://a.scdn.gr/images/sku_images/014882/14882827/20151203161352_6fd8f324.jpeg","https://a.scdn.gr/images/sku_images/014882/14882828/20151203161354_7d6eed1c.jpeg","https://d.scdn.gr/images/sku_images/014882/14882829/20151203161355_216f5302.jpeg","https://d.scdn.gr/images/sku_images/014882/14882830/20151203161358_cabad428.jpeg","https://b.scdn.gr/images/sku_images/014882/14882831/20151203161401_d48c08f6.jpeg"]},"web_uri":"http://skroutz.gr/s/7988857/Alcatel-OneTouch-1035X.html"},{"id":8437937,"ean":"","pn":"EB-90FEZ240G","name":"EZ240","display_name":"Panasonic EZ240","category_id":40,"first_product_shop_info":null,"click_url":null,"price_max":40.0,"price_min":36.2,"reviewscore":2.0,"shop_count":10,"plain_spec_summary":"Feature Phone,  SIM: Dual, Οθόνη: 2.4\", 320 x 240 pixels,  Πυρήνες CPU: 1, RAM: 32 MB,    Δίκτυο: 2G, Κάμερα: 1.3 MP,  Λειτουργικό: Κατασκευαστή, Μπαταρία: 1200 mAh","manufacturer_id":39,"future":false,"reviews_count":1,"virtual":false,"images":{"main":"https://c.scdn.gr/images/sku_main_images/008437/8437937/medium_20160226130347_panasonic_ez240.jpeg","alternatives":["https://c.scdn.gr/images/sku_images/014919/14919641/20160226130348_fc71cb60.jpeg","https://a.scdn.gr/images/sku_images/014919/14919642/20160226130349_d9f100ef.jpeg"]},"web_uri":"http://skroutz.gr/s/8437937/Panasonic-EZ240.html"},{"id":7753482,"ean":"","pn":"","name":"222 Single","display_name":"Nokia 222 Single","category_id":40,"first_product_shop_info":"1153|Mobilephones|mobilephones","click_url":null,"price_max":39.68,"price_min":39.68,"reviewscore":4.0,"shop_count":1,"plain_spec_summary":"Feature Phone,  SIM: Single, Οθόνη: 2.4\", 320 x 240 pixels,  Πυρήνες CPU: 1, RAM: 16 MB,    Δίκτυο: 2G, Κάμερα: 2 MP,  Λειτουργικό: Κατασκευαστή, Μπαταρία: 1100 mAh","manufacturer_id":25,"future":false,"reviews_count":1,"virtual":false,"images":{"main":"https://b.scdn.gr/images/sku_main_images/007753/7753482/medium_20151027105926_nokia_222_single.jpeg","alternatives":["https://d.scdn.gr/images/sku_images/014866/14866337/20151027105926_b7505459.jpeg","https://c.scdn.gr/images/sku_images/014866/14866338/20151027105931_d20f107e.jpeg","https://b.scdn.gr/images/sku_images/014866/14866339/20151027105932_13809e72.jpeg","https://b.scdn.gr/images/sku_images/014866/14866340/20151027105932_aa386630.jpeg","https://b.scdn.gr/images/sku_images/014866/14866341/20151027105936_12b1cb1e.jpeg","https://a.scdn.gr/images/sku_images/014866/14866342/20151027105942_cd1b14bb.jpeg"]},"web_uri":"http://skroutz.gr/s/7753482/Nokia-222-Single.html"},{"id":7934778,"ean":"","pn":"F320","name":"F320","display_name":"ZTE F320","category_id":40,"first_product_shop_info":"3840|Vodafone eShop|vodafoneeshop","click_url":null,"price_max":39.9,"price_min":39.9,"reviewscore":0.0,"shop_count":1,"plain_spec_summary":"Feature Phone,  SIM: Single, Οθόνη: 2.4\", 320 x 240 pixels,    Μνήμη Αποθήκευσης: 128 MB,  Δίκτυο: 3G, Κάμερα: 2 MP,  Λειτουργικό: Κατασκευαστή, Μπαταρία: 820 mAh","manufacturer_id":4834,"future":false,"reviews_count":0,"virtual":false,"images":{"main":"https://d.scdn.gr/images/sku_main_images/007934/7934778/medium_20151124113213_oem_f320.jpeg","alternatives":["https://a.scdn.gr/images/sku_images/014877/14877668/20151124113212_8ff2f3d0.jpeg","https://d.scdn.gr/images/sku_images/014877/14877669/20151124113213_36a73dfe.jpeg"]},"web_uri":"http://skroutz.gr/s/7934778/ZTE-F320.html"}],"meta":{"ordered_by":"price","pagination":{"total_results":714,"total_pages":29,"page":1,"per":25}}}