{"categories":[{"id":1,"name":"Σταθερή Τηλεφωνία","children_count":5,"image_url":"https://c.scdn.gr/ds/categories/1/20150508125916_c7ffab14.jpg","parent_id":2,"fashion":false,"layout_mode":"list","web_uri":"http://skroutz.gr/c/1/statherh-tilefwnia.html","code":"statherh-tilefwnia","path":"76,1269,2,1","show_specifications":false,"manufacturer_title":"Κατασκευαστές"},{"id":2,"name":"Τηλεφωνία","children_count":2,"image_url":"https://b.scdn.gr/ds/categories/2/20151204131758_3e2f9f76.jpg","parent_id":1269,"fashion":false,"layout_mode":"list","web_uri":"http://skroutz.gr/c/2/tilefwnia.html","code":"tilefwnia","path":"76,1269,2","show_specifications":false,"manufacturer_title":"Κατασκευαστές"},{"id":5,"name":"Φωτογραφία \u0026 Video","children_count":4,"image_url":"https://a.scdn.gr/ds/categories/5/20160401163038_16e146a2.jpg","parent_id":1269,"fashion":false,"layout_mode":"list","web_uri":"http://skroutz.gr/c/5/photografia-video.html","code":"photografia-video","path":"76,1269,5","show_specifications":false,"manufacturer_title":"Κατασκευαστές"},{"id":6,"name":"Διάφορα Εικόνας","children_count":2,"image_url":"https://a.scdn.gr/ds/categories/6/20150127155831_5_VL88_withWave.jpg","parent_id":309,"fashion":false,"layout_mode":"list","web_uri":"http://skroutz.gr/c/6/diafora_eikonas.html","code":"aksesouar-hxou-kai-eikonas","path":"76,1269,309,6","show_specifications":false,"manufacturer_title":"Κατασκευαστές"},{"id":10,"name":"Projectors","children_count":0,"image_url":"https://c.scdn.gr/ds/categories/10/20150118013550_benq_sp920p.jpg","parent_id":79,"fashion":false,"layout_mode":"list","web_uri":"http://skroutz.gr/c/10/protzektores.html","code":"protzektores","path":"76,1269,309,79,10","show_specifications":true,"manufacturer_title":"Κατασκευαστές"},{"id":11,"name":"Σπίτι - Κήπος","children_count":13,"image_url":"https://c.scdn.gr/ds/categories/11/11.jpg","parent_id":76,"fashion":false,"layout_mode":"list","web_uri":"http://skroutz.gr/c/11/home-garden.html","code":"home-garden","path":"76,11","show_specifications":false,"manufacturer_title":"Κατασκευαστές"},{"id":12,"name":"Τηλεοράσεις","children_count":0,"image_url":"https://d.scdn.gr/ds/categories/12/20150127161317_lg_tv_a_l.jpg","parent_id":1800,"fashion":false,"layout_mode":"list","web_uri":"http://skroutz.gr/c/12/television.html","code":"television","path":"76,1269,309,1800,12","show_specifications":true,"manufacturer_title":"Κατασκευαστές"},{"id":14,"name":"Διάφορα Υπολογιστών","children_count":5,"image_url":"https://d.scdn.gr/ds/categories/14/20151113092102_a8cafc09.jpg","parent_id":22,"fashion":false,"layout_mode":"list","web_uri":"http://skroutz.gr/c/14/diafora-ypologistwn.html","code":"diafora-ypologistwn","path":"76,1269,22,14","show_specifications":false,"manufacturer_title":"Κατασκευαστές"},{"id":16,"name":"Λογισμικό","children_count":8,"image_url":"https://d.scdn.gr/ds/categories/16/16.jpg","parent_id":22,"fashion":false,"layout_mode":"list","web_uri":"http://skroutz.gr/c/16/software.html","code":"software","path":"76,1269,22,16","show_specifications":false,"manufacturer_title":"Κατασκευαστές"},{"id":17,"name":"Κάρτες Τηλεόρασης και Video","children_count":0,"image_url":"https://b.scdn.gr/ds/categories/17/17.jpg","parent_id":27,"fashion":false,"layout_mode":"tiles","web_uri":"http://skroutz.gr/c/17/kartes-tileorashs-video-cards.html","code":"kartes-tileorashs-video-cards","path":"76,1269,22,27,17","show_specifications":true,"manufacturer_title":"Κατασκευαστές"},{"id":22,"name":"Ηλεκτρονικοί Υπολογιστές","children_count":10,"image_url":"https://c.scdn.gr/ds/categories/22/20160401165013_ac48652e.jpg","parent_id":1269,"fashion":false,"layout_mode":"list","web_uri":"http://skroutz.gr/c/22/hlektronikoi-ypologistes-pc.html","code":"hlektronikoi-ypologistes-pc","path":"76,1269,22","show_specifications":false,"manufacturer_title":"Κατασκευαστές"},{"id":23,"name":"Desktop \u0026 Server","children_count":8,"image_url":"https://a.scdn.gr/ds/categories/23/23.jpg","parent_id":22,"fashion":false,"layout_mode":"list","web_uri":"http://skroutz.gr/c/23/desktop-and-server.html","code":"desktop-and-server","path":"76,1269,22,23","show_specifications":false,"manufacturer_title":"Κατασκευαστές"},{"id":24,"name":"Υπολογιστές Desktop \u0026 All-in-One (OEM)","children_count":0,"image_url":"https://b.scdn.gr/ds/categories/24/24.jpg","parent_id":23,"fashion":false,"layout_mode":"list","web_uri":"http://skroutz.gr/c/24/desktops.html","code":"desktops","path":"76,1269,22,23,24","show_specifications":false,"manufacturer_title":"Κατασκευαστές"},{"id":25,"name":"Laptops","children_count":0,"image_url":"https://c.scdn.gr/ds/categories/25/20150127165806_25.jpg","parent_id":769,"fashion":false,"layout_mode":"list","web_uri":"http://skroutz.gr/c/25/laptop.html","code":"laptop","path":"76,1269,22,769,25","show_specifications":true,"manufacturer_title":"Κατασκευαστές"},{"id":26,"name":"Servers","children_count":0,"image_url":"https://a.scdn.gr/ds/categories/26/26.jpg","parent_id":23,"fashion":false,"layout_mode":"list","web_uri":"http://skroutz.gr/c/26/servers.html","code":"servers","path":"76,1269,22,23,26","show_specifications":false,"manufacturer_title":"Κατασκευαστές"},{"id":27,"name":"Hardware","children_count":12,"image_url":"https://c.scdn.gr/ds/categories/27/27.jpg","parent_id":22,"fashion":false,"layout_mode":"list","web_uri":"http://skroutz.gr/c/27/pc-hardware.html","code":"pc-hardware","path":"76,1269,22,27","show_specifications":false,"manufacturer_title":"Κατασκευαστές"},{"id":28,"name":"Κουτιά Υπολογιστών","children_count":0,"image_url":"https://d.scdn.gr/ds/categories/28/28.jpg","parent_id":27,"fashion":false,"layout_mode":"list","web_uri":"http://skroutz.gr/c/28/cases-koutia.html","code":"cases-koutia","path":"76,1269,22,27,28","show_specifications":true,"manufacturer_title":"Κατασκευαστές"},{"id":29,"name":"Καλώδια","children_count":7,"image_url":"https://b.scdn.gr/ds/categories/29/20150522220029_af65ce33.jpg","parent_id":144,"fashion":false,"layout_mode":"list","web_uri":"http://skroutz.gr/c/29/kalodia.html","code":"cables","path":"76,1269,144,29","show_specifications":false,"manufacturer_title":"Κατασκευαστές"},{"id":30,"name":"Τροφοδοτικά Υπολογιστή","children_count":0,"image_url":"https://b.scdn.gr/ds/categories/30/30.jpg","parent_id":27,"fashion":false,"layout_mode":"list","web_uri":"http://skroutz.gr/c/30/psu-trofodotika.html","code":"psu-trofodotika","path":"76,1269,22,27,30","show_specifications":true,"manufacturer_title":"Κατασκευαστές"},{"id":31,"name":"Μητρικές Κάρτες","children_count":0,"image_url":"https://d.scdn.gr/ds/categories/31/31.jpg","parent_id":27,"fashion":false,"layout_mode":"list","web_uri":"http://skroutz.gr/c/31/motherboards-mhtrikes.html","code":"motherboards-mhtrikes","path":"76,1269,22,27,31","show_specifications":true,"manufacturer_title":"Κατασκευαστές"},{"id":32,"name":"Επεξεργαστές","children_count":0,"image_url":"https://a.scdn.gr/ds/categories/32/32.jpg","parent_id":27,"fashion":false,"layout_mode":"list","web_uri":"http://skroutz.gr/c/32/cpu-epeksergastes.html","code":"cpu-epeksergastes","path":"76,1269,22,27,32","show_specifications":true,"manufacturer_title":"Κατασκευαστές"},{"id":33,"name":"Auto - Moto","children_count":4,"image_url":"https://c.scdn.gr/ds/categories/33/33.jpg","parent_id":76,"fashion":false,"layout_mode":"list","web_uri":"http://skroutz.gr/c/33/auto-moto.html","code":"auto-moto","path":"76,33","show_specifications":false,"manufacturer_title":"Κατασκευαστές"},{"id":34,"name":"Βιβλία","children_count":0,"image_url":"https://d.scdn.gr/ds/categories/34/34.jpg","parent_id":511,"fashion":false,"layout_mode":"list","web_uri":"http://skroutz.gr/c/34/books.html","code":"books","path":"76,255,511,34","show_specifications":false,"manufacturer_title":"Κατασκευαστές"},{"id":35,"name":"Ταινίες","children_count":0,"image_url":"https://b.scdn.gr/ds/categories/35/35.jpg","parent_id":771,"fashion":false,"layout_mode":"list","web_uri":"http://skroutz.gr/c/35/tainies.html","code":"tainies","path":"76,255,511,771,35","show_specifications":false,"manufacturer_title":"Κατασκευαστές"},{"id":36,"name":"Μουσική","children_count":4,"image_url":"https://c.scdn.gr/ds/categories/36/36.jpg","parent_id":771,"fashion":false,"layout_mode":"list","web_uri":"http://skroutz.gr/c/36/mousikh.html","code":"mousikh","path":"76,255,511,771,36","show_specifications":false,"manufacturer_title":"Κατασκευαστές"}],"meta":{"pagination":{"total_results":2345,"total_pages":94,"page":1,"per":25}}}