{"categories":[{"id":40,"name":"Κινητά Τηλέφωνα","children_count":0,"image_url":"https://d.scdn.gr/ds/categories/40/20150508124644_bd07441b.jpg","parent_id":86,"fashion":false,"layout_mode":"list","web_uri":"http://skroutz.gr/c/40/kinhta-thlefwna.html","code":"mobile","path":"76,1269,86,40","show_specifications":true,"manufacturer_title":"Κατασκευαστές"},{"id":1705,"name":"Smartwatches","children_count":0,"image_url":"https://a.scdn.gr/ds/categories/1705/20150508163903_9d5810ce.jpg","parent_id":1912,"fashion":false,"layout_mode":"tiles","web_uri":"http://skroutz.gr/c/1705/Smartwatches.html","code":"smartwatch","path":"76,1269,1912,1705","show_specifications":true,"manufacturer_title":"Κατασκευαστές"},{"id":1105,"name":"Tablets","children_count":0,"image_url":"https://a.scdn.gr/ds/categories/1105/20150127170004_1105.jpg","parent_id":1612,"fashion":false,"layout_mode":"list","web_uri":"http://skroutz.gr/c/1105/tablet.html","code":"tablet","path":"76,1269,1612,1105","show_specifications":true,"manufacturer_title":"Κατασκευαστές"},{"id":25,"name":"Laptops","children_count":0,"image_url":"https://c.scdn.gr/ds/categories/25/20150127165806_25.jpg","parent_id":769,"fashion":false,"layout_mode":"list","web_uri":"http://skroutz.gr/c/25/laptop.html","code":"laptop","path":"76,1269,22,769,25","show_specifications":true,"manufacturer_title":"Κατασκευαστές"},{"id":1412,"name":"Συμβατές Μπαταρίες Κινητών Τηλεφώνων","children_count":0,"image_url":"https://b.scdn.gr/ds/categories/1412/1412.jpg","parent_id":86,"fashion":false,"layout_mode":"list","web_uri":"http://skroutz.gr/c/1412/symvates-mpataries-kinhtwn-tilefwnwn.html","code":"symvates-mpataries-kinhtwn-til","path":"76,1269,86,1412","show_specifications":false,"manufacturer_title":"Κατασκευαστές"},{"id":1773,"name":"All-in-One PCs","children_count":0,"image_url":"https://a.scdn.gr/ds/categories/1773/20150127170115_1773.jpg","parent_id":23,"fashion":false,"layout_mode":"list","web_uri":"http://skroutz.gr/c/1773/All-in-One-PCs.html","code":"all_in_one_pcs","path":"76,1269,22,23,1773","show_specifications":true,"manufacturer_title":"Κατασκευαστές"},{"id":568,"name":"MP3 \u0026 MP4 Players","children_count":0,"image_url":"https://a.scdn.gr/ds/categories/568/20160301171207_851021a9.jpg","parent_id":767,"fashion":false,"layout_mode":"list","web_uri":"http://skroutz.gr/c/568/mp3-kai-media-players.html","code":"mp3-kai-media-players","path":"76,1269,767,568","show_specifications":true,"manufacturer_title":"Κατασκευαστές"},{"id":584,"name":"Handsfree Ακουστικά","children_count":0,"image_url":"https://b.scdn.gr/ds/categories/584/20160415111705_f4b7f5c6.jpeg","parent_id":86,"fashion":false,"layout_mode":"tiles","web_uri":"http://skroutz.gr/c/584/hands-free.html","code":"hands-free","path":"76,1269,86,584","show_specifications":true,"manufacturer_title":"Κατασκευαστές"},{"id":2594,"name":"Καλώδια Lightning","children_count":0,"image_url":"https://b.scdn.gr/ds/categories/2594/20160317141913_d574dd4e.jpg","parent_id":585,"fashion":false,"layout_mode":"tiles","web_uri":"http://skroutz.gr/c/2594/kalodia_lightning.html","code":"kalodia_lightning","path":"76,1269,144,29,585,2594","show_specifications":true,"manufacturer_title":"Κατασκευαστές"},{"id":579,"name":"Θήκες Κινητών Τηλεφώνων","children_count":0,"image_url":"https://b.scdn.gr/ds/categories/579/20150408173958_42b293c7.jpg","parent_id":86,"fashion":true,"layout_mode":"wide_tiles","web_uri":"http://skroutz.gr/c/579/thikes-kinhtwn-thlefwnwn.html","code":"thikes-kinhtwn-thlefwnwn","path":"76,1269,86,579","show_specifications":false,"manufacturer_title":"Κατασκευαστές"},{"id":893,"name":"Media Players","children_count":0,"image_url":"https://b.scdn.gr/ds/categories/893/893.jpg","parent_id":1804,"fashion":false,"layout_mode":"list","web_uri":"http://skroutz.gr/c/893/media_players.html","code":"media_players","path":"76,1269,309,1804,893","show_specifications":true,"manufacturer_title":"Κατασκευαστές"},{"id":1608,"name":"Θήκες Tablet","children_count":0,"image_url":"https://c.scdn.gr/ds/categories/1608/1608.jpg","parent_id":1612,"fashion":false,"layout_mode":"tiles","web_uri":"http://skroutz.gr/c/1608/thikes-tablet.html","code":"tablet-cases","path":"76,1269,1612,1608","show_specifications":true,"manufacturer_title":"Κατασκευαστές"},{"id":2538,"name":"Mini PC","children_count":0,"image_url":"https://c.scdn.gr/ds/categories/2538/20151120161927_b275deaf.jpg","parent_id":23,"fashion":false,"layout_mode":"list","web_uri":"http://skroutz.gr/c/2538/mini-pc.html","code":"mini-pc","path":"76,1269,22,23,2538","show_specifications":true,"manufacturer_title":"Κατασκευαστές"},{"id":1857,"name":"In Ear","children_count":0,"image_url":"https://c.scdn.gr/ds/categories/1857/20150515145839_c987c3ab.jpg","parent_id":1858,"fashion":false,"layout_mode":"tiles","web_uri":"http://skroutz.gr/c/1857/In-Ear.html","code":"In_Ear","path":"76,1269,767,772,1858,1857","show_specifications":true,"manufacturer_title":"Κατασκευαστές"},{"id":1862,"name":"On Ear","children_count":0,"image_url":"https://d.scdn.gr/ds/categories/1862/20150515150209_6bc797ee.jpg","parent_id":1863,"fashion":false,"layout_mode":"tiles","web_uri":"http://skroutz.gr/c/1862/On_Ear.html","code":"On_Ear","path":"76,1269,767,772,1863,1862","show_specifications":true,"manufacturer_title":"Κατασκευαστές"},{"id":1713,"name":"Ανδρικά Boxer","children_count":0,"image_url":"https://c.scdn.gr/ds/categories/1713/1713.jpg","parent_id":1714,"fashion":true,"layout_mode":"wide_tiles","web_uri":"http://skroutz.gr/c/1713/Andrika-Boxer.html","code":"Andrika-Boxer","path":"76,274,253,285,1714,1713","show_specifications":false,"manufacturer_title":"Κατασκευαστές"},{"id":581,"name":"Φορτιστές Κινητών Τηλεφώνων","children_count":0,"image_url":"https://d.scdn.gr/ds/categories/581/20160525162015_a77019e8.jpeg","parent_id":86,"fashion":false,"layout_mode":"tiles","web_uri":"http://skroutz.gr/c/581/fortistes-kinhtwn-tilefwnwn.html","code":"fortistes-kinhtwn-tilefwnwn","path":"76,1269,86,581","show_specifications":true,"manufacturer_title":"Κατασκευαστές"},{"id":699,"name":"Μετατροπείς","children_count":0,"image_url":"https://b.scdn.gr/ds/categories/699/20150527003300_13ef2e6b.jpg","parent_id":144,"fashion":false,"layout_mode":"tiles","web_uri":"http://skroutz.gr/c/699/metatropeis-adaptors.html","code":"metatropeis-adaptors","path":"76,1269,144,699","show_specifications":true,"manufacturer_title":"Κατασκευαστές"},{"id":1404,"name":"Φορτιστές για Laptops","children_count":0,"image_url":"https://d.scdn.gr/ds/categories/1404/1404.jpg","parent_id":769,"fashion":false,"layout_mode":"tiles","web_uri":"http://skroutz.gr/c/1404/fortistes-lap.html","code":"fortistes-gia-lap","path":"76,1269,22,769,1404","show_specifications":true,"manufacturer_title":"Κατασκευαστές"},{"id":68,"name":"Πληκτρολόγια","children_count":0,"image_url":"https://a.scdn.gr/ds/categories/68/20150325205631_c2cc790b.jpg","parent_id":51,"fashion":false,"layout_mode":"list","web_uri":"http://skroutz.gr/c/68/keyboards.html","code":"keyboards","path":"76,1269,22,39,51,68","show_specifications":true,"manufacturer_title":"Κατασκευαστές"},{"id":69,"name":"Ποντίκια","children_count":0,"image_url":"https://c.scdn.gr/ds/categories/69/20150325210051_c7d16ca5.jpg","parent_id":51,"fashion":false,"layout_mode":"list","web_uri":"http://skroutz.gr/c/69/mice.html","code":"mice","path":"76,1269,22,39,51,69","show_specifications":true,"manufacturer_title":"Κατασκευαστές"},{"id":1860,"name":"Over Ear","children_count":0,"image_url":"https://c.scdn.gr/ds/categories/1860/20150227175038_dda52f05.jpg","parent_id":1863,"fashion":false,"layout_mode":"list","web_uri":"http://skroutz.gr/c/1860/Over_Ear.html","code":"Over_Ear","path":"76,1269,767,772,1863,1860","show_specifications":false,"manufacturer_title":"Κατασκευαστές"},{"id":2680,"name":"Φορητά Ηχεία","children_count":0,"image_url":"https://a.scdn.gr/ds/categories/2680/20160527140256_b6d242e7.jpeg","parent_id":767,"fashion":false,"layout_mode":"tiles","web_uri":"http://skroutz.gr/c/2680/Forita-Icheia.html","code":"Forita-Icheia","path":"76,1269,767,2680","show_specifications":true,"manufacturer_title":"Κατασκευαστές"},{"id":1632,"name":"Διάφορα Αξεσουάρ Tablet","children_count":0,"image_url":"https://b.scdn.gr/ds/categories/1632/1632.jpg","parent_id":1612,"fashion":false,"layout_mode":"list","web_uri":"http://skroutz.gr/c/1632/diafora-aksesouar-tablet.html","code":"diafora-aksesouar-tablet","path":"76,1269,1612,1632","show_specifications":false,"manufacturer_title":"Κατασκευαστές"},{"id":1610,"name":"Φορτιστές Tablet","children_count":0,"image_url":"https://c.scdn.gr/ds/categories/1610/1610.jpg","parent_id":1612,"fashion":false,"layout_mode":"list","web_uri":"http://skroutz.gr/c/1610/fortistes-tablet.html","code":"tablet-charger","path":"76,1269,1612,1610","show_specifications":false,"manufacturer_title":"Κατασκευαστές"}],"meta":{"pagination":{"total_results":65,"total_pages":3,"page":1,"per":25}}}