{"categories":[{"id":1105,"name":"Tablets","children_count":0,"image_url":"https://a.scdn.gr/ds/categories/1105/20150127170004_1105.jpg","parent_id":1612,"fashion":false,"layout_mode":"list","web_uri":"http://skroutz.gr/c/1105/tablet.html","code":"tablet","path":"76,1269,1612,1105","show_specifications":true,"manufacturer_title":"Κατασκευαστές","match_count":605},{"id":1608,"name":"Θήκες Tablet","children_count":0,"image_url":"https://c.scdn.gr/ds/categories/1608/1608.jpg","parent_id":1612,"fashion":false,"layout_mode":"tiles","web_uri":"http://skroutz.gr/c/1608/thikes-tablet.html","code":"tablet-cases","path":"76,1269,1612,1608","show_specifications":true,"manufacturer_title":"Κατασκευαστές","match_count":6094},{"id":2519,"name":"Ειδικά Συμπληρώματα","children_count":0,"image_url":"https://b.scdn.gr/ds/categories/2519/20151110134723_48a212ed.jpg","parent_id":1405,"fashion":false,"layout_mode":"tiles","web_uri":"http://skroutz.gr/c/2519/eidika_sympliromata.html","code":"eidika_sympliromata","path":"76,2606,1405,2519","show_specifications":false,"manufacturer_title":"Κατασκευαστές","match_count":292},{"id":2509,"name":"Βιταμίνες","children_count":0,"image_url":"https://b.scdn.gr/ds/categories/2509/20151109163910_2753a191.jpg","parent_id":1405,"fashion":false,"layout_mode":"tiles","web_uri":"http://skroutz.gr/c/2509/vitamines.html","code":"vitamines","path":"76,2606,1405,2509","show_specifications":false,"manufacturer_title":"Κατασκευαστές","match_count":259},{"id":1976,"name":"Ανταλλακτικά Tablet","children_count":0,"image_url":"https://d.scdn.gr/ds/categories/1976/20150605165026_f0c16908.jpg","parent_id":1612,"fashion":false,"layout_mode":"tiles","web_uri":"http://skroutz.gr/c/1976/tablets-parts.html","code":"tablets-parts","path":"76,1269,1612,1976","show_specifications":false,"manufacturer_title":"Κατασκευαστές","match_count":3866},{"id":1918,"name":"Προστασία Οθόνης Tablet","children_count":0,"image_url":"https://c.scdn.gr/ds/categories/1918/20150511192149_29f0b3d3.jpg","parent_id":1612,"fashion":false,"layout_mode":"list","web_uri":"http://skroutz.gr/c/1918/Tablet_Screen_Protector.html","code":"Tablet_Screen_Protector","path":"76,1269,1612,1918","show_specifications":false,"manufacturer_title":"Κατασκευαστές","match_count":3848},{"id":2513,"name":"Μέταλλα","children_count":0,"image_url":"https://b.scdn.gr/ds/categories/2513/20151106133847_11339bed.jpg","parent_id":1405,"fashion":false,"layout_mode":"tiles","web_uri":"http://skroutz.gr/c/2513/metals.html","code":"metals","path":"76,2606,1405,2513","show_specifications":false,"manufacturer_title":"Κατασκευαστές","match_count":119},{"id":1748,"name":"Power Banks","children_count":0,"image_url":"https://b.scdn.gr/ds/categories/1748/20160317160326_521d46ea.jpg","parent_id":86,"fashion":false,"layout_mode":"tiles","web_uri":"http://skroutz.gr/c/1748/power_banks.html","code":"power_bank","path":"76,1269,86,1748","show_specifications":true,"manufacturer_title":"Κατασκευαστές","match_count":67},{"id":2511,"name":"Φυτικά Συμπληρώματα","children_count":0,"image_url":"https://a.scdn.gr/ds/categories/2511/20151110173027_831a8ab1.jpg","parent_id":1405,"fashion":false,"layout_mode":"tiles","web_uri":"http://skroutz.gr/c/2511/fytika_siblirwnata.html","code":"fytika","path":"76,2606,1405,2511","show_specifications":false,"manufacturer_title":"Κατασκευαστές","match_count":79},{"id":17,"name":"Κάρτες Τηλεόρασης και Video","children_count":0,"image_url":"https://b.scdn.gr/ds/categories/17/17.jpg","parent_id":27,"fashion":false,"layout_mode":"tiles","web_uri":"http://skroutz.gr/c/17/kartes-tileorashs-video-cards.html","code":"kartes-tileorashs-video-cards","path":"76,1269,22,27,17","show_specifications":true,"manufacturer_title":"Κατασκευαστές","match_count":24},{"id":1610,"name":"Φορτιστές Tablet","children_count":0,"image_url":"https://c.scdn.gr/ds/categories/1610/1610.jpg","parent_id":1612,"fashion":false,"layout_mode":"list","web_uri":"http://skroutz.gr/c/1610/fortistes-tablet.html","code":"tablet-charger","path":"76,1269,1612,1610","show_specifications":false,"manufacturer_title":"Κατασκευαστές","match_count":314},{"id":92,"name":"Τσάντες Laptop","children_count":0,"image_url":"https://a.scdn.gr/ds/categories/92/92.jpg","parent_id":769,"fashion":false,"layout_mode":"tiles","web_uri":"http://skroutz.gr/c/92/tsantes-laptop.html","code":"tsantes-laptop","path":"76,1269,22,769,92","show_specifications":true,"manufacturer_title":"Κατασκευαστές","match_count":66},{"id":2512,"name":"Προβιοτικά","children_count":0,"image_url":"https://b.scdn.gr/ds/categories/2512/20151106133717_bd9ee11a.jpg","parent_id":1405,"fashion":false,"layout_mode":"tiles","web_uri":"http://skroutz.gr/c/2512/probiotics.html","code":"probiotics","path":"76,2606,1405,2512","show_specifications":false,"manufacturer_title":"Κατασκευαστές","match_count":35},{"id":1632,"name":"Διάφορα Αξεσουάρ Tablet","children_count":0,"image_url":"https://b.scdn.gr/ds/categories/1632/1632.jpg","parent_id":1612,"fashion":false,"layout_mode":"list","web_uri":"http://skroutz.gr/c/1632/diafora-aksesouar-tablet.html","code":"diafora-aksesouar-tablet","path":"76,1269,1612,1632","show_specifications":false,"manufacturer_title":"Κατασκευαστές","match_count":381},{"id":70,"name":"Digitizers","children_count":0,"image_url":"https://d.scdn.gr/ds/categories/70/70.jpg","parent_id":51,"fashion":false,"layout_mode":"tiles","web_uri":"http://skroutz.gr/c/70/digitizers.html","code":"digitizers","path":"76,1269,22,39,51,70","show_specifications":false,"manufacturer_title":"Κατασκευαστές","match_count":12},{"id":2600,"name":"Ηλιακά Power Banks","children_count":0,"image_url":"https://a.scdn.gr/ds/categories/2600/20160317150221_1d71a95e.jpg","parent_id":426,"fashion":false,"layout_mode":"tiles","web_uri":"http://skroutz.gr/c/2600/Iliaka-power-banks.html","code":"Iliaka-power-banks","path":"76,1269,144,425,426,2600","show_specifications":true,"manufacturer_title":"Κατασκευαστές","match_count":13},{"id":1609,"name":"Μπαταρίες Tablet","children_count":0,"image_url":"https://b.scdn.gr/ds/categories/1609/20160804171801_a506e1b0.jpeg","parent_id":1612,"fashion":false,"layout_mode":"list","web_uri":"http://skroutz.gr/c/1609/mpataries-tablet.html","code":"tablet-batteries","path":"76,1269,1612,1609","show_specifications":true,"manufacturer_title":"Κατασκευαστές","match_count":66},{"id":1849,"name":"Βάσεις Κινητών/Τάμπλετ Αυτοκινήτου","children_count":0,"image_url":"https://c.scdn.gr/ds/categories/1849/20150212161202_5d157d22.jpg","parent_id":1848,"fashion":false,"layout_mode":"tiles","web_uri":"http://skroutz.gr/c/1849/Vaseis-Kiniton-Tamplet-Aytokinitou.html","code":"Vaseis-Kiniton-Tamplet-Aytokin","path":"76,33,1223,1848,1849","show_specifications":false,"manufacturer_title":"Κατασκευαστές","match_count":44},{"id":2555,"name":"Διάφορα Φαρμακευτικά","children_count":0,"image_url":"https://a.scdn.gr/ds/categories/2555/20160113162553_81f99d62.jpg","parent_id":1479,"fashion":false,"layout_mode":"tiles","web_uri":"http://skroutz.gr/c/2555/diafora-farmakeytika.html","code":"diafora-farmakeytika","path":"76,2606,1479,2555","show_specifications":false,"manufacturer_title":"Κατασκευαστές","match_count":18},{"id":2520,"name":"Αμινοξέα","children_count":0,"image_url":"https://d.scdn.gr/ds/categories/2520/20151106133607_d00a81cf.jpg","parent_id":1405,"fashion":false,"layout_mode":"tiles","web_uri":"http://skroutz.gr/c/2520/aminoxea.html","code":"aminoxea","path":"76,2606,1405,2520","show_specifications":false,"manufacturer_title":"Κατασκευαστές","match_count":66},{"id":40,"name":"Κινητά Τηλέφωνα","children_count":0,"image_url":"https://d.scdn.gr/ds/categories/40/20150508124644_bd07441b.jpg","parent_id":86,"fashion":false,"layout_mode":"list","web_uri":"http://skroutz.gr/c/40/kinhta-thlefwna.html","code":"mobile","path":"76,1269,86,40","show_specifications":true,"manufacturer_title":"Κατασκευαστές","match_count":1},{"id":2622,"name":"Λιποδιαλύτες","children_count":0,"image_url":"https://d.scdn.gr/ds/categories/2622/20160408114115_8833a845.jpeg","parent_id":1405,"fashion":false,"layout_mode":"tiles","web_uri":"http://skroutz.gr/c/2622/lipodialites.html","code":"lipodialites","path":"76,2606,1405,2622","show_specifications":true,"manufacturer_title":"Κατασκευαστές","match_count":23},{"id":1611,"name":"Βάσεις Tablet","children_count":0,"image_url":"https://a.scdn.gr/ds/categories/1611/1611.jpg","parent_id":1612,"fashion":false,"layout_mode":"tiles","web_uri":"http://skroutz.gr/c/1611/vaseis-tablet.html","code":"tablet-stand","path":"76,1269,1612,1611","show_specifications":true,"manufacturer_title":"Κατασκευαστές","match_count":176},{"id":68,"name":"Πληκτρολόγια","children_count":0,"image_url":"https://a.scdn.gr/ds/categories/68/20150325205631_c2cc790b.jpg","parent_id":51,"fashion":false,"layout_mode":"list","web_uri":"http://skroutz.gr/c/68/keyboards.html","code":"keyboards","path":"76,1269,22,39,51,68","show_specifications":true,"manufacturer_title":"Κατασκευαστές","match_count":25},{"id":663,"name":"Gamepads","children_count":0,"image_url":"https://c.scdn.gr/ds/categories/663/20150302184425_ba00c6e9.jpg","parent_id":1867,"fashion":false,"layout_mode":"list","web_uri":"http://skroutz.gr/c/663/Gamepads.html","code":"joypads","path":"76,1269,1864,1867,663","show_specifications":true,"manufacturer_title":"Κατασκευαστές","match_count":7}],"meta":{"q":"Tablets","alternatives":[],"strong_matches":{"category":{"id":1105,"name":"Tablets","children_count":0,"image_url":"https://a.scdn.gr/ds/categories/1105/20150127170004_1105.jpg","parent_id":1612,"fashion":false,"layout_mode":"list","web_uri":"http://skroutz.gr/c/1105/tablet.html","code":"tablet","path":"76,1269,1612,1105","show_specifications":true,"manufacturer_title":"Κατασκευαστές"}},"pagination":{"total_results":117,"total_pages":5,"page":1,"per":25}}}