{"categories":[{"id":40,"name":"Κινητά Τηλέφωνα","children_count":0,"image_url":"https://d.scdn.gr/ds/categories/40/20150508124644_bd07441b.jpg","parent_id":86,"fashion":false,"layout_mode":"list","web_uri":"http://skroutz.gr/c/40/kinhta-thlefwna.html","code":"mobile","path":"76,1269,86,40","show_specifications":true,"manufacturer_title":"Κατασκευαστές","match_count":24},{"id":579,"name":"Θήκες Κινητών Τηλεφώνων","children_count":0,"image_url":"https://b.scdn.gr/ds/categories/579/20150408173958_42b293c7.jpg","parent_id":86,"fashion":true,"layout_mode":"wide_tiles","web_uri":"http://skroutz.gr/c/579/thikes-kinhtwn-thlefwnwn.html","code":"thikes-kinhtwn-thlefwnwn","path":"76,1269,86,579","show_specifications":false,"manufacturer_title":"Κατασκευαστές","match_count":6147},{"id":1705,"name":"Smartwatches","children_count":0,"image_url":"https://a.scdn.gr/ds/categories/1705/20150508163903_9d5810ce.jpg","parent_id":1912,"fashion":false,"layout_mode":"tiles","web_uri":"http://skroutz.gr/c/1705/Smartwatches.html","code":"smartwatch","path":"76,1269,1912,1705","show_specifications":true,"manufacturer_title":"Κατασκευαστές","match_count":9},{"id":1105,"name":"Tablets","children_count":0,"image_url":"https://a.scdn.gr/ds/categories/1105/20150127170004_1105.jpg","parent_id":1612,"fashion":false,"layout_mode":"list","web_uri":"http://skroutz.gr/c/1105/tablet.html","code":"tablet","path":"76,1269,1612,1105","show_specifications":true,"manufacturer_title":"Κατασκευαστές","match_count":50},{"id":25,"name":"Laptops","children_count":0,"image_url":"https://c.scdn.gr/ds/categories/25/20150127165806_25.jpg","parent_id":769,"fashion":false,"layout_mode":"list","web_uri":"http://skroutz.gr/c/25/laptop.html","code":"laptop","path":"76,1269,22,769,25","show_specifications":true,"manufacturer_title":"Κατασκευαστές","match_count":21},{"id":1608,"name":"Θήκες Tablet","children_count":0,"image_url":"https://c.scdn.gr/ds/categories/1608/1608.jpg","parent_id":1612,"fashion":false,"layout_mode":"tiles","web_uri":"http://skroutz.gr/c/1608/thikes-tablet.html","code":"tablet-cases","path":"76,1269,1612,1608","show_specifications":true,"manufacturer_title":"Κατασκευαστές","match_count":460},{"id":1412,"name":"Συμβατές Μπαταρίες Κινητών Τηλεφώνων","children_count":0,"image_url":"https://b.scdn.gr/ds/categories/1412/1412.jpg","parent_id":86,"fashion":false,"layout_mode":"list","web_uri":"http://skroutz.gr/c/1412/symvates-mpataries-kinhtwn-tilefwnwn.html","code":"symvates-mpataries-kinhtwn-til","path":"76,1269,86,1412","show_specifications":false,"manufacturer_title":"Κατασκευαστές","match_count":10},{"id":584,"name":"Handsfree Ακουστικά","children_count":0,"image_url":"https://b.scdn.gr/ds/categories/584/20160415111705_f4b7f5c6.jpeg","parent_id":86,"fashion":false,"layout_mode":"tiles","web_uri":"http://skroutz.gr/c/584/hands-free.html","code":"hands-free","path":"76,1269,86,584","show_specifications":true,"manufacturer_title":"Κατασκευαστές","match_count":53},{"id":1747,"name":"Θήκες Bumper","children_count":0,"image_url":"https://c.scdn.gr/ds/categories/1747/20150820132916_d4d256b5.jpg","parent_id":86,"fashion":false,"layout_mode":"list","web_uri":"http://skroutz.gr/c/1747/thikes_bumper.html","code":"thikes_bumper","path":"76,1269,86,1747","show_specifications":false,"manufacturer_title":"Κατασκευαστές","match_count":1417},{"id":583,"name":"Ανταλλακτικά Κινητών Τηλεφώνων","children_count":0,"image_url":"https://d.scdn.gr/ds/categories/583/20160415110832_5eddb5f7.jpeg","parent_id":86,"fashion":false,"layout_mode":"list","web_uri":"http://skroutz.gr/c/583/antallaktika-kinhtwn-tilefwnwn.html","code":"antallaktika-kinhtwn-tilefwnwn","path":"76,1269,86,583","show_specifications":false,"manufacturer_title":"Κατασκευαστές","match_count":2789},{"id":1773,"name":"All-in-One PCs","children_count":0,"image_url":"https://a.scdn.gr/ds/categories/1773/20150127170115_1773.jpg","parent_id":23,"fashion":false,"layout_mode":"list","web_uri":"http://skroutz.gr/c/1773/All-in-One-PCs.html","code":"all_in_one_pcs","path":"76,1269,22,23,1773","show_specifications":true,"manufacturer_title":"Κατασκευαστές","match_count":14},{"id":568,"name":"MP3 \u0026 MP4 Players","children_count":0,"image_url":"https://a.scdn.gr/ds/categories/568/20160301171207_851021a9.jpg","parent_id":767,"fashion":false,"layout_mode":"list","web_uri":"http://skroutz.gr/c/568/mp3-kai-media-players.html","code":"mp3-kai-media-players","path":"76,1269,767,568","show_specifications":true,"manufacturer_title":"Κατασκευαστές","match_count":10},{"id":2594,"name":"Καλώδια Lightning","children_count":0,"image_url":"https://b.scdn.gr/ds/categories/2594/20160317141913_d574dd4e.jpg","parent_id":585,"fashion":false,"layout_mode":"tiles","web_uri":"http://skroutz.gr/c/2594/kalodia_lightning.html","code":"kalodia_lightning","path":"76,1269,144,29,585,2594","show_specifications":true,"manufacturer_title":"Κατασκευαστές","match_count":112},{"id":581,"name":"Φορτιστές Κινητών Τηλεφώνων","children_count":0,"image_url":"https://d.scdn.gr/ds/categories/581/20160525162015_a77019e8.jpeg","parent_id":86,"fashion":false,"layout_mode":"tiles","web_uri":"http://skroutz.gr/c/581/fortistes-kinhtwn-tilefwnwn.html","code":"fortistes-kinhtwn-tilefwnwn","path":"76,1269,86,581","show_specifications":true,"manufacturer_title":"Κατασκευαστές","match_count":220},{"id":612,"name":"Προστασία Οθόνης Κινητών","children_count":0,"image_url":"https://b.scdn.gr/ds/categories/612/20160415104815_e87c4c0b.jpeg","parent_id":86,"fashion":false,"layout_mode":"list","web_uri":"http://skroutz.gr/c/612/prostasia-othonis-kinitwn.html","code":"palmtop-prostasia-othonis","path":"76,1269,86,612","show_specifications":false,"manufacturer_title":"Κατασκευαστές","match_count":1018},{"id":893,"name":"Media Players","children_count":0,"image_url":"https://b.scdn.gr/ds/categories/893/893.jpg","parent_id":1804,"fashion":false,"layout_mode":"list","web_uri":"http://skroutz.gr/c/893/media_players.html","code":"media_players","path":"76,1269,309,1804,893","show_specifications":true,"manufacturer_title":"Κατασκευαστές","match_count":3},{"id":1404,"name":"Φορτιστές για Laptops","children_count":0,"image_url":"https://d.scdn.gr/ds/categories/1404/1404.jpg","parent_id":769,"fashion":false,"layout_mode":"tiles","web_uri":"http://skroutz.gr/c/1404/fortistes-lap.html","code":"fortistes-gia-lap","path":"76,1269,22,769,1404","show_specifications":true,"manufacturer_title":"Κατασκευαστές","match_count":70},{"id":2538,"name":"Mini PC","children_count":0,"image_url":"https://c.scdn.gr/ds/categories/2538/20151120161927_b275deaf.jpg","parent_id":23,"fashion":false,"layout_mode":"list","web_uri":"http://skroutz.gr/c/2538/mini-pc.html","code":"mini-pc","path":"76,1269,22,23,2538","show_specifications":true,"manufacturer_title":"Κατασκευαστές","match_count":4},{"id":1857,"name":"In Ear","children_count":0,"image_url":"https://c.scdn.gr/ds/categories/1857/20150515145839_c987c3ab.jpg","parent_id":1858,"fashion":false,"layout_mode":"tiles","web_uri":"http://skroutz.gr/c/1857/In-Ear.html","code":"In_Ear","path":"76,1269,767,772,1858,1857","show_specifications":true,"manufacturer_title":"Κατασκευαστές","match_count":23},{"id":1862,"name":"On Ear","children_count":0,"image_url":"https://d.scdn.gr/ds/categories/1862/20150515150209_6bc797ee.jpg","parent_id":1863,"fashion":false,"layout_mode":"tiles","web_uri":"http://skroutz.gr/c/1862/On_Ear.html","code":"On_Ear","path":"76,1269,767,772,1863,1862","show_specifications":true,"manufacturer_title":"Κατασκευαστές","match_count":19},{"id":1713,"name":"Ανδρικά Boxer","children_count":0,"image_url":"https://c.scdn.gr/ds/categories/1713/1713.jpg","parent_id":1714,"fashion":true,"layout_mode":"wide_tiles","web_uri":"http://skroutz.gr/c/1713/Andrika-Boxer.html","code":"Andrika-Boxer","path":"76,274,253,285,1714,1713","show_specifications":false,"manufacturer_title":"Κατασκευαστές","match_count":70},{"id":699,"name":"Μετατροπείς","children_count":0,"image_url":"https://b.scdn.gr/ds/categories/699/20150527003300_13ef2e6b.jpg","parent_id":144,"fashion":false,"layout_mode":"tiles","web_uri":"http://skroutz.gr/c/699/metatropeis-adaptors.html","code":"metatropeis-adaptors","path":"76,1269,144,699","show_specifications":true,"manufacturer_title":"Κατασκευαστές","match_count":65},{"id":289,"name":"Μπαταρίες για Laptop","children_count":0,"image_url":"https://d.scdn.gr/ds/categories/289/289.jpg","parent_id":769,"fashion":false,"layout_mode":"list","web_uri":"http://skroutz.gr/c/289/mpataries-laptop.html","code":"mpataries-kai-fortistes-gia-la","path":"76,1269,22,769,289","show_specifications":false,"manufacturer_title":"Κατασκευαστές","match_count":333},{"id":2596,"name":"Καλώδια 30-Pin","children_count":0,"image_url":"https://d.scdn.gr/ds/categories/2596/20160317142416_66622ffa.jpg","parent_id":585,"fashion":false,"layout_mode":"tiles","web_uri":"http://skroutz.gr/c/2596/kalodia_30_pin.html","code":"kalodia_30_pin","path":"76,1269,144,29,585,2596","show_specifications":true,"manufacturer_title":"Κατασκευαστές","match_count":245},{"id":68,"name":"Πληκτρολόγια","children_count":0,"image_url":"https://a.scdn.gr/ds/categories/68/20150325205631_c2cc790b.jpg","parent_id":51,"fashion":false,"layout_mode":"list","web_uri":"http://skroutz.gr/c/68/keyboards.html","code":"keyboards","path":"76,1269,22,39,51,68","show_specifications":true,"manufacturer_title":"Κατασκευαστές","match_count":8}],"meta":{"q":"apple","alternatives":[],"strong_matches":{"manufacturer":{"id":356,"name":"Apple","image_url":"https://a.scdn.gr/ds/manufacturers/356/20160322115406_ae6f9a87.png"}},"pagination":{"total_results":296,"total_pages":12,"page":1,"per":25}}}