{"categories":[{"id":40,"name":"Κινητά Τηλέφωνα","children_count":0,"image_url":"https://d.scdn.gr/ds/categories/40/20150508124644_bd07441b.jpg","parent_id":86,"fashion":false,"layout_mode":"list","web_uri":"http://skroutz.gr/c/40/kinhta-thlefwna.html","code":"mobile","path":"76,1269,86,40","show_specifications":true,"manufacturer_title":"Κατασκευαστές","match_count":24},{"id":579,"name":"Θήκες Κινητών Τηλεφώνων","children_count":0,"image_url":"https://b.scdn.gr/ds/categories/579/20150408173958_42b293c7.jpg","parent_id":86,"fashion":true,"layout_mode":"wide_tiles","web_uri":"http://skroutz.gr/c/579/thikes-kinhtwn-thlefwnwn.html","code":"thikes-kinhtwn-thlefwnwn","path":"76,1269,86,579","show_specifications":false,"manufacturer_title":"Κατασκευαστές","match_count":10556},{"id":583,"name":"Ανταλλακτικά Κινητών Τηλεφώνων","children_count":0,"image_url":"https://d.scdn.gr/ds/categories/583/20160415110832_5eddb5f7.jpeg","parent_id":86,"fashion":false,"layout_mode":"list","web_uri":"http://skroutz.gr/c/583/antallaktika-kinhtwn-tilefwnwn.html","code":"antallaktika-kinhtwn-tilefwnwn","path":"76,1269,86,583","show_specifications":false,"manufacturer_title":"Κατασκευαστές","match_count":7023},{"id":612,"name":"Προστασία Οθόνης Κινητών","children_count":0,"image_url":"https://b.scdn.gr/ds/categories/612/20160415104815_e87c4c0b.jpeg","parent_id":86,"fashion":false,"layout_mode":"list","web_uri":"http://skroutz.gr/c/612/prostasia-othonis-kinitwn.html","code":"palmtop-prostasia-othonis","path":"76,1269,86,612","show_specifications":false,"manufacturer_title":"Κατασκευαστές","match_count":2846},{"id":1748,"name":"Power Banks","children_count":0,"image_url":"https://b.scdn.gr/ds/categories/1748/20160317160326_521d46ea.jpg","parent_id":86,"fashion":false,"layout_mode":"tiles","web_uri":"http://skroutz.gr/c/1748/power_banks.html","code":"power_bank","path":"76,1269,86,1748","show_specifications":true,"manufacturer_title":"Κατασκευαστές","match_count":27},{"id":587,"name":"Διάφορα Αξεσουάρ Κινητών","children_count":0,"image_url":"https://b.scdn.gr/ds/categories/587/20150609112930_2d404199.jpg","parent_id":86,"fashion":false,"layout_mode":"list","web_uri":"http://skroutz.gr/c/587/diafora-aksesouar-kinhton.html","code":"diafora-aksesouar-kinhths","path":"76,1269,86,587","show_specifications":false,"manufacturer_title":"Κατασκευαστές","match_count":731},{"id":584,"name":"Handsfree Ακουστικά","children_count":0,"image_url":"https://b.scdn.gr/ds/categories/584/20160415111705_f4b7f5c6.jpeg","parent_id":86,"fashion":false,"layout_mode":"tiles","web_uri":"http://skroutz.gr/c/584/hands-free.html","code":"hands-free","path":"76,1269,86,584","show_specifications":true,"manufacturer_title":"Κατασκευαστές","match_count":78},{"id":1412,"name":"Συμβατές Μπαταρίες Κινητών Τηλεφώνων","children_count":0,"image_url":"https://b.scdn.gr/ds/categories/1412/1412.jpg","parent_id":86,"fashion":false,"layout_mode":"list","web_uri":"http://skroutz.gr/c/1412/symvates-mpataries-kinhtwn-tilefwnwn.html","code":"symvates-mpataries-kinhtwn-til","path":"76,1269,86,1412","show_specifications":false,"manufacturer_title":"Κατασκευαστές","match_count":10},{"id":312,"name":"Ηχοσυστήματα Αυτοκινήτου","children_count":0,"image_url":"https://b.scdn.gr/ds/categories/312/312.jpg","parent_id":311,"fashion":false,"layout_mode":"list","web_uri":"http://skroutz.gr/c/312/radiocd-kasetofona.html","code":"radiocd-kasetofona","path":"76,33,311,312","show_specifications":true,"manufacturer_title":"Κατασκευαστές","match_count":25},{"id":2594,"name":"Καλώδια Lightning","children_count":0,"image_url":"https://b.scdn.gr/ds/categories/2594/20160317141913_d574dd4e.jpg","parent_id":585,"fashion":false,"layout_mode":"tiles","web_uri":"http://skroutz.gr/c/2594/kalodia_lightning.html","code":"kalodia_lightning","path":"76,1269,144,29,585,2594","show_specifications":true,"manufacturer_title":"Κατασκευαστές","match_count":335},{"id":2727,"name":"Θήκες Κινητών Εκτός Κυκλοφορίας","children_count":0,"image_url":"https://c.scdn.gr/ds/categories/2727/20160901114849_55ef57e9.jpeg","parent_id":86,"fashion":false,"layout_mode":"tiles","web_uri":"http://skroutz.gr/c/2727/thikes-kinitwn-ektos-kikloforias.html","code":"thikes-kinitwn-ektos-kiklofori","path":"76,1269,86,2727","show_specifications":false,"manufacturer_title":"Κατασκευαστές","match_count":2832},{"id":1747,"name":"Θήκες Bumper","children_count":0,"image_url":"https://c.scdn.gr/ds/categories/1747/20150820132916_d4d256b5.jpg","parent_id":86,"fashion":false,"layout_mode":"list","web_uri":"http://skroutz.gr/c/1747/thikes_bumper.html","code":"thikes_bumper","path":"76,1269,86,1747","show_specifications":false,"manufacturer_title":"Κατασκευαστές","match_count":1479},{"id":1518,"name":"Universal Θήκες Κινητών Τηλεφώνων","children_count":0,"image_url":"https://d.scdn.gr/ds/categories/1518/20150408161931_e7f98f82.jpg","parent_id":86,"fashion":true,"layout_mode":"wide_tiles","web_uri":"http://skroutz.gr/c/1518/universal-thikes-kinhtwn-thlefwnwn.html","code":"universal-thikes-kinhtwn-thlef","path":"76,1269,86,1518","show_specifications":false,"manufacturer_title":"Κατασκευαστές","match_count":1389},{"id":1705,"name":"Smartwatches","children_count":0,"image_url":"https://a.scdn.gr/ds/categories/1705/20150508163903_9d5810ce.jpg","parent_id":1912,"fashion":false,"layout_mode":"tiles","web_uri":"http://skroutz.gr/c/1705/Smartwatches.html","code":"smartwatch","path":"76,1269,1912,1705","show_specifications":true,"manufacturer_title":"Κατασκευαστές","match_count":3},{"id":581,"name":"Φορτιστές Κινητών Τηλεφώνων","children_count":0,"image_url":"https://d.scdn.gr/ds/categories/581/20160525162015_a77019e8.jpeg","parent_id":86,"fashion":false,"layout_mode":"tiles","web_uri":"http://skroutz.gr/c/581/fortistes-kinhtwn-tilefwnwn.html","code":"fortistes-kinhtwn-tilefwnwn","path":"76,1269,86,581","show_specifications":true,"manufacturer_title":"Κατασκευαστές","match_count":202},{"id":435,"name":"Bluetooth Handsfree","children_count":0,"image_url":"https://d.scdn.gr/ds/categories/435/435.jpg","parent_id":86,"fashion":false,"layout_mode":"tiles","web_uri":"http://skroutz.gr/c/435/hands-free-bluetooth.html","code":"hands-free-bluetooth","path":"76,1269,86,435","show_specifications":true,"manufacturer_title":"Κατασκευαστές","match_count":15},{"id":1849,"name":"Βάσεις Κινητών/Τάμπλετ Αυτοκινήτου","children_count":0,"image_url":"https://c.scdn.gr/ds/categories/1849/20150212161202_5d157d22.jpg","parent_id":1848,"fashion":false,"layout_mode":"tiles","web_uri":"http://skroutz.gr/c/1849/Vaseis-Kiniton-Tamplet-Aytokinitou.html","code":"Vaseis-Kiniton-Tamplet-Aytokin","path":"76,33,1223,1848,1849","show_specifications":false,"manufacturer_title":"Κατασκευαστές","match_count":70},{"id":2579,"name":"Virtual Reality Headsets","children_count":0,"image_url":"https://c.scdn.gr/ds/categories/2579/20160204191750_af8c650d.jpg","parent_id":1864,"fashion":false,"layout_mode":"tiles","web_uri":"http://skroutz.gr/c/2579/virtual-reality-headsets.html","code":"virtual-reality-headsets","path":"76,1269,1864,2579","show_specifications":false,"manufacturer_title":"Κατασκευαστές","match_count":4},{"id":699,"name":"Μετατροπείς","children_count":0,"image_url":"https://b.scdn.gr/ds/categories/699/20150527003300_13ef2e6b.jpg","parent_id":144,"fashion":false,"layout_mode":"tiles","web_uri":"http://skroutz.gr/c/699/metatropeis-adaptors.html","code":"metatropeis-adaptors","path":"76,1269,144,699","show_specifications":true,"manufacturer_title":"Κατασκευαστές","match_count":40},{"id":1417,"name":"Φορτιστές Αναπτήρα Αυτοκινήτου","children_count":0,"image_url":"https://c.scdn.gr/ds/categories/1417/20150212161854_367c8f29.jpg","parent_id":1848,"fashion":false,"layout_mode":"tiles","web_uri":"http://skroutz.gr/c/1417/Car_Charger.html","code":"Car_Charger","path":"76,33,1223,1848,1417","show_specifications":false,"manufacturer_title":"Κατασκευαστές","match_count":193},{"id":566,"name":"Ηχοσυστήματα","children_count":0,"image_url":"https://b.scdn.gr/ds/categories/566/566.jpg","parent_id":767,"fashion":false,"layout_mode":"list","web_uri":"http://skroutz.gr/c/566/ixosysthmata.html","code":"ixosysthmata","path":"76,1269,767,566","show_specifications":true,"manufacturer_title":"Κατασκευαστές","match_count":23},{"id":2596,"name":"Καλώδια 30-Pin","children_count":0,"image_url":"https://d.scdn.gr/ds/categories/2596/20160317142416_66622ffa.jpg","parent_id":585,"fashion":false,"layout_mode":"tiles","web_uri":"http://skroutz.gr/c/2596/kalodia_30_pin.html","code":"kalodia_30_pin","path":"76,1269,144,29,585,2596","show_specifications":true,"manufacturer_title":"Κατασκευαστές","match_count":188},{"id":1933,"name":"Selfie Sticks","children_count":0,"image_url":"https://d.scdn.gr/ds/categories/1933/20150513195935_d99f5ce1.jpg","parent_id":86,"fashion":false,"layout_mode":"list","web_uri":"http://skroutz.gr/c/1933/Selfie-Sticks.html","code":"Selfie_Stick","path":"76,1269,86,1933","show_specifications":false,"manufacturer_title":"Κατασκευαστές","match_count":24},{"id":239,"name":"Ενισχυτές Hi-Fi","children_count":0,"image_url":"https://b.scdn.gr/ds/categories/239/20150117204413_Untitledhgthshs.jpg","parent_id":767,"fashion":false,"layout_mode":"list","web_uri":"http://skroutz.gr/c/239/enisxytes.html","code":"enisxytes","path":"76,1269,767,239","show_specifications":false,"manufacturer_title":"Κατασκευαστές","match_count":19},{"id":1857,"name":"In Ear","children_count":0,"image_url":"https://c.scdn.gr/ds/categories/1857/20150515145839_c987c3ab.jpg","parent_id":1858,"fashion":false,"layout_mode":"tiles","web_uri":"http://skroutz.gr/c/1857/In-Ear.html","code":"In_Ear","path":"76,1269,767,772,1858,1857","show_specifications":true,"manufacturer_title":"Κατασκευαστές","match_count":29}],"meta":{"q":"iphone","alternatives":[],"strong_matches":{},"pagination":{"total_results":135,"total_pages":6,"page":1,"per":25}}}