{"reviews":[{"id":73362,"user_id":526669,"review":"Έχω κάνει αγορά ψυγειοκαταψύκτη Βosch από 25/8 η περιοχή που έπρεπε να παραδωθεί Χαλκιδική.Τον παρέλαβα 29/8.Το ψυγείο είχε πρόβλημα δεν λειτούργησε από την αρχή.Αρχίζοντας και η δικιά μας ταλαιπωρία!Αφού έκανα και το ιδιωτικό συμφωνητικό total support για άμεση εξυπηρέτηση έπρεπε εγώ να παίρνω κάθε μέρα τηλ η ίδια στο κέντρο εξυπηρέτησης στην Αθήνα, στο κατάστημα Κοτσόβολου από όπου έκανα την αγορά,στον ίδιο τον τεχνικό για να πάει να δει το ψυγείο να επιβεβαιώσει τη βλάβη μέχρι και στην ίδια την Bosch για να επισπεύσω τις διαδικασίες για αντικαταστασή του.Έχουν περάσει 20 σχεδόν ημέρες και αφού χθες ήταν να παραδωθεί χάλασε το φορτηγό έγινε μεταφορά σε άλλο το οποίο προφανώς είχε άλλο δρομολόγιο και αφού πήγε 21:00 η ώρα το βράδυ,ή δικαιολογία που μας είπε ειναι πως τον σταμάτησε η αστυνομία στο δρόμο για τη μεταφορά του δικού μου ψυγείου,με αποτέλεσμα να μην μπορέσει να το φέρει. Μετά λοιπόν από όλα αυτά,η αποθήκη του Κοτσόβολου έκρινε απαραίτητο αφού η μεταφορά σε Χαλκιδική γίνεται κάθε Δευτέρα να μεταφερθεί η παράδωση την επόμενη εβδομάδα.Να συμπληρώσουμε δηλαδή ένα μήνα χωρίς ψυγείο στο σπίτι και να μας ταλαιπωρήσουν ακόμη.Πραγματικά έχω να λέω για την εξυπηρέτηση που μου έχουν κάνει,για τα λεφτά τα έξτρα που έχω δώσει για αυτό το συμφωνητικό και για το πόσο ικανοποιημένη είμαι από τη συνεργασία μου με τον ΚΟΤΣΟΒΟΛΟ.Εννοείται φυσικά πως είναι και η τελευταία μου συνεργασία μαζί τους!!","rating":1.0,"shop_reply":null,"created_at":"2016-09-14T16:11:50+03:00","negative":true,"reasons":["order_status_absent","bad_communication"]},{"id":73822,"user_id":408275,"review":"Στις 13/9 έκανα την τελευταία ηλεκτρονική παραγγελία: ένα tablet Lenovo Tab 2 A8-50 8\" Wifi 8GB Black, στη χαμηλότερη τιμή της αγοράς ( -30 ευρώ, από όλα τα ηλεκτρονικά καταστήματα, που το διαθέτουν) και δωρεάν τα μεταφορικά. Την επόμενη ημέρα το απέστειλαν και μου έστειλαν ενημερωτικό sms, με τον αριθμό αποστολής του δέματος, για να παρακολουθώ online την πορεία του στο site της Γενικής Ταχυδρομικής. Στις 15/9 το παρέλαβα, σε άριστη κατάσταση.\r\n Γενικά, είμαι πολύ ικανοποιημένος από όλες τις παραγγελίες μου στον Κωτσόβολο!","rating":5.0,"shop_reply":null,"created_at":"2016-09-18T23:45:55+03:00","negative":false,"reasons":["order_status_present","ontime","good_packaging"]},{"id":73801,"user_id":51610,"review":"Παρήγγειλα μία οθόνη Dell στην καλύτερη τιμή της αγοράς και με μεγάλη διαφορά καθώς την έβγαλε σε προσφορά, με παράδοση στο σπίτι.\r\nΈλαβα mail αμέσως και μετά από 1 ημέρα, sms με track number.\r\nΤην 3η ημέρα παρέλαβα την οθόνη σπίτι μου.\r\nΌλα καλά, απόλυτα ευχαριστημένος. Θα ήταν χρήσιμη η προσθήκη της επιλογής παραλαβής ενός προϊόντος από το κατάστημα μιας και την οθόνη θα την είχα την 2η ημέρα στα χέρια μου αν η εταιρεία courier ήταν λίγο πιο συνεπής.","rating":5.0,"shop_reply":null,"created_at":"2016-09-18T16:01:10+03:00","negative":false,"reasons":["friendly","order_status_present","ontime"]},{"id":72669,"user_id":41801,"review":"Η παραγγελία έγινε στις 10/8/2016 για έναν δίσκο SSD. Ο δίσκος αναγραφόταν ως \"διαθεσιμότητα εντός 2-3 ημερών\". Μετα απο τηλεφωνική μου επικοινωνία μια εβδομάδα μετά στις 17/8 με ενημέρωσαν ότι θα παραλάβουν άμεσα απο τον προμηθευτή τους και ότι θα μου το στείλουν μέσα στην εβδομάδα. Το ίδιο σκηνικό έγινε και την επόμενη και την μεθεπόμενη βδομάδα... Και κάθε βδομάδα τηλέφωνο εγώ και κάθε βδομάδα 10λεπτες αναμονές... Απαράδεκτη εξυπηρέτηση! Εννοείται τον δίσκο δεν τον έστειλαν ποτέ και ούτε αναμένετε παραλαβή σύντομα..για αντιπροσφορά ούτε λόγος! Ούτε ένα ΣΥΓΝΩΜΗ για την καθυστέρηση!","rating":1.0,"shop_reply":null,"created_at":"2016-09-08T12:41:04+03:00","negative":true,"reasons":["order_status_absent","wrong_availability","bad_communication"]},{"id":73559,"user_id":422459,"review":"αγόρασα έναν αφυγραντήρα ο οποίος δεν μου φαινόταν εντελώς καινούργιος (χωρίς όμως να έχει κάποιο λειτουργικό πρόβλημα). Ειδοποίησα το κατάστημα και μετά από μια μικρή καθυστέρηση (λόγω κάποιου τεχνικού προβλήματος όπως με ενημέρωσαν) μου έφεραν σε αντικατάσταση έναν καινούργιο στο σπίτι.\r\nΕυχαριστημένος τελικά, συνεχίζω να προτείνω το κατάστημα καθώς μέχρι τώρα πέρα από τις καλές τιμές (ειδικά σε κάποια προιόντα που βγάζει σε προσφορά) έχει και πολύ καλή υποστήριξη μετά την πώληση.\r\nΣημείωση - μένω σε πόλη επαρχιακή που έχει κατάστημα κωτσόβολος.","rating":5.0,"shop_reply":null,"created_at":"2016-09-16T07:24:33+03:00","negative":false,"reasons":["after_sales_present"]},{"id":72121,"user_id":95355,"review":"Παρήγγειλα ένα φούρνο μικροκυμάτων και στην επιλογή παραλαβή από κατάστημα μου έβγαλε το site 5 διαθέσιμα καταστήματα. Το κοντινότερο ήταν αυτό του Mall. Όταν πήγα να το παραλάβω (αφού οδήγησα και πλήρωσα και το parking) με ενημέρωσαν στο ταμείο πως έχουν μόνο εκθεσιακό κομμάτι. Όταν τους ζήτησα να το φέρουν σε κοντινότερο κατάστημα στην κατοικία μου, μου είπαν από το κατάστημα πως αφού η παραγγελία έγινε από το internet θα πρέπει να μιλήσω με το Κέντρο εξυπηρέτησης. Αυτό και έκανα, αλλά ενημερώθηκα πως για να το αποκτήσω πρέπει είτε να πάω να το παραλάβω από ένα από τα υπόλοιπα καταστήματα (που βρίσκονται σε ακόμα μεγαλύτερη απόσταση από αυτό του Mall), είτε να μου σταλεί στο σπίτι και να πληρώσω και άλλα 5 €. \r\nΤα δεδομένα που αναφέρονται στο site δεν ανταποκρίνονταν στην πραγματικότητα και αναγκάστηκα να πάω να παραλάβω κάτι που δεν ήταν διαθέσιμο.","rating":1.0,"shop_reply":null,"created_at":"2016-09-03T10:19:16+03:00","negative":true,"reasons":["wrong_availability"]},{"id":72901,"user_id":51610,"review":"Παρήγγειλα μέσω του site μία θήκη για έναν εξωτερικό σκληρό δίσκο, με παραλαβή από κατάστημα.\r\nΈλαβα mail επιβεβαίωσης όπου αναφερόταν τα στοιχεία της παραγγελίας μου και (υποτίθεται) ο κωδικός πελάτη.\r\nΣε τηλεφωνική επικοινωνία την επόμενη ημέρα με ρώτησαν τον κωδικό πελάτη που όμως δεν αναφερόταν πουθενά στο mail.\r\nΗ λύση βρέθηκε με τον αριθμό της παραγγελίας. Παρέλαβα το προϊόν σε άριστη κατάσταση.","rating":5.0,"shop_reply":null,"created_at":"2016-09-10T04:36:05+03:00","negative":false,"reasons":["friendly","ontime"]},{"id":71856,"user_id":238246,"review":"Παρήγγειλα μια κάμερα Nikon D7200(Σώμα) στις 26-07-2016 από το κατάστημα,η αγγελία ήταν κατόπιν παραγγελίας στον κωτσόβολο,πριν βάλω πιστωτική για 48 δόσεις,ρώτησα πότε περίπου θα την έχω,μου είπαν περίπου 10-15 εργάσιμες μέρες,πέρασαν οι 15 εργάσιμες και μου είπαν ότι δε έχουν παραλάβει ΤΙΠΟΤΑ ακόμη και δε ξέρουν καν πιθανή ημερομηνία.Να μη τα πολυλογώ,μετά από κάτι μέρες μου έδωσαν πιθανή ημερομηνία 19-08-2016,και εννοείται ότι ούτε τότε παρέλαβα κάτι,που τώρα μας φέρνει στο σήμερα 31-08-2016(η δεύτερη πιθανή ημερομηνία παραλαβής που μου έδωσαν),Και μου λενε οτι δε εχουν παραλαβει κατι,δε ξαναψωνιζω απο εκει.","rating":1.0,"shop_reply":null,"created_at":"2016-08-31T19:14:54+03:00","negative":true,"reasons":["order_status_absent","wrong_availability","bad_communication"]},{"id":71443,"user_id":145220,"review":"Αγόρασα μια καφετιέρα Dolce Gusto mini me .Μετά απο 2 μήνες χρήσης παρέδωσε πνεύμα .Επικοινώνω με το κατάστημα και μετα απο 20λεπτα πιάνω γραμμή , με πηγεναν απο τον έναν στον άλων χωρις να βγάλω άκρη. Πάω στο κατάστημα με την απόδειξη και μου λένε οτι θα πρέπει να πάω εγώ ο ίδιος σε εξουσιοδοτημένο service της εταιρίας για να δώ τι θα γίνει και οτι δεν παρέχουν after sale service...Μετά απο παααρα πολυ ταλαιπωρία και ατελείωτα τηλέφωνα με την Krups μου δίνουν στοιχεία για τα Service (το πιό κοντινότερο είναι 20Km μαρκιά -_-  ... Δεν το περίμενα απο μεγάλη αλυσίδα , εννοείται πως δέν πρόκειται να παρω ξανα κάτι απο αυτούς .","rating":1.0,"shop_reply":null,"created_at":"2016-08-26T20:23:15+03:00","negative":true,"reasons":["after_sales_absent","bad_communication"]},{"id":72052,"user_id":171466,"review":"Το  επιπλέον σχολιο  μου  εχει  να  κάνει  με  τον  πωλητη,δεν  εχει  αρνητικη  διάθεση αλλα  καθαρα για διορθωση- και  βελτίωση.Καλος  χρυσός και  εξυπηρετικότατος ο πωλητής του καταστηματος  του Κωτσόβωλου,απλά καλο ειναι να ξέρει λιγο  καλύτερα τα προιόντα τα οποία πωλεί. Ενιωσα οτι ήξερα περισσοτερα απο τον πώλητη, όσον αφορα τα προιοντα που λανσαρει!Κατα τ'αλλα  εχω πλήρως θετική  άποψη για τον Κωτσοβολο.","rating":5.0,"shop_reply":null,"created_at":"2016-09-02T15:05:55+03:00","negative":false,"reasons":["friendly","technical_expertise","ontime","good_packaging"]},{"id":71844,"user_id":72019,"review":"Παρείγγειλα bluetooth headphones house of marley bluetooth liberate XLBT. Εύκολη παραγγελία, παραδόθηκαν γρήγορα. Με το \"παζάρεψε το\" του Κωτσόβολου τα πήρα σε τιμή αρκετά χαμηλότερη απο το φθηνότερο κατάστημα στο Skroutz (και πολύ φθηνότερα απο την αρχική τιμή που τα είχε ο Κωτσόβολος). Ευχάριστη εμπειρία, θα τον προτιμήσω στο μέλλον","rating":5.0,"shop_reply":null,"created_at":"2016-08-31T17:42:27+03:00","negative":false,"reasons":["friendly","order_status_present","ontime","good_packaging"]},{"id":69045,"user_id":388485,"review":"Επειδή έχω ένα δύο αρνητικά μόνο και αρκετά θετικά (αν και έβαλα εμπειρία θετική κι εκείνη για τις αγορές μου παραπάνω την έβαλα και όχι τόσο πολύ για το κατάστημα μιας που έχω μόνο 2 αρνητικά που το πρώτο πρέπει να το κοιτάξουν) ας γράψω έτσι.\r\nΤο 1ο αρνητικό είναι ότι δεν υπάρχει ενημέρωση εξέλιξης παραγγελίας και  αποστολής μέσω mail (καλά που γνωρίζω όλα τα παιδιά από την γενική και με στέλνουν sms ότι ήρθε δέμα,πάω και το πέρνω με την ησυχία μου...).\r\nΣτην σελίδα γράφουν την ACS  αντί για την Γενική για τις αποστολές και πρέπει να την αλλάξουν.\r\nΒασίκα δεν πολυασχολούντε φαίνετε με αυτα τα θέματα.\r\nΚαι 2ο  ότι δεν φαινότανε  η παραγγελία στο ταμείο (ένω στους Η/Υ των υπαλλήλων φαινόταν) με κάνανε νέα καρτελα (έχω 1 στη σελίδα,1 στο κατάστημα σύνολο 2  μπορεί  και 3η να υπάρχει(δεν θυμάμαι) από τότε που πρώτοάνοιξε στην πόλη μου....\r\nΚατά τα άλλα όλα καλά αν εξαιρέσουμε ότι δεν με βρίσκανε μία ημέρα μέσα στις καρτέλες και με βγάλανε άλλη...\r\n\r\nΘετικα:\r\nΈχω πάρει αρκετά ψιλοπραγματάκια από το κατάστημα και από το ίντερνετ.\r\n2 φορές έτυχε (το 1ο παραλαβή απο το κατάστημα ΑΛΕΞ/ΠΟΛΗΣ και το 2ο δεν υπήρχε στο κατάστημα και αναγκαστικά ήρθε με την curier...).\r\n\r\nΤο καλύτερό μου έναι: Hχείακια Logitech Z150 με 14.99 € που τα είχε βγάλει προσφορά για πολύ λίγη ώρα στις 18/3/16 -  μέσω του skroutz  και τα έβαλα στις 4 το απόγευμα από το κατάστημα  να τα πάρω και δεν περνάει ένα 15λεπτο,είναι διαθέσιμα για παραλαβή.Και  σε 1 ώρα πήγα τα πείρα μιας που ήμουν εκεί κοντά...(Σε αυτό το θέμα είναι αρκετά γρήγορος.)\r\nΑ! και ένα κινητό samsung που είχα πάρει πριν πολλά χρόνια από το κατάστημα Αλεξ/πολης που ήταν το μοναδικό κατάστημα  που είχε την καλύτερη τιμή τότε από όλα όσα καταστήματα έχω ψάξει πριν καταλήξω εκεί!\r\n\r\nΈιμαι αρκετά ευχαριστημένος και ικανοποιημένος από τις τις αγορές μου αν και ψωνίζω σπάνια.\r\n\r\n\r\nΑς ελπίσουμε συνέχεια να μην υπάρξει και να στρώσουν το θέμα της ενημέρωσης.","rating":5.0,"shop_reply":null,"created_at":"2016-07-30T04:58:07+03:00","negative":false,"reasons":["friendly","ontime","good_packaging","after_sales_present"]},{"id":67678,"user_id":393039,"review":"Εκανα παραγγελια για ενα φουρνο μικροκυματων Samsung ME711K στις 6/07/16. Την επομενη 7/7/16 παρελαβα μεσω Γενικης Ταχυδρομικης το πακετο.Μετα απο 10 λεπτα οταν ανοιξα το εξωτερικο πακετο που ηταν αθικτο βρηκα το πακετο του φουρνου εμφανως χτυπημενο. Εβγαλα τον φουρνο εξω και ηταν χτυπημενος τσαλακωμενος στην πλευρα των κομβιων χειρισμου και τα κομβια πεσμενα στο εσωτερικο του φουρνου. Πηρα τηλεφωνο το support του Κωτσόβολου. και μου ειπαν οτι θα στειλουμε την Γενικη Ταχυδρομικη να παρει πισω το πακετο οπως και εγινε την επομενη μερα παρασκευη 8/7/16. Το πακετο με Tracking nbr: 3076476340 παρεδωθη στις αποθηκες του Κωτσόβολου. την δευτερα 11/7/16  13:22. Επικοινωνησα με το  support του Κωτσόβολου. καθημερινα απο την επομενη μερα τριτη 12/7 μεχρι πεμπτη 14/7 και μου ελεγαν οτι δεν το εχουν παραλαβει ακομη στις αποθηκες τους. Σημερα παρασκευη 15/7/16 σε επικοινωνια μου, μου ειπαν οτι το παρελαβαν και απο δευτερα 18/7/16 θα δοθει εντολη να μου στειλουν την παραγγελια μου. Ελπιζω να τελειωση η ταλαιπωρια μου.Αυτη τη φορα θα ανοιξω την κουτα πριν το παραλαβω (Τερμα η εμπιστοσυνη).\r\nΕυχαριστω.","rating":1.0,"shop_reply":null,"created_at":"2016-07-15T19:14:43+03:00","negative":true,"reasons":["order_status_absent","bad_communication"]},{"id":67738,"user_id":328441,"review":"Έκανα μία παραγγελία ηλεκτρονικά (δύο τηλεοράσεις) οι οποίες ήταν άμεσα διαθέσιμες την Τρίτη 12/7. Παρέλαβα την μία την Παρασκευή 15/7. Καμία ενημέρωση για την άλλη τηλεόραση οπότε κάλεσα να δω τι γίνεται. Μου είπαν ότι η τηλεόραση πιθανότατα δεν υπάρχει διαθέσιμη τελικά αλλά αθ τοπ τσεκάρουν και θα με καλέσουν σε 10 λεπτά καθώς τους είπα ότι είναι για δώρο και την επείγομαι σήμερα. Κανένα τηλέφωνο μετά από 4 ώρες και όταν ξανακάλεσα για να μάθω τι γίνεται, μου είπαν ότι θα με καλέσουν κάποια στιγμή γιατί δεν ξέρουν ακόμα. Δεν υπάρχει περίπτωση να ξαναψωνίσω από εκεί!","rating":1.0,"shop_reply":null,"created_at":"2016-07-16T13:13:54+03:00","negative":true,"reasons":["order_status_absent","wrong_availability","bad_communication"]},{"id":67187,"user_id":83324,"review":"Στις 21/6 παρείγγειλα ηλεκτρονικά το air condition Fujitsu ASYG25LLCR το οποίο ήταν σε προσφορά στα 449€ με δώρο κουπόνι 30€ και δωρεάν εγκατάσταση. Στις 22/6 το παραλάβαμε και έκτοτε σκονίζεται στο μπαλκόνι του σπιτιού μου αφού μέχρι σήμερα, 20 ημέρες μετά, δεν έχουν έρθει να το εγκαταστήσουν. Την προηγούμενη εβδομάδα 2/7 πήγα στο κατάστημα της περιοχής μου για να ρωτήσω πότε επιτέλους θα έρθει ο τεχνικός. Η κυρία που με εξυπηρέτησε με ενημέρωσε οτι υπάρχει καθυστέρηση και απο τις 5 ημέρες αναμονής  που υποτίθεται έπρεπε να περιμένω θα πάει μέχρι και 10 και έστειλε και ένα email στους τεχνικούς με τους οποίους συνεργάζονται για να τους ενημερώσει. Η εβδομάδα πέρασε χωρίς νεότερα και τελικά σήμερα 11/7 πήγε η μητέρα μου πάλι στο κατάστημα να παραπονεθεί για την καθυστέρηση. Η κυρία εκεί πήρε τηλέφωνο τους τεχνικούς οι οποίοι της είπαν οτι μας είχαν πάρει τηλέφωνο στο κινητό στις 23/6 και δεν απαντήσαμε. Η μητέρα μου έχοντας μαζί της το κινητό έδειξε στην κοπέλα το ιστορικό των κλήσεων οπου δεν φαινόταν καμία κλήση προς εμάς. Οι τεχνικοί ωστόσο επέμεναν οτι είχαν πάρει τηλέφωνο. Τελικά είπαν οτι θα μας καλέσουν μέχρι τις 5 μ.μ. σήμερα για να κανονίσουν τί ώρα να έρθουν αύριο για να το εγκαταστήσουν.  Ποτέ δεν πήραν τηλέφωνο...\r\nΛυπάμαι που για την εξοικονόμηση λίγων χρημάτων ο Κωτσόβολος συνεργάζεται με τέτοιες εταιρίες που δεν σέβονται τους πελάτες τους και είμαι πολύ επιφυλακτικός αν θα αγοράσω ποτέ ξανά πράγματα αξίας απο αυτό το κατάστημα.","rating":1,"shop_reply":null,"created_at":"2016-07-11T19:12:55+03:00","negative":true,"reasons":[]},{"id":67746,"user_id":51610,"review":"Παρήγγειλα έναν εξωτερικό σκληρό δίσκο WD 1TB μαζί με μία θήκη, στην καλύτερη τιμή της αγοράς, με παραλαβή από το κατάστημα μιας και βρίσκεται ακριβώς δίπλα στην δουλειά μου.\r\nΗ παραγγελία έγινε αργά το βράδυ, ωστόσο το επόμενο πρωί επικοινώνησα για να επιβεβαιώσω την διαθεσιμότητα των προϊόντων στο συγκεκριμένο κατάστημα.\r\nΤα προϊόντα ήταν όντως διαθέσιμα και η παραλαβή έγινε αμέσως με πληρωμή σε μετρητά.\r\n\r\nΆψογη εξυπηρέτηση.\r\nΤο μόνο περίεργο που με προβλημάτισε αρκετή ώρα μέχρι να το καταλάβω ήταν ότι έτσι όπως έχουν στήσει το site, όταν προσθέτεις προϊόντα στο καλάθι σου και επιλέγεις στην συνέχεια παραλαβή από κατάστημα (μέσω ΤΚ), πρέπει όλα τα προϊόντα να είναι διαθέσιμα σε κοντινό στο ΤΚ κατάστημα σε εσένα. Σε διαφορετική περίπτωση, το site απαντάει ότι δεν βρέθηκε κοντινό κατάστημα.","rating":5.0,"shop_reply":null,"created_at":"2016-07-16T14:44:22+03:00","negative":false,"reasons":["friendly","ontime"]},{"id":66866,"user_id":226900,"review":"Αγόρασα μια μπαταρία για MacBook Pro - Άμεσα διαθέσιμη στις 27/6 με πιστωτική κάρτα. Η χρέωση έγινε 10 δευτερόλεπτα μετά την παραγγελια. \r\nΣτις 30/6 και ενώ φυσικά δεν με ενημέρωσε κανένας για το αν θα παραλάβω και ποτε, πήρα εγω τηλέφωνο και μου είπαν οτι θα φύγει σύντομα\r\nΣτις 4/7 ξαναπαίρνω και μου λένε οτι δεν ειναι διαθέσιμο και δεν ξέρουν ποτε θα παραλάβουν (στο site λέει ακόμα ΑΜΕΣΑ διαθέσιμο) και με συνδέουν με το τμήμα Ίντερνετ για να το εξετάσουν. Μου λένε θα σας πάρουμε εμείς (όσο πήραν εσάς πήραν και εμένα).\r\nΣτις 5/7 ξαναπαίρνω και μου λένε ναι θα σας πάρουμε εμείς κλπ - αποτέλεσμα 0. \r\nΣτις 6/7 ζήτησα ακύρωση.","rating":1,"shop_reply":null,"created_at":"2016-07-07T17:23:02+03:00","negative":true,"reasons":[]},{"id":67454,"user_id":115908,"review":"Στις 31-5-16 αγόρασα έναν ψυγειοκαταψύκτη INDESIT και μια τηλεόραση SONY 32''. Οι άνθρωποι του καταστήματός του Βόλου ήταν πολύ εξυπηρετικοί και κατατοπιστικοί. Σωστοί επαγγελματίες.\r\nΤα προϊόντα ήρθαν στην ημερομηνία που συμφωνήσαμε στο σπίτι μου, σε άριστη κατάσταση,  χωρίς καμία επιπλέον χρέωση. Τα σύνδεσαν οι μεταφορείς και λειτούργησαν μια χαρά.\r\nΓενικώς έμεινα πολύ ικανοποιημένος.","rating":5,"shop_reply":null,"created_at":"2016-07-14T01:06:34+03:00","negative":false,"reasons":[]},{"id":66205,"user_id":250555,"review":"Αγορασα απο το καταστημα Κοτσοβολος Περιστεριου-Ανθουπολης \r\nΜια τηλεοραση F\u0026U \r\nΜια βαση τοιχου \r\nΕνα ψυγειο μινι μπαρ Morris \r\nΕνα κλιματιστικο nakassi\r\nΚαι επισης την εγκατασταση\r\n\r\nΗ τελεοραση και η βαση ειναι τα μονα που εγιναν σωστα οπως και τα μονα που παρρλαβα ο ιδιος απο το καταστημα\r\nΣτα υπολοιπα διαλεξα τροπο παραδοσης κατοικων \r\nΤο κλιματιστικο ηρθε μετα απο 2 εργασιμες και μετα απο 7 ο τεχνικος για την εγκατασταση απο τον κοτσοβολο\r\nΟ ιδιος βρηκε το κλιματιστικο σπασμενο στα σημεια που βγαινιυν τα νερα και ζητησε ο ιδιος απο το καταστημα αντικατασταση διοτι δεν γινοταν εγκατασταση \r\nΟ κοτσοβολος αρνηθηκε να ανναξει και την εξωτερικη μοναδα διοτι δεν ειχε καποιο θεμα οπως ειπε αλλα μονο η εσωτερικη που ηταν χλασμενη εγινε αλλαγη \r\nΗ αντικατασταση εγινε εχουν περασει 5 εργασιμες και μολις μιλησα με το τηλεφωνικο κεντρο για το ποτε θα ερθει ο τεχνικος τους για την εγκατασταση μου απαντησαν οτι εγω επρεπε να ενημερωσω αν παρελαβα \r\nΓια να πουμε και τα του μινι μπαρ \r\nΟ κοτσοβολος στο παραστατικο του αναφερει πως ο πελατης πρεπει να ξιοσει την παραδοση των προιοντων εντος 1 μηνα αν δεν το κανει δεν εχει υποχρέωση να παραδωσει και μονη υποχρεωση που εχει ως προς τον πελατη ειναι να δωσει τα χρηματα ατοκα (οποτε ειναι)\r\nΤο μινι μπαρ ειχε ημερομηνια παραδοσης 22/6/16 ενω η πραγγελια εγινε 17/6/16 \r\nΕχουμε 29/6/16 και ο κοτσοβολος δεν ξερει ποτε θα παραλαβει το εμπορευμα απο τον προμηθευτη \r\n(Υπηρχε συμφωνια παραδωσης μεχρι και 24/6/16 ως καταλητικη ημερομηνια)\r\nη προσωπικη μου εικονα απο τον τροπο που εχω αντιμετωπιστει απο τους υπαλληλους που μου πουλησαν τα προιοντα μεχρι το ταμειο αλλα και το μετα ειναι η χειροτερη που εχω λαβει απο καταστημα \r\nΔεν ενιωσα επαγγελματισμό και δεν ενιωσα οτι ο πωλητης ενδιαφερεται για μενα...\r\nΠραγματικα θα ηθελα να λαβω μια απαντηση σε οσα αναφερω απο αφαντη μεχρι τωρα υποστηρηξη πελατων κοτσοβολου....","rating":1,"shop_reply":null,"created_at":"2016-06-29T15:54:34+03:00","negative":true,"reasons":[]},{"id":66217,"user_id":480009,"review":"3η μέρα μετά την παραγγελία και μόλις σήμερα στάλθηκε το προϊόν στη γενική ταχυδρομική, ενώ υπήρχε στο κατάστημα από την αρχή (σύμφωνα με το site τους). Τους έχω στείλει και e-mail αλλά ακόμα δεν μου έχουν απαντήσει. Απαράδεκτοι,ποτέ ξανά κοτσόβολος","rating":1,"shop_reply":null,"created_at":"2016-06-29T17:11:16+03:00","negative":true,"reasons":[]},{"id":65037,"user_id":244944,"review":"Στης 29/05/16 παρήγγειλα από το ηλεκτρονικό κατάστημα του Κωτσόβολου έναν καταψύκτη Electrolux, ο οποίος ήταν σε προσφορά. Κανένας από το κατάστημα δε μπήκε στη διαδικασία να με ενημερώσει για το πότε θα παραλάβω την παραγγελία μου. Χρειάστηκε να επικοινωνήσω εγώ αρκετές φορές με το τηλεφωνικό κέντρο για να μάθω πότε θα παραλάβω τον καταψύκτη. Η παραγγελία ήρθε 2 βδομάδες μετά, επειδή όπως μου είπαν δύο φορές το μήνα εξυπηρετούν την περιοχή μου. Όμως δε θα έπρεπε να μας ενημερώσουν από την αρχή γι' αυτό; Δεν το προτείνω επειδή θεωρώ ότι η εξυπηρέτηση των πελατών δεν είναι σωστή, κάτι το οποίο δεν περίμενα να συμβαίνει σε ένα τόσο γνωστό κατάστημα.","rating":1,"shop_reply":null,"created_at":"2016-06-15T00:13:42+03:00","negative":true,"reasons":[]},{"id":64047,"user_id":147712,"review":"Τελευταια παρηγγειλα μια τηλεοραση 20' ιντσων για το δωματιο μαρκας F\u0026U απο το site του Κοτσωβολου που την ειχε σε προσφορα στα 89 ευρω. Ολα καλα μεχρι που πηγα στο καταστημα της πολης μου να την παραλαβω αφου ειχα ζητησει να παει εκει η τηλεοραση. Την πληρωσα και μολις πηγα σπιτι ανοιξα το κουτι για να βγαλω τα εξαρτηματα και να την εγκαταστησω. Το προστατευτικο σακουλι της οθονης ηταν σε κακη κατασταση και σχισμενο. Εβγαλα ολα τα εντυπα και τα ελεγξα, καθως και το τηλεκοντρολ και την βαση. Οταν πηγα να κουμπωσω την οθονη πανω στην βαση διαπιστωσα οτι η βαση επιπλεει και δεν κουμπωνει και κατι δεν πηγαινε καλα. Επικοινωνησα με τα κεντρικα και με συνδεσαν με το καταστημα οπου την παρελαβα. Το αποτελεσμα ηταν να ξανακατεβω μεσα σε 20 λεπτα, να την ελεγξχουν και τελικα να διαπιστωσουν οτι ελειπε ενα εξαρτημα απο την βαση. Φυσικα επεστρεψα την τηλεοραση και πηρα τα χρηματα μου πισω αλλα πριν γινει αυτο με ρωτησαν αν θελω να την αντικαταστησω. Ειπα αν εχετε αλλη ή ιδια με αυτα τα λεφτα βεβαιως. Και αφου το κοιταξαν, μου ειπαν οτι η συγκεκριμενη τηλεοραση ηταν η τελευταια και οτι δεν βγαινει αλλο απο το εργοστασιο, ειναι παλιό μοντελο.  Ηταν η πρωτη φορα που αντιμετωπισα τετοιο περιστατικο κ ταλαιπωρια απο το συγκεκριμενο καταστημα, αλλα ευτυχως ολα καλα.","rating":3,"shop_reply":null,"created_at":"2016-06-02T21:08:48+03:00","negative":true,"reasons":[]},{"id":64928,"user_id":2575,"review":"Αγόρασα έναν επιτραπέζιο ανεμιστήρα.\r\nΠήγα στο κατάστημα ο ίδιος και τον παρέλαβα, η κοπέλα που μ΄ εξυπηρέτησε ήταν ιδιαίτερα ευγενική και κατατοπιστική. \r\nΟ ανεμιστήρας απόσφραγιστηκε και τέθηκε σε λειτουργία μπροστά μου. \r\nΗ πληρωμή έγινε με μετρητά, υπάρχει όμως επιλογή και για πληρωμή με πιστωτική κάρτα και με δόσεις.","rating":5,"shop_reply":null,"created_at":"2016-06-14T00:23:18+03:00","negative":false,"reasons":[]},{"id":64028,"user_id":262635,"review":"Λοιπόν παράγγειλα μέσω internet μια κάμερα την sony pj410 στις 22/04 στη σελίδα έλεγε κατόπιν παραγγελίας δηλαδή ότι θα έκανε η παραγγελία για να έρθει 15-20 εργάσιμες μέρες αυτό έγραφες και η σελίδα στο ίντερνετ αλλά και μου το επιβεβαίωσαν και με ένα τηλεφώνημα που επίσης μου είπαν ότι θα είναι στις αποθήκες τους στις 20/05 έρχεται εκείνη η ημερομηνία, παίρνω τηλέφωνο να δω αν ήρθε και μου λένε ότι τελικά πιθανή ημερομηνία είναι η 25/05  να μην τα πολυλογώ με τα μου είπαν 29/05 και μετά μέχρι 3/06 εντωμεταξύ με παίρνουν 31/05 και μου λένε για κάποια βλάβη που έχει ένα εργοστάσιο της sony στην Ιαπωνία(αν και το έψαξα δεν βρήκα κάτι στο ιντερνετ και δεν ξέρω κατά πόσο μου έλεγαν την αλήθεια) και ότι θα έρθει μετά της 15/06 ε μετά από αυτό ακύρωσα την παραγγελία εννοείται!!!!","rating":1,"shop_reply":null,"created_at":"2016-06-02T17:17:39+03:00","negative":true,"reasons":[]},{"id":63587,"user_id":422225,"review":"Στις 19/5/2016 παρήγγειλα μια καφετιέρα  Bra Ανοξείδωτη Red στην τιμή των 39.99€. Την ίδια μέρα έλαβα επιβεβαιωτικό email και στις επόμενες ημέρες, στην παρακολούθηση της παραγγελίες, έβλεπα το χαρακτηρισμό \"υπό εκτέλεση\". Ξαφνικά στις 28/5/2016 η κατάσταση της παραγγελίας άλλαξε σε \"Ακυρωμένη\" χωρίς βέβαια εγώ να έχω ακυρώσει την παραγγελία.\r\nΤην ίδια μέρα, στην ιστοσελίδα του καταστήματος βλέπω ότι η καφετιέρα είναι διαθέσιμη για αποστολή, μόνο που η τιμή της όλως αιφνιδίως εμφανίζεται στα 49.99€. Αναρωτιέμαι πόσο  σημαντική θεωρεί το κατάστημα τη συνέπεια, την αξιοπιστία και το σεβασμό στον πελάτη!","rating":1,"shop_reply":null,"created_at":"2016-05-28T08:17:42+03:00","negative":true,"reasons":[]}],"meta":{"pagination":{"total_results":413,"total_pages":17,"page":1,"per":25}}}