{"locations":[{"id":2500,"headquarter":true,"phones":["2102899999"],"pickup_point":false,"store":false,"full_address":"14ο ΧΛΜ ΕΟ ΑΘΗΝΩΝ ΛΑΜΙΑΣ 14, Τ.Κ. 14452, ΜΕΤΑΜΟΡΦΩΣΗ, Αττικής","format":"structured","lat":"38.062297","lng":"23.75991","info":"","address":{"id":2500,"street_number":"14","street":"14ο ΧΛΜ ΕΟ ΑΘΗΝΩΝ ΛΑΜΙΑΣ","postcode":"14452","city":"ΜΕΤΑΜΟΡΦΩΣΗ","region":"Αττικής","country":"Ελλάδα"}},{"id":1696,"headquarter":false,"phones":["2102899999"],"pickup_point":true,"store":true,"full_address":"ΛΕΩΦΟΡΟΣ ΗΡΑΚΛΕΙΟΥ 271, Τ.Κ. 14231, ΝΕΑ ΙΩΝΙΑ, Αττικής","format":"structured","lat":"38.044771","lng":"23.756156","info":"","address":{"id":1696,"street_number":"271","street":"ΛΕΩΦΟΡΟΣ ΗΡΑΚΛΕΙΟΥ","postcode":"14231","city":"ΝΕΑ ΙΩΝΙΑ","region":"Αττικής","country":"Ελλάδα"}},{"id":1699,"headquarter":false,"phones":["2102899999"],"pickup_point":true,"store":true,"full_address":"ΜΕΣΟΓΕΙΩΝ 505, Τ.Κ. 15343, ΑΓΙΑ ΠΑΡΑΣΚΕΥΗ, Αττικής","format":"structured","lat":"38.01341","lng":"23.833118","info":"","address":{"id":1699,"street_number":"505","street":"ΜΕΣΟΓΕΙΩΝ","postcode":"15343","city":"ΑΓΙΑ ΠΑΡΑΣΚΕΥΗ","region":"Αττικής","country":"Ελλάδα"}},{"id":1701,"headquarter":false,"phones":["2102899999"],"pickup_point":true,"store":true,"full_address":"ΕΛΕΥΘΕΡΙΟΥ ΒΕΝΙΖΕΛΟΥ 256, Τ.Κ. 17675, ΚΑΛΛΙΘΕΑ, Αττικής","format":"structured","lat":"37.949534","lng":"23.690921","info":"","address":{"id":1701,"street_number":"256","street":"ΕΛΕΥΘΕΡΙΟΥ ΒΕΝΙΖΕΛΟΥ","postcode":"17675","city":"ΚΑΛΛΙΘΕΑ","region":"Αττικής","country":"Ελλάδα"}},{"id":1702,"headquarter":false,"phones":["2102899999"],"pickup_point":true,"store":true,"full_address":"ΤΑΞΙΑΡΧΩΝ 44, Τ.Κ. 18120, ΚΟΡΥΔΑΛΛΟΣ, Αττικής","format":"structured","lat":"37.978207","lng":"23.651699","info":"","address":{"id":1702,"street_number":"44","street":"ΤΑΞΙΑΡΧΩΝ","postcode":"18120","city":"ΚΟΡΥΔΑΛΛΟΣ","region":"Αττικής","country":"Ελλάδα"}},{"id":1704,"headquarter":false,"phones":["2102899999"],"pickup_point":true,"store":true,"full_address":"ΧΡΕΜΩΝΙΔΟΥ 52, Τ.Κ. 11633, ΑΘΗΝΑ, Αττικής","format":"structured","lat":"37.964715","lng":"23.750942","info":"","address":{"id":1704,"street_number":"52","street":"ΧΡΕΜΩΝΙΔΟΥ","postcode":"11633","city":"ΑΘΗΝΑ","region":"Αττικής","country":"Ελλάδα"}},{"id":1706,"headquarter":false,"phones":["2102899999"],"pickup_point":true,"store":true,"full_address":"ΧΑΡΙΛΑΟΥ ΤΡΙΚΟΥΠΗ 135, Τ.Κ. 14671, ΝΕΑ ΕΡΥΘΡΑΙΑ, Αττικής","format":"structured","lat":"38.088592","lng":"23.815282","info":"","address":{"id":1706,"street_number":"135","street":"ΧΑΡΙΛΑΟΥ ΤΡΙΚΟΥΠΗ","postcode":"14671","city":"ΝΕΑ ΕΡΥΘΡΑΙΑ","region":"Αττικής","country":"Ελλάδα"}},{"id":1708,"headquarter":false,"phones":["2102899999"],"pickup_point":true,"store":true,"full_address":"ΛΕΩΦΟΡΟΣ ΔΗΜΟΚΡΑΤΙΑΣ 266, Τ.Κ. 13562, ΑΓΙΟΙ ΑΝΑΡΓΥΡΟΙ, Αττικής","format":"structured","lat":"38.043152","lng":"23.727277","info":"","address":{"id":1708,"street_number":"266","street":"ΛΕΩΦΟΡΟΣ ΔΗΜΟΚΡΑΤΙΑΣ","postcode":"13562","city":"ΑΓΙΟΙ ΑΝΑΡΓΥΡΟΙ","region":"Αττικής","country":"Ελλάδα"}},{"id":1710,"headquarter":false,"phones":["2102899999"],"pickup_point":true,"store":true,"full_address":"ΛΑΖΑΡΑΚΗ 11, Τ.Κ. 16675, ΓΛΥΦΑΔΑ, Αττικής","format":"structured","lat":"37.864466","lng":"23.746738","info":"","address":{"id":1710,"street_number":"11","street":"ΛΑΖΑΡΑΚΗ","postcode":"16675","city":"ΓΛΥΦΑΔΑ","region":"Αττικής","country":"Ελλάδα"}},{"id":1711,"headquarter":false,"phones":["2102899999"],"pickup_point":true,"store":true,"full_address":"ΙΔΟΜΕΝΕΩΣ 116, Τ.Κ. 13123, ΙΛΙΟΝ, Αττικής","format":"structured","lat":"38.029999","lng":"23.70032","info":"","address":{"id":1711,"street_number":"116","street":"ΙΔΟΜΕΝΕΩΣ","postcode":"13123","city":"ΙΛΙΟΝ","region":"Αττικής","country":"Ελλάδα"}},{"id":1714,"headquarter":false,"phones":["2102899999"],"pickup_point":true,"store":true,"full_address":"ΔΥΡΡΑΧΙΟΥ 56, Τ.Κ. 10443, ΑΘΗΝΑ, Αττικής","format":"structured","lat":"38.005597","lng":"23.717502","info":"ΣΕΠΟΛΙΑ","address":{"id":1714,"street_number":"56","street":"ΔΥΡΡΑΧΙΟΥ","postcode":"10443","city":"ΑΘΗΝΑ","region":"Αττικής","country":"Ελλάδα"}},{"id":1720,"headquarter":false,"phones":["2102899999"],"pickup_point":true,"store":true,"full_address":"ΛΕΩΦ. ΜΑΡΑΘΩΝΟΣ 177, Τ.Κ. 19005, ΝΕΑ ΜΑΚΡΗ, Αττικής","format":"structured","lat":"38.089981","lng":"23.975056","info":"","address":{"id":1720,"street_number":"177","street":"ΛΕΩΦ. ΜΑΡΑΘΩΝΟΣ","postcode":"19005","city":"ΝΕΑ ΜΑΚΡΗ","region":"Αττικής","country":"Ελλάδα"}},{"id":1721,"headquarter":false,"phones":["2102899999"],"pickup_point":true,"store":true,"full_address":"ΛΕΩΦΟΡΟΣ ΚΝΩΣΟΥ 123, Τ.Κ. 71409, ΗΡΑΚΛΕΙΟ ΚΡΗΤΗΣ, Ηρακλείου","format":"structured","lat":"35.31997","lng":"25.144127","info":"","address":{"id":1721,"street_number":"123","street":"ΛΕΩΦΟΡΟΣ ΚΝΩΣΟΥ","postcode":"71409","city":"ΗΡΑΚΛΕΙΟ ΚΡΗΤΗΣ","region":"Ηρακλείου","country":"Ελλάδα"}},{"id":1722,"headquarter":false,"phones":["2102899999"],"pickup_point":true,"store":true,"full_address":"ΛΙΟΣΙΩΝ 71, Τ.Κ. 13671, ΑΧΑΡΝΕΣ, Αττικής","format":"structured","lat":"38.07912","lng":"23.729472","info":"MEGA ΜΕΝΙΔΙ\r\n","address":{"id":1722,"street_number":"71","street":"ΛΙΟΣΙΩΝ","postcode":"13671","city":"ΑΧΑΡΝΕΣ","region":"Αττικής","country":"Ελλάδα"}},{"id":1725,"headquarter":false,"phones":["2102899999"],"pickup_point":true,"store":true,"full_address":"ΠΑΠΑΠΟΣΤΟΛΟΥ 4, Τ.Κ. 35100, ΛΑΜΙΑ, Φθιώτιδας","format":"structured","lat":"38.900369","lng":"22.441412","info":"","address":{"id":1725,"street_number":"4","street":"ΠΑΠΑΠΟΣΤΟΛΟΥ","postcode":"35100","city":"ΛΑΜΙΑ","region":"Φθιώτιδας","country":"Ελλάδα"}},{"id":1726,"headquarter":false,"phones":["2102899999"],"pickup_point":true,"store":true,"full_address":"ΑΠ ΠΑΥΛΟΥ 42, Τ.Κ. 20100, ΚΟΡΙΝΘΟΣ, Κορινθίας","format":"structured","lat":"37.940558","lng":"22.929615","info":"","address":{"id":1726,"street_number":"42","street":"ΑΠ ΠΑΥΛΟΥ","postcode":"20100","city":"ΚΟΡΙΝΘΟΣ","region":"Κορινθίας","country":"Ελλάδα"}},{"id":1727,"headquarter":false,"phones":["2102899999"],"pickup_point":true,"store":true,"full_address":"ΣΚΑΛΙΔΗ 24, Τ.Κ. 73100, ΧΑΝΙΑ, Χανίων","format":"structured","lat":"35.512067","lng":"24.017633","info":"","address":{"id":1727,"street_number":"24","street":"ΣΚΑΛΙΔΗ","postcode":"73100","city":"ΧΑΝΙΑ","region":"Χανίων","country":"Ελλάδα"}},{"id":1729,"headquarter":false,"phones":["2102899999"],"pickup_point":true,"store":true,"full_address":"ΤΣΙΜΙΣΚΗ 43, Τ.Κ. 54621, Θεσσαλονίκη, Θεσσαλονίκης","format":"structured","lat":"40.628989","lng":"22.948889","info":"","address":{"id":1729,"street_number":"43","street":"ΤΣΙΜΙΣΚΗ","postcode":"54621","city":"Θεσσαλονίκη","region":"Θεσσαλονίκης","country":"Ελλάδα"}},{"id":1730,"headquarter":false,"phones":["2102899999"],"pickup_point":true,"store":true,"full_address":"ΠΛΑΤΑΙΩΝ 1, Τ.Κ. 62100, ΣΕΡΡΕΣ, Σερρών","format":"structured","lat":"41.090712","lng":"23.547136","info":"","address":{"id":1730,"street_number":"1","street":"ΠΛΑΤΑΙΩΝ","postcode":"62100","city":"ΣΕΡΡΕΣ","region":"Σερρών","country":"Ελλάδα"}},{"id":2012,"headquarter":false,"phones":["2102899999"],"pickup_point":true,"store":true,"full_address":"ΘΗΒΩΝ 205, Τ.Κ. 12136, ΠΕΡΙΣΤΕΡΙ, Αττικής","format":"structured","lat":"38.017583","lng":"23.691139","info":"","address":{"id":2012,"street_number":"205","street":"ΘΗΒΩΝ","postcode":"12136","city":"ΠΕΡΙΣΤΕΡΙ","region":"Αττικής","country":"Ελλάδα"}},{"id":2025,"headquarter":false,"phones":["2102899999"],"pickup_point":true,"store":true,"full_address":"ΠΛΑΤΩΝΟΣ 5, Τ.Κ. 18535, ΠΕΙΡΑΙΑΣ, Αττικής","format":"structured","lat":"37.941438","lng":"23.645116","info":"","address":{"id":2025,"street_number":"5","street":"ΠΛΑΤΩΝΟΣ","postcode":"18535","city":"ΠΕΙΡΑΙΑΣ","region":"Αττικής","country":"Ελλάδα"}},{"id":2027,"headquarter":false,"phones":["2102899999"],"pickup_point":true,"store":true,"full_address":"ΠΑΤΗΣΙΩΝ 101, Τ.Κ. 10434, ΑΘΗΝΑ, Αττικής","format":"structured","lat":"37.995609","lng":"23.732143","info":"ΠΑΤΗΣΙΩΝ 101 \u0026 ΚΟΔΡΙΓΚΤΩΝΟΣ","address":{"id":2027,"street_number":"101","street":"ΠΑΤΗΣΙΩΝ","postcode":"10434","city":"ΑΘΗΝΑ","region":"Αττικής","country":"Ελλάδα"}},{"id":2037,"headquarter":false,"phones":["2102899999"],"pickup_point":true,"store":true,"full_address":"ΒΕΙΚΟΥ ΛΕΩΦΟΡΟΣ 43, Τ.Κ. 11147, ΓΑΛΑΤΣΙ, Αττικής","format":"structured","lat":"38.016802","lng":"23.754705","info":"\u0026 ΚΟΡΙΝΗΣ","address":{"id":2037,"street_number":"43","street":"ΒΕΙΚΟΥ ΛΕΩΦΟΡΟΣ","postcode":"11147","city":"ΓΑΛΑΤΣΙ","region":"Αττικής","country":"Ελλάδα"}},{"id":2039,"headquarter":false,"phones":["2102899999"],"pickup_point":true,"store":true,"full_address":"ΔΗΜΟΚΡΑΤΙΑΣ ΛΕΩΦΟΡΟΣ 137, Τ.Κ. 18755, ΚΕΡΑΤΣΙΝΙ, Αττικής","format":"structured","lat":"37.958756","lng":"23.617802","info":"\u0026 ΚΟΜΝΗΝΩΝ","address":{"id":2039,"street_number":"137","street":"ΔΗΜΟΚΡΑΤΙΑΣ ΛΕΩΦΟΡΟΣ","postcode":"18755","city":"ΚΕΡΑΤΣΙΝΙ","region":"Αττικής","country":"Ελλάδα"}},{"id":2047,"headquarter":false,"phones":["2102899999"],"pickup_point":true,"store":true,"full_address":"ΚΗΦΙΣΙΑΣ ΛΕΩΦΟΡΟΣ 250, Τ.Κ. 15451, ΝΕΟ ΨΥΧΙΚΟ, Αττικής","format":"structured","lat":"38.03313","lng":"23.792631","info":"","address":{"id":2047,"street_number":"250","street":"ΚΗΦΙΣΙΑΣ ΛΕΩΦΟΡΟΣ","postcode":"15451","city":"ΝΕΟ ΨΥΧΙΚΟ","region":"Αττικής","country":"Ελλάδα"}}],"meta":{"pagination":{"total_results":69,"total_pages":3,"page":1,"per":25}}}