{"products":[{"id":24154207,"name":"Apple iPhone 5S 16GB Space Grey EU","sku_id":3783654,"shop_id":2999,"category_id":40,"availability":"Άμεση παραλαβή / Παράδοση 1 έως 3 ημέρες","click_url":"https://www.skroutz.gr/products/show/24154207?client_id=pQRXRvomZkCV8yE95iuKqw%3D%3D\u0026from=api","shop_uid":"24408","expenses":null,"web_uri":"http://skroutz.gr/products/show/24154207","sizes":[],"price":277.91},{"id":25657095,"name":"Apple iPhone 5s 16GB Space Gray (Αγγλικός Φορτιστής) + Αντάπτορας EU","sku_id":3783654,"shop_id":3032,"category_id":40,"availability":"Άμεση παραλαβή / Παράδοση 1 έως 3 ημέρες","click_url":"https://www.skroutz.gr/products/show/25657095?client_id=pQRXRvomZkCV8yE95iuKqw%3D%3D\u0026from=api","shop_uid":"4889","expenses":null,"web_uri":"http://skroutz.gr/products/show/25657095","sizes":[],"price":278.0},{"id":22618523,"name":"Apple iPhone 5S 16GB Space Grey (Αγγλικός Φορτιστής - Περιλαμβάνεται Αντάπτορας) EU","sku_id":3783654,"shop_id":2252,"category_id":40,"availability":"Άμεση παραλαβή / Παράδοση 1 έως 3 ημέρες","click_url":"https://www.skroutz.gr/products/show/22618523?client_id=pQRXRvomZkCV8yE95iuKqw%3D%3D\u0026from=api","shop_uid":"659990","expenses":null,"web_uri":"http://skroutz.gr/products/show/22618523","sizes":[],"price":278.0},{"id":25563804,"name":"Apple iPhone 5S (16GB) Silver White EU","sku_id":3783654,"shop_id":2281,"category_id":40,"availability":"Άμεση παραλαβή / Παράδοση 1 έως 3 ημέρες","click_url":"https://www.skroutz.gr/products/show/25563804?client_id=pQRXRvomZkCV8yE95iuKqw%3D%3D\u0026from=api","shop_uid":"1975","expenses":null,"web_uri":"http://skroutz.gr/products/show/25563804","sizes":[],"price":278.05},{"id":13582182,"name":"iPhone 5S 16GB Space Grey ΜΕ ΑΝΤΑΠΤΟΡΑ EU","sku_id":3783654,"shop_id":1967,"category_id":40,"availability":"Άμεση παραλαβή / Παράδοση 1 έως 3 ημέρες","click_url":"https://www.skroutz.gr/products/show/13582182?client_id=pQRXRvomZkCV8yE95iuKqw%3D%3D\u0026from=api","shop_uid":"513","expenses":null,"web_uri":"http://skroutz.gr/products/show/13582182","sizes":[],"price":278.06},{"id":13582183,"name":"iPhone 5S 16GB Silver White EU","sku_id":3783654,"shop_id":1967,"category_id":40,"availability":"Άμεση παραλαβή / Παράδοση 1 έως 3 ημέρες","click_url":"https://www.skroutz.gr/products/show/13582183?client_id=pQRXRvomZkCV8yE95iuKqw%3D%3D\u0026from=api","shop_uid":"514","expenses":null,"web_uri":"http://skroutz.gr/products/show/13582183","sizes":[],"price":278.06},{"id":13704407,"name":"Apple iPhone 5s 16GB Silver EU","sku_id":3783654,"shop_id":1164,"category_id":40,"availability":"Παράδοση 1 έως 3 ημέρες","click_url":"https://www.skroutz.gr/products/show/13704407?client_id=pQRXRvomZkCV8yE95iuKqw%3D%3D\u0026from=api","shop_uid":"4077","expenses":null,"web_uri":"http://skroutz.gr/products/show/13704407","sizes":[],"price":278.7},{"id":25468845,"name":"Apple iPhone 5S 16GB Silver EU","sku_id":3783654,"shop_id":3852,"category_id":40,"availability":"Άμεση παραλαβή / Παράδοση 1 έως 3 ημέρες","click_url":"https://www.skroutz.gr/products/show/25468845?client_id=pQRXRvomZkCV8yE95iuKqw%3D%3D\u0026from=api","shop_uid":"36212","expenses":null,"web_uri":"http://skroutz.gr/products/show/25468845","sizes":[],"price":278.7},{"id":25468847,"name":"Apple iPhone 5S 16GB Space Gray EU","sku_id":3783654,"shop_id":3852,"category_id":40,"availability":"Άμεση παραλαβή / Παράδοση 1 έως 3 ημέρες","click_url":"https://www.skroutz.gr/products/show/25468847?client_id=pQRXRvomZkCV8yE95iuKqw%3D%3D\u0026from=api","shop_uid":"36206","expenses":null,"web_uri":"http://skroutz.gr/products/show/25468847","sizes":[],"price":278.7},{"id":22411194,"name":"APPLE IPHONE 5S 16GB SPACE GREY EU","sku_id":3783654,"shop_id":1306,"category_id":40,"availability":"Κατόπιν παραγγελίας","click_url":"https://www.skroutz.gr/products/show/22411194?client_id=pQRXRvomZkCV8yE95iuKqw%3D%3D\u0026from=api","shop_uid":"31955","expenses":null,"web_uri":"http://skroutz.gr/products/show/22411194","sizes":[],"price":278.9},{"id":22411195,"name":"APPLE IPHONE 5S 16GB SILVER EU","sku_id":3783654,"shop_id":1306,"category_id":40,"availability":"Κατόπιν παραγγελίας","click_url":"https://www.skroutz.gr/products/show/22411195?client_id=pQRXRvomZkCV8yE95iuKqw%3D%3D\u0026from=api","shop_uid":"22170","expenses":null,"web_uri":"http://skroutz.gr/products/show/22411195","sizes":[],"price":278.9},{"id":17800324,"name":"Apple iPhone 5s Space Grey 16GB EU (Πληρωμή σε εώς 9 δόσεις)","sku_id":3783654,"shop_id":2458,"category_id":40,"availability":"Άμεση παραλαβή / Παράδοση 1 έως 3 ημέρες","click_url":"https://www.skroutz.gr/products/show/17800324?client_id=pQRXRvomZkCV8yE95iuKqw%3D%3D\u0026from=api","shop_uid":"3992","expenses":null,"web_uri":"http://skroutz.gr/products/show/17800324","sizes":[],"price":279.0},{"id":21923906,"name":"Apple iPhone 5S (16GB) Space Gray EU","sku_id":3783654,"shop_id":3304,"category_id":40,"availability":"Άμεση παραλαβή / Παράδοση 1 έως 3 ημέρες","click_url":"https://www.skroutz.gr/products/show/21923906?client_id=pQRXRvomZkCV8yE95iuKqw%3D%3D\u0026from=api","shop_uid":"60","expenses":null,"web_uri":"http://skroutz.gr/products/show/21923906","sizes":[],"price":279.4},{"id":24946435,"name":"Apple iPhone 5s (16gb) space-gray EU","sku_id":3783654,"shop_id":3779,"category_id":40,"availability":"Άμεση παραλαβή / Παράδοση 1 έως 3 ημέρες","click_url":"https://www.skroutz.gr/products/show/24946435?client_id=pQRXRvomZkCV8yE95iuKqw%3D%3D\u0026from=api","shop_uid":"1593","expenses":null,"web_uri":"http://skroutz.gr/products/show/24946435","sizes":[],"price":279.5},{"id":25057170,"name":"Apple iPhone 5s (16gb) Silverwhite EU","sku_id":3783654,"shop_id":3779,"category_id":40,"availability":"Άμεση παραλαβή / Παράδοση 1 έως 3 ημέρες","click_url":"https://www.skroutz.gr/products/show/25057170?client_id=pQRXRvomZkCV8yE95iuKqw%3D%3D\u0026from=api","shop_uid":"1884","expenses":null,"web_uri":"http://skroutz.gr/products/show/25057170","sizes":[],"price":279.5},{"id":20820803,"name":"iPhone 5s Silver White 16GB (αγγλικος φορτιστης + ανταπτορας) EU","sku_id":3783654,"shop_id":2004,"category_id":40,"availability":"Άμεση παραλαβή / Παράδοση 1 έως 3 ημέρες","click_url":"https://www.skroutz.gr/products/show/20820803?client_id=pQRXRvomZkCV8yE95iuKqw%3D%3D\u0026from=api","shop_uid":"KZR-LSYF8TN7","expenses":null,"web_uri":"http://skroutz.gr/products/show/20820803","sizes":[],"price":279.8},{"id":22808560,"name":"iPhone 5s Space Grey 16GB ΜΑΥΡΟ ΓΚΡΙΖΟ (αγγλικος φορτιστης + ανταπτορας) EU","sku_id":3783654,"shop_id":2004,"category_id":40,"availability":"Άμεση παραλαβή / Παράδοση 1 έως 3 ημέρες","click_url":"https://www.skroutz.gr/products/show/22808560?client_id=pQRXRvomZkCV8yE95iuKqw%3D%3D\u0026from=api","shop_uid":"KZR-IKPZGAXH","expenses":null,"web_uri":"http://skroutz.gr/products/show/22808560","sizes":[],"price":279.8},{"id":17537969,"name":"Apple iPhone 5S 16GB Silver White Αγγλικός Φορτιστής + αντάπτορας EU","sku_id":3783654,"shop_id":1996,"category_id":40,"availability":"Άμεση παραλαβή / Παράδοση 1 έως 3 ημέρες","click_url":"https://www.skroutz.gr/products/show/17537969?client_id=pQRXRvomZkCV8yE95iuKqw%3D%3D\u0026from=api","shop_uid":"760","expenses":null,"web_uri":"http://skroutz.gr/products/show/17537969","sizes":[],"price":280.0},{"id":16321325,"name":"SMARTPHONE EU iPHONE 5S 16GB GREY APPLE","sku_id":3783654,"shop_id":2036,"category_id":40,"availability":"Παράδοση 4 έως 10 ημέρες","click_url":"https://www.skroutz.gr/products/show/16321325?client_id=pQRXRvomZkCV8yE95iuKqw%3D%3D\u0026from=api","shop_uid":"008379","expenses":null,"web_uri":"http://skroutz.gr/products/show/16321325","sizes":[],"price":280.0},{"id":17835249,"name":"Apple iPhone 5S 16GB silver EU (Πληρωμή σε εώς 9 δόσεις)","sku_id":3783654,"shop_id":2458,"category_id":40,"availability":"Άμεση παραλαβή / Παράδοση 1 έως 3 ημέρες","click_url":"https://www.skroutz.gr/products/show/17835249?client_id=pQRXRvomZkCV8yE95iuKqw%3D%3D\u0026from=api","shop_uid":"4070","expenses":null,"web_uri":"http://skroutz.gr/products/show/17835249","sizes":[],"price":283.0},{"id":22482527,"name":"Apple iPhone 5s 16GB Silver EU","sku_id":3783654,"shop_id":3409,"category_id":40,"availability":"Άμεση παραλαβή / Παράδοση 1 έως 3 ημέρες","click_url":"https://www.skroutz.gr/products/show/22482527?client_id=pQRXRvomZkCV8yE95iuKqw%3D%3D\u0026from=api","shop_uid":"609","expenses":null,"web_uri":"http://skroutz.gr/products/show/22482527","sizes":[],"price":284.0},{"id":22482529,"name":"Apple iPhone 5s 16GB Space Gray EU","sku_id":3783654,"shop_id":3409,"category_id":40,"availability":"Άμεση παραλαβή / Παράδοση 1 έως 3 ημέρες","click_url":"https://www.skroutz.gr/products/show/22482529?client_id=pQRXRvomZkCV8yE95iuKqw%3D%3D\u0026from=api","shop_uid":"614","expenses":null,"web_uri":"http://skroutz.gr/products/show/22482529","sizes":[],"price":284.0},{"id":24421125,"name":"Apple Iphone 5S 16GB Space Grey EU","sku_id":3783654,"shop_id":3672,"category_id":40,"availability":"Παράδοση 1 έως 3 ημέρες","click_url":"https://www.skroutz.gr/products/show/24421125?client_id=pQRXRvomZkCV8yE95iuKqw%3D%3D\u0026from=api","shop_uid":"31","expenses":null,"web_uri":"http://skroutz.gr/products/show/24421125","sizes":[],"price":284.0},{"id":24466666,"name":"Apple iPhone 5S (16GB) Silver White EU","sku_id":3783654,"shop_id":3672,"category_id":40,"availability":"Παράδοση 1 έως 3 ημέρες","click_url":"https://www.skroutz.gr/products/show/24466666?client_id=pQRXRvomZkCV8yE95iuKqw%3D%3D\u0026from=api","shop_uid":"30","expenses":null,"web_uri":"http://skroutz.gr/products/show/24466666","sizes":[],"price":284.0},{"id":13959813,"name":"Apple iPhone 5S 16GB Silver White EU","sku_id":3783654,"shop_id":282,"category_id":40,"availability":"Παράδοση 1 έως 3 ημέρες","click_url":"https://www.skroutz.gr/products/show/13959813?client_id=pQRXRvomZkCV8yE95iuKqw%3D%3D\u0026from=api","shop_uid":"2184","expenses":null,"web_uri":"http://skroutz.gr/products/show/13959813","sizes":[],"price":284.0}],"meta":{"pagination":{"total_results":120,"total_pages":5,"page":1,"per":25}}}